[ME_disc_SR_4l_Incl_bin_1_13TeV]
OpgSqrd_PDF_var                             = 1.00632143185 0.993678568147
EFT_PS_muF_muR                              = 1.00272289308 0.997277106923
EL_EFF_ID_CorrUncertaintyNP0                = 1.00009102543 0.999908974567
EL_EFF_ID_CorrUncertaintyNP1                = 0.999925378109 1.00007462189
EL_EFF_ID_CorrUncertaintyNP2                = 1.00006741571 0.999932584289
EL_EFF_ID_CorrUncertaintyNP3                = 0.999919689019 1.00008031098
EL_EFF_ID_CorrUncertaintyNP4                = 1.00017266387 0.999827336132
EL_EFF_ID_CorrUncertaintyNP5                = 0.999894088116 1.00010591188
EL_EFF_ID_CorrUncertaintyNP6                = 1.00008922389 0.999910776112
EL_EFF_ID_CorrUncertaintyNP7                = 0.999866401214 1.00013359879
EL_EFF_ID_CorrUncertaintyNP8                = 0.999784573142 1.00021542686
EL_EFF_ID_CorrUncertaintyNP9                = 1.0002020575 0.999797942503
EL_EFF_ID_CorrUncertaintyNP10               = 1.00031839938 0.999681600622
EL_EFF_ID_CorrUncertaintyNP11               = 1.00047759907 0.999522400932
EL_EFF_ID_CorrUncertaintyNP12               = 0.999650026175 1.00034997383
EL_EFF_ID_CorrUncertaintyNP13               = 1.00038695291 0.999613047092
EL_EFF_ID_CorrUncertaintyNP14               = 0.999522211296 1.0004777887
EL_EFF_ID_CorrUncertaintyNP15               = 0.999712985432 1.00028701457
EL_EFF_ID_SIMPLIFIED_UncorrUncertaintyNP0   = 1.0 1.0
EL_EFF_ID_SIMPLIFIED_UncorrUncertaintyNP1   = 1.00328137203 0.996718627966
EL_EFF_ID_SIMPLIFIED_UncorrUncertaintyNP2   = 1.00283847641 0.997161523587
EL_EFF_ID_SIMPLIFIED_UncorrUncertaintyNP3   = 1.00136670895 0.998633291054
EL_EFF_ID_SIMPLIFIED_UncorrUncertaintyNP4   = 1.00105750693 0.998942493071
EL_EFF_ID_SIMPLIFIED_UncorrUncertaintyNP5   = 1.00027193848 0.99972806152
EL_EFF_ID_SIMPLIFIED_UncorrUncertaintyNP6   = 1.00018612805 0.999813871954
EL_EFF_ID_SIMPLIFIED_UncorrUncertaintyNP7   = 1.00023202004 0.999767979965
EL_EFF_ID_SIMPLIFIED_UncorrUncertaintyNP8   = 1.00034030237 0.999659697627
EL_EFF_ID_SIMPLIFIED_UncorrUncertaintyNP9   = 1.0 1.0
EL_EFF_ID_SIMPLIFIED_UncorrUncertaintyNP10  = 1.0 1.0
EL_EFF_ID_SIMPLIFIED_UncorrUncertaintyNP11  = 1.00738614496 0.992613855038
EL_EFF_ID_SIMPLIFIED_UncorrUncertaintyNP12  = 1.00174171477 0.998258285234
EL_EFF_ID_SIMPLIFIED_UncorrUncertaintyNP13  = 1.0005592375 0.999440762497
EL_EFF_ID_SIMPLIFIED_UncorrUncertaintyNP14  = 1.00027146439 0.99972853561
EL_EFF_ID_SIMPLIFIED_UncorrUncertaintyNP15  = 1.00050623415 0.999493765848
EL_EFF_ID_SIMPLIFIED_UncorrUncertaintyNP16  = 1.00018830886 0.999811691136
EL_EFF_ID_SIMPLIFIED_UncorrUncertaintyNP17  = 1.00022671022 0.999773289781
EL_EFF_Iso_TOTAL_1NPCOR_PLUS_UNCOR          = 1.00567154819 0.99432845181
EL_EFF_Reco_TOTAL_1NPCOR_PLUS_UNCOR         = 1.01506764849 0.98493235151
MUON_EFF_ISO_STAT                           = 1.00179898493 0.998201015066
MUON_EFF_ISO_SYS                            = 1.01612676733 0.983873232672
MUON_EFF_RECO_STAT_LOWPT                    = 1.0025961212 0.997403878802
MUON_EFF_RECO_STAT                          = 1.00090390151 0.999096098489
MUON_EFF_RECO_SYS_LOWPT                     = 1.00889773606 0.991102263945
MUON_EFF_RECO_SYS                           = 1.00323339405 0.996766605955
MUON_EFF_TTVA_STAT                          = 1.00237216071 0.997627839294
MUON_EFF_TTVA_SYS                           = 1.00091129733 0.999088702672
JET_fJvtEfficiency                          = 0.994711706809 1.00528829319
EG_RESOLUTION_ALL                           = 1.03943619985 0.960563800153
EG_SCALE_AF2                                = 0.999999905182 1.00000009482
EG_SCALE_ALL                                = 0.986259236829 1.01374076317
JET_BJES_Response                           = 0.999999905182 1.00000009482
JET_EffectiveNP_Detector1                   = 0.999999905182 1.00000009482
JET_EffectiveNP_Detector2                   = 0.999999905182 1.00000009482
JET_EffectiveNP_Mixed1                      = 0.999999905182 1.00000009482
JET_EffectiveNP_Mixed2                      = 0.999999905182 1.00000009482
JET_EffectiveNP_Mixed3                      = 0.999999905182 1.00000009482
JET_EffectiveNP_Modelling1                  = 1.00773213642 0.992267863575
JET_EffectiveNP_Modelling2                  = 0.999999905182 1.00000009482
JET_EffectiveNP_Modelling3                  = 0.999999905182 1.00000009482
JET_EffectiveNP_Modelling4                  = 0.999999905182 1.00000009482
JET_EffectiveNP_Statistical1                = 0.999999905182 1.00000009482
JET_EffectiveNP_Statistical2                = 0.999999905182 1.00000009482
JET_EffectiveNP_Statistical3                = 0.999999905182 1.00000009482
JET_EffectiveNP_Statistical4                = 0.999999905182 1.00000009482
JET_EffectiveNP_Statistical5                = 0.999999905182 1.00000009482
JET_EffectiveNP_Statistical6                = 0.999999905182 1.00000009482
JET_EtaIntercalibration_Modelling           = 0.999305267348 1.00069473265
JET_EtaIntercalibration_NonClosure_2018data = 0.99972493252 1.00027506748
JET_EtaIntercalibration_NonClosure_highE    = 0.999999905182 1.00000009482
JET_EtaIntercalibration_NonClosure_negEta   = 0.999999905182 1.00000009482
JET_EtaIntercalibration_NonClosure_posEta   = 0.999999905182 1.00000009482
JET_EtaIntercalibration_TotalStat           = 0.999923481746 1.00007651825
JET_Flavor_Composition                      = 0.999923481746 1.00007651825
JET_Flavor_Response                         = 0.999923481746 1.00007651825
JET_JER_DataVsMC_MC16                       = 1.00125956443 0.998740435574
JET_JER_EffectiveNP_10                      = 0.999408619141 1.00059138086
JET_JER_EffectiveNP_11                      = 0.999272365447 1.00072763455
JET_JER_EffectiveNP_1                       = 1.00458332018 0.995416679823
JET_JER_EffectiveNP_12restTerm              = 1.00458332018 0.995416679823
JET_JER_EffectiveNP_2                       = 1.00575678972 0.994243210285
JET_JER_EffectiveNP_3                       = 1.00479817813 0.995201821874
JET_JER_EffectiveNP_4                       = 0.999322050162 1.00067794984
JET_JER_EffectiveNP_5                       = 0.996183663912 1.00381633609
JET_JER_EffectiveNP_6                       = 0.999598350278 1.00040164972
JET_JER_EffectiveNP_7                       = 1.00080709217 0.999192907829
JET_JER_EffectiveNP_8                       = 0.998321149674 1.00167885033
JET_JER_EffectiveNP_9                       = 1.0009351915 0.999064808496
JET_Pileup_OffsetMu                         = 1.00745697413 0.992543025873
JET_Pileup_OffsetNPV                        = 1.00745697413 0.992543025873
JET_Pileup_PtTerm                           = 0.99996548619 1.00003451381
JET_Pileup_RhoTopology                      = 1.00773213642 0.992267863575
JET_PunchThrough_MC16                       = 0.999999905182 1.00000009482
JET_SingleParticle_HighPt                   = 0.999999905182 1.00000009482
MET_SoftTrk_Scale                           = 0.999999905182 1.00000009482
MUON_ID                                     = 0.973269149025 1.02673085097
MUON_MS                                     = 1.00011520406 0.999884795937
MUON_SAGITTA_RESBIAS                        = 0.947014000755 1.05298599925
MUON_SAGITTA_RHO                            = 1.07224773937 0.927752260631
MUON_SCALE                                  = 0.999855023035 1.00014497697
[ME_disc_SR_4l_Incl_bin_2_13TeV]
OpgSqrd_PDF_var                             = 1.00610566163 0.993894338374
EFT_PS_muF_muR                              = 1.00276619758 0.997233802419
EL_EFF_ID_CorrUncertaintyNP0                = 1.00006541218 0.999934587818
EL_EFF_ID_CorrUncertaintyNP1                = 0.999997737624 1.00000226238
EL_EFF_ID_CorrUncertaintyNP2                = 1.00002754197 0.999972458028
EL_EFF_ID_CorrUncertaintyNP3                = 1.00000118037 0.99999881963
EL_EFF_ID_CorrUncertaintyNP4                = 1.00010800387 0.999891996126
EL_EFF_ID_CorrUncertaintyNP5                = 0.999917177357 1.00008282264
EL_EFF_ID_CorrUncertaintyNP6                = 1.0000554774 0.9999445226
EL_EFF_ID_CorrUncertaintyNP7                = 0.999764024323 1.00023597568
EL_EFF_ID_CorrUncertaintyNP8                = 0.999872520018 1.00012747998
EL_EFF_ID_CorrUncertaintyNP9                = 1.00022171287 0.999778287129
EL_EFF_ID_CorrUncertaintyNP10               = 1.0003339464 0.999666053595
EL_EFF_ID_CorrUncertaintyNP11               = 1.00037221007 0.999627789928
EL_EFF_ID_CorrUncertaintyNP12               = 0.999586083514 1.00041391649
EL_EFF_ID_CorrUncertaintyNP13               = 1.00000560676 0.999994393242
EL_EFF_ID_CorrUncertaintyNP14               = 0.999700382696 1.0002996173
EL_EFF_ID_CorrUncertaintyNP15               = 0.999784779166 1.00021522083
EL_EFF_ID_SIMPLIFIED_UncorrUncertaintyNP0   = 1.0 1.0
EL_EFF_ID_SIMPLIFIED_UncorrUncertaintyNP1   = 1.00084937473 0.999150625272
EL_EFF_ID_SIMPLIFIED_UncorrUncertaintyNP2   = 1.00257546943 0.997424530572
EL_EFF_ID_SIMPLIFIED_UncorrUncertaintyNP3   = 1.00134808114 0.998651918859
EL_EFF_ID_SIMPLIFIED_UncorrUncertaintyNP4   = 1.00083521029 0.999164789714
EL_EFF_ID_SIMPLIFIED_UncorrUncertaintyNP5   = 1.00041480176 0.999585198236
EL_EFF_ID_SIMPLIFIED_UncorrUncertaintyNP6   = 1.00054965906 0.99945034094
EL_EFF_ID_SIMPLIFIED_UncorrUncertaintyNP7   = 1.00023223784 0.999767762162
EL_EFF_ID_SIMPLIFIED_UncorrUncertaintyNP8   = 1.00054769178 0.999452308224
EL_EFF_ID_SIMPLIFIED_UncorrUncertaintyNP9   = 1.0 1.0
EL_EFF_ID_SIMPLIFIED_UncorrUncertaintyNP10  = 1.00126693069 0.998733069311
EL_EFF_ID_SIMPLIFIED_UncorrUncertaintyNP11  = 1.00291787515 0.997082124847
EL_EFF_ID_SIMPLIFIED_UncorrUncertaintyNP12  = 1.00103272557 0.998967274433
EL_EFF_ID_SIMPLIFIED_UncorrUncertaintyNP13  = 1.00040988355 0.999590116445
EL_EFF_ID_SIMPLIFIED_UncorrUncertaintyNP14  = 1.00018079337 0.99981920663
EL_EFF_ID_SIMPLIFIED_UncorrUncertaintyNP15  = 1.00040624408 0.99959375592
EL_EFF_ID_SIMPLIFIED_UncorrUncertaintyNP16  = 1.0002853545 0.999714645502
EL_EFF_ID_SIMPLIFIED_UncorrUncertaintyNP17  = 1.00090908179 0.999090918212
EL_EFF_Iso_TOTAL_1NPCOR_PLUS_UNCOR          = 1.00277150925 0.997228490753
EL_EFF_Reco_TOTAL_1NPCOR_PLUS_UNCOR         = 1.01076064827 0.989239351733
MUON_EFF_ISO_STAT                           = 1.00080501248 0.999194987519
MUON_EFF_ISO_SYS                            = 1.00861158758 0.991388412424
MUON_EFF_RECO_STAT_LOWPT                    = 1.0013155226 0.998684477404
MUON_EFF_RECO_STAT                          = 1.00161956629 0.998380433711
MUON_EFF_RECO_SYS_LOWPT                     = 1.00269567046 0.997304329539
MUON_EFF_RECO_SYS                           = 1.00397076538 0.996029234622
MUON_EFF_TTVA_STAT                          = 1.00161769737 0.998382302631
MUON_EFF_TTVA_SYS                           = 1.00087268704 0.99912731296
JET_fJvtEfficiency                          = 1.00017253078 0.999827469221
EG_RESOLUTION_ALL                           = 0.995601350422 1.00439864958
EG_SCALE_AF2                                = 0.999999803272 1.00000019673
EG_SCALE_ALL                                = 1.00178039173 0.998219608271
JET_BJES_Response                           = 0.999965080715 1.00003491929
JET_EffectiveNP_Detector1                   = 1.00004072277 0.999959277228
JET_EffectiveNP_Detector2                   = 1.0 1.0
JET_EffectiveNP_Mixed1                      = 0.999942260224 1.00005773978
JET_EffectiveNP_Mixed2                      = 0.99995957232 1.00004042768
JET_EffectiveNP_Mixed3                      = 1.00002075484 0.999979245157
JET_EffectiveNP_Modelling1                  = 1.00028702669 0.999712973311
JET_EffectiveNP_Modelling2                  = 1.00003393564 0.999966064357
JET_EffectiveNP_Modelling3                  = 0.999941965131 1.00005803487
JET_EffectiveNP_Modelling4                  = 1.0 1.0
JET_EffectiveNP_Statistical1                = 1.0 1.0
JET_EffectiveNP_Statistical2                = 0.9999167839 1.0000832161
JET_EffectiveNP_Statistical3                = 1.0 1.0
JET_EffectiveNP_Statistical4                = 1.0 1.0
JET_EffectiveNP_Statistical5                = 1.0 1.0
JET_EffectiveNP_Statistical6                = 1.0 1.0
JET_EtaIntercalibration_Modelling           = 0.999679922945 1.00032007705
JET_EtaIntercalibration_NonClosure_2018data = 0.99995062118 1.00004937882
JET_EtaIntercalibration_NonClosure_highE    = 1.0 1.0
JET_EtaIntercalibration_NonClosure_negEta   = 0.999982097719 1.00001790228
JET_EtaIntercalibration_NonClosure_posEta   = 1.00000078691 0.999999213087
JET_EtaIntercalibration_TotalStat           = 1.00009442962 0.999905570383
JET_Flavor_Composition                      = 1.00009442962 0.999905570383
JET_Flavor_Response                         = 1.00009442962 0.999905570383
JET_JER_DataVsMC_MC16                       = 0.999665955231 1.00033404477
JET_JER_EffectiveNP_10                      = 0.999364370643 1.00063562936
JET_JER_EffectiveNP_11                      = 1.00028840379 0.999711596213
JET_JER_EffectiveNP_1                       = 1.0012309294 0.998769070602
JET_JER_EffectiveNP_12restTerm              = 1.0012309294 0.998769070602
JET_JER_EffectiveNP_2                       = 0.999614117306 1.00038588269
JET_JER_EffectiveNP_3                       = 0.999572017436 1.00042798256
JET_JER_EffectiveNP_4                       = 0.999139805211 1.00086019479
JET_JER_EffectiveNP_5                       = 1.00013387365 0.999866126346
JET_JER_EffectiveNP_6                       = 0.998881992685 1.00111800731
JET_JER_EffectiveNP_7                       = 1.0002507303 0.999749269695
JET_JER_EffectiveNP_8                       = 0.999544967285 1.00045503271
JET_JER_EffectiveNP_9                       = 1.0007700932 0.999229906804
JET_Pileup_OffsetMu                         = 0.999603592339 1.00039640766
JET_Pileup_OffsetNPV                        = 0.99978418898 1.00021581102
JET_Pileup_PtTerm                           = 1.00027768209 0.999722317909
JET_Pileup_RhoTopology                      = 1.00023007383 0.999769926174
JET_PunchThrough_MC16                       = 1.0 1.0
JET_SingleParticle_HighPt                   = 1.0 1.0
MET_SoftTrk_Scale                           = 0.999999803272 1.00000019673
MUON_ID                                     = 1.00881638181 0.991183618193
MUON_MS                                     = 0.996579975688 1.00342002431
MUON_SAGITTA_RESBIAS                        = 1.00740446231 0.992595537689
MUON_SAGITTA_RHO                            = 1.01647580408 0.983524195917
MUON_SCALE                                  = 1.00226434351 0.997735656486
[ME_disc_SR_4l_Incl_bin_3_13TeV]
OpgSqrd_PDF_var                             = 1.00515460814 0.99484539186
EFT_PS_muF_muR                              = 1.00282304477 0.997176955231
EL_EFF_ID_CorrUncertaintyNP0                = 1.00009462429 0.999905375708
EL_EFF_ID_CorrUncertaintyNP1                = 0.999987066279 1.00001293372
EL_EFF_ID_CorrUncertaintyNP2                = 1.0000278744 0.999972125601
EL_EFF_ID_CorrUncertaintyNP3                = 0.999958597226 1.00004140277
EL_EFF_ID_CorrUncertaintyNP4                = 1.00008823176 0.999911768237
EL_EFF_ID_CorrUncertaintyNP5                = 0.999907828655 1.00009217135
EL_EFF_ID_CorrUncertaintyNP6                = 1.00009298899 0.999907011006
EL_EFF_ID_CorrUncertaintyNP7                = 0.999763848094 1.00023615191
EL_EFF_ID_CorrUncertaintyNP8                = 0.99986464192 1.00013535808
EL_EFF_ID_CorrUncertaintyNP9                = 1.00013379711 0.999866202886
EL_EFF_ID_CorrUncertaintyNP10               = 1.0003199981 0.999680001903
EL_EFF_ID_CorrUncertaintyNP11               = 1.00047059418 0.999529405818
EL_EFF_ID_CorrUncertaintyNP12               = 0.999583816644 1.00041618336
EL_EFF_ID_CorrUncertaintyNP13               = 0.99997465288 1.00002534712
EL_EFF_ID_CorrUncertaintyNP14               = 0.999768902652 1.00023109735
EL_EFF_ID_CorrUncertaintyNP15               = 0.999848288939 1.00015171106
EL_EFF_ID_SIMPLIFIED_UncorrUncertaintyNP0   = 1.0 1.0
EL_EFF_ID_SIMPLIFIED_UncorrUncertaintyNP1   = 1.00029160338 0.999708396624
EL_EFF_ID_SIMPLIFIED_UncorrUncertaintyNP2   = 1.00104844905 0.99895155095
EL_EFF_ID_SIMPLIFIED_UncorrUncertaintyNP3   = 1.00103150142 0.998968498585
EL_EFF_ID_SIMPLIFIED_UncorrUncertaintyNP4   = 1.0008545919 0.999145408102
EL_EFF_ID_SIMPLIFIED_UncorrUncertaintyNP5   = 1.00049304236 0.999506957636
EL_EFF_ID_SIMPLIFIED_UncorrUncertaintyNP6   = 1.00070592844 0.999294071561
EL_EFF_ID_SIMPLIFIED_UncorrUncertaintyNP7   = 1.0004219069 0.999578093101
EL_EFF_ID_SIMPLIFIED_UncorrUncertaintyNP8   = 1.00085332826 0.999146671741
EL_EFF_ID_SIMPLIFIED_UncorrUncertaintyNP9   = 1.0 1.0
EL_EFF_ID_SIMPLIFIED_UncorrUncertaintyNP10  = 1.00048858246 0.99951141754
EL_EFF_ID_SIMPLIFIED_UncorrUncertaintyNP11  = 1.00116998143 0.998830018572
EL_EFF_ID_SIMPLIFIED_UncorrUncertaintyNP12  = 1.00080404632 0.999195953678
EL_EFF_ID_SIMPLIFIED_UncorrUncertaintyNP13  = 1.00033962167 0.999660378326
EL_EFF_ID_SIMPLIFIED_UncorrUncertaintyNP14  = 1.00022083957 0.999779160431
EL_EFF_ID_SIMPLIFIED_UncorrUncertaintyNP15  = 1.00040064802 0.999599351976
EL_EFF_ID_SIMPLIFIED_UncorrUncertaintyNP16  = 1.00024328775 0.999756712248
EL_EFF_ID_SIMPLIFIED_UncorrUncertaintyNP17  = 1.00050002955 0.999499970453
EL_EFF_Iso_TOTAL_1NPCOR_PLUS_UNCOR          = 1.00150172394 0.998498276061
EL_EFF_Reco_TOTAL_1NPCOR_PLUS_UNCOR         = 1.00802254927 0.991977450726
MUON_EFF_ISO_STAT                           = 1.00044331444 0.999556685563
MUON_EFF_ISO_SYS                            = 1.00469048082 0.995309519181
MUON_EFF_RECO_STAT_LOWPT                    = 1.00050025254 0.999499747458
MUON_EFF_RECO_STAT                          = 1.00159456427 0.998405435731
MUON_EFF_RECO_SYS_LOWPT                     = 1.00096162959 0.999038370411
MUON_EFF_RECO_SYS                           = 1.0039881203 0.996011879697
MUON_EFF_TTVA_STAT                          = 1.00102733884 0.998972661161
MUON_EFF_TTVA_SYS                           = 1.00080471531 0.999195284692
JET_fJvtEfficiency                          = 0.999770686613 1.00022931339
EG_RESOLUTION_ALL                           = 0.99928671272 1.00071328728
EG_SCALE_AF2                                = 0.999999628341 1.00000037166
EG_SCALE_ALL                                = 1.00718260073 0.992817399274
JET_BJES_Response                           = 0.999985951303 1.0000140487
JET_EffectiveNP_Detector1                   = 0.99997896412 1.00002103588
JET_EffectiveNP_Detector2                   = 1.00000200696 0.999997993043
JET_EffectiveNP_Mixed1                      = 0.999977180159 1.00002281984
JET_EffectiveNP_Mixed2                      = 0.999945589174 1.00005441083
JET_EffectiveNP_Mixed3                      = 0.999988032591 1.00001196741
JET_EffectiveNP_Modelling1                  = 0.999874305045 1.00012569496
JET_EffectiveNP_Modelling2                  = 1.00000319626 0.999996803736
JET_EffectiveNP_Modelling3                  = 1.00003434126 0.999965658741
JET_EffectiveNP_Modelling4                  = 1.00001062944 0.999989370563
JET_EffectiveNP_Statistical1                = 1.00001033211 0.99998966789
JET_EffectiveNP_Statistical2                = 1.0000803526 0.9999196474
JET_EffectiveNP_Statistical3                = 1.00000222995 0.999997770048
JET_EffectiveNP_Statistical4                = 0.999984464668 1.00001553533
JET_EffectiveNP_Statistical5                = 1.0000107781 0.999989221899
JET_EffectiveNP_Statistical6                = 1.00000958879 0.999990411207
JET_EtaIntercalibration_Modelling           = 0.99969576023 1.00030423977
JET_EtaIntercalibration_NonClosure_2018data = 0.999971828274 1.00002817173
JET_EtaIntercalibration_NonClosure_highE    = 1.00000066899 0.999999331014
JET_EtaIntercalibration_NonClosure_negEta   = 1.00000728451 0.99999271549
JET_EtaIntercalibration_NonClosure_posEta   = 0.999987660933 1.00001233907
JET_EtaIntercalibration_TotalStat           = 0.999925742602 1.0000742574
JET_Flavor_Composition                      = 0.999925742602 1.0000742574
JET_Flavor_Response                         = 0.999925742602 1.0000742574
JET_JER_DataVsMC_MC16                       = 0.999963280125 1.00003671987
JET_JER_EffectiveNP_10                      = 0.999844498021 1.00015550198
JET_JER_EffectiveNP_11                      = 0.999883373516 1.00011662648
JET_JER_EffectiveNP_1                       = 0.999258615326 1.00074138467
JET_JER_EffectiveNP_12restTerm              = 0.999258615326 1.00074138467
JET_JER_EffectiveNP_2                       = 1.00007068948 0.999929310525
JET_JER_EffectiveNP_3                       = 0.99996647639 1.00003352361
JET_JER_EffectiveNP_4                       = 1.00012956021 0.999870439795
JET_JER_EffectiveNP_5                       = 1.00020954115 0.999790458853
JET_JER_EffectiveNP_6                       = 1.00000698718 0.999993012817
JET_JER_EffectiveNP_7                       = 0.999854012483 1.00014598752
JET_JER_EffectiveNP_8                       = 0.999949008433 1.00005099157
JET_JER_EffectiveNP_9                       = 1.00002817173 0.999971828274
JET_Pileup_OffsetMu                         = 0.999535872679 1.00046412732
JET_Pileup_OffsetNPV                        = 0.999879062275 1.00012093772
JET_Pileup_PtTerm                           = 0.999947001477 1.00005299852
JET_Pileup_RhoTopology                      = 0.999822272834 1.00017772717
JET_PunchThrough_MC16                       = 1.00000066899 0.999999331014
JET_SingleParticle_HighPt                   = 1.00000066899 0.999999331014
MET_SoftTrk_Scale                           = 0.999999628341 1.00000037166
MUON_ID                                     = 1.00113705247 0.998862947528
MUON_MS                                     = 1.00054150665 0.999458493348
MUON_SAGITTA_RESBIAS                        = 1.00277859439 0.997221405606
MUON_SAGITTA_RHO                            = 0.998997487959 1.00100251204
MUON_SCALE                                  = 0.995377607046 1.00462239295
[ME_disc_SR_4l_Incl_bin_4_13TeV]
OpgSqrd_PDF_var                             = 1.00578896664 0.994211033363
EFT_PS_muF_muR                              = 1.00278592775 0.997214072255
EL_EFF_ID_CorrUncertaintyNP0                = 1.00011403315 0.999885966852
EL_EFF_ID_CorrUncertaintyNP1                = 0.999984480205 1.0000155198
EL_EFF_ID_CorrUncertaintyNP2                = 1.00001693069 0.999983069314
EL_EFF_ID_CorrUncertaintyNP3                = 0.999951033801 1.0000489662
EL_EFF_ID_CorrUncertaintyNP4                = 1.00009345075 0.999906549254
EL_EFF_ID_CorrUncertaintyNP5                = 0.999891195446 1.00010880455
EL_EFF_ID_CorrUncertaintyNP6                = 1.00003510627 0.999964893725
EL_EFF_ID_CorrUncertaintyNP7                = 0.999735167557 1.00026483244
EL_EFF_ID_CorrUncertaintyNP8                = 0.999857168087 1.00014283191
EL_EFF_ID_CorrUncertaintyNP9                = 1.00009378272 0.99990621728
EL_EFF_ID_CorrUncertaintyNP10               = 1.000257612 0.999742387997
EL_EFF_ID_CorrUncertaintyNP11               = 1.00042990663 0.999570093371
EL_EFF_ID_CorrUncertaintyNP12               = 0.999629682746 1.00037031725
EL_EFF_ID_CorrUncertaintyNP13               = 0.999934186109 1.00006581389
EL_EFF_ID_CorrUncertaintyNP14               = 0.999834344859 1.00016565514
EL_EFF_ID_CorrUncertaintyNP15               = 0.999879908322 1.00012009168
EL_EFF_ID_SIMPLIFIED_UncorrUncertaintyNP0   = 1.0 1.0
EL_EFF_ID_SIMPLIFIED_UncorrUncertaintyNP1   = 1.00020964173 0.999790358273
EL_EFF_ID_SIMPLIFIED_UncorrUncertaintyNP2   = 1.00077524282 0.999224757177
EL_EFF_ID_SIMPLIFIED_UncorrUncertaintyNP3   = 1.00072569567 0.999274304331
EL_EFF_ID_SIMPLIFIED_UncorrUncertaintyNP4   = 1.00060137132 0.999398628681
EL_EFF_ID_SIMPLIFIED_UncorrUncertaintyNP5   = 1.00038110642 0.999618893583
EL_EFF_ID_SIMPLIFIED_UncorrUncertaintyNP6   = 1.00071324663 0.999286753365
EL_EFF_ID_SIMPLIFIED_UncorrUncertaintyNP7   = 1.00051746483 0.999482535168
EL_EFF_ID_SIMPLIFIED_UncorrUncertaintyNP8   = 1.00106945498 0.998930545015
EL_EFF_ID_SIMPLIFIED_UncorrUncertaintyNP9   = 1.0 1.0
EL_EFF_ID_SIMPLIFIED_UncorrUncertaintyNP10  = 1.00036110497 0.99963889503
EL_EFF_ID_SIMPLIFIED_UncorrUncertaintyNP11  = 1.00107476657 0.998925233428
EL_EFF_ID_SIMPLIFIED_UncorrUncertaintyNP12  = 1.00064485994 0.999355140057
EL_EFF_ID_SIMPLIFIED_UncorrUncertaintyNP13  = 1.00032226398 0.999677736015
EL_EFF_ID_SIMPLIFIED_UncorrUncertaintyNP14  = 1.00021296147 0.999787038531
EL_EFF_ID_SIMPLIFIED_UncorrUncertaintyNP15  = 1.0004045106 0.9995954894
EL_EFF_ID_SIMPLIFIED_UncorrUncertaintyNP16  = 1.00025346233 0.999746537675
EL_EFF_ID_SIMPLIFIED_UncorrUncertaintyNP17  = 1.00051953967 0.999480460329
EL_EFF_Iso_TOTAL_1NPCOR_PLUS_UNCOR          = 1.00121270187 0.998787298135
EL_EFF_Reco_TOTAL_1NPCOR_PLUS_UNCOR         = 1.00765806455 0.99234193545
MUON_EFF_ISO_STAT                           = 1.00042102632 0.999578973682
MUON_EFF_ISO_SYS                            = 1.00383430237 0.996165697634
MUON_EFF_RECO_STAT_LOWPT                    = 1.00037396897 0.999626031029
MUON_EFF_RECO_STAT                          = 1.00161721247 0.998382787535
MUON_EFF_RECO_SYS_LOWPT                     = 1.00069897174 0.999301028257
MUON_EFF_RECO_SYS                           = 1.00420038695 0.995799613051
MUON_EFF_TTVA_STAT                          = 1.00096264228 0.999037357724
MUON_EFF_TTVA_SYS                           = 1.00087043643 0.999129563567
JET_fJvtEfficiency                          = 0.999715249104 1.0002847509
EG_RESOLUTION_ALL                           = 0.999259863452 1.00074013655
EG_SCALE_AF2                                = 1.00000207484 0.999997925161
EG_SCALE_ALL                                = 1.00312470745 0.996875292552
JET_BJES_Response                           = 1.00000315376 0.999996846245
JET_EffectiveNP_Detector1                   = 0.999993277522 1.00000672248
JET_EffectiveNP_Detector2                   = 0.999999751019 1.00000024898
JET_EffectiveNP_Mixed1                      = 0.999995269367 1.00000473063
JET_EffectiveNP_Mixed2                      = 1.00000838235 0.999991617651
JET_EffectiveNP_Mixed3                      = 0.999994356438 1.00000564356
JET_EffectiveNP_Modelling1                  = 0.999939165722 1.00006083428
JET_EffectiveNP_Modelling2                  = 1.00000697146 0.999993028541
JET_EffectiveNP_Modelling3                  = 1.00000863133 0.99999136867
JET_EffectiveNP_Modelling4                  = 0.999995020387 1.00000497961
JET_EffectiveNP_Statistical1                = 0.999995518348 1.00000448165
JET_EffectiveNP_Statistical2                = 1.00002307221 0.999976927791
JET_EffectiveNP_Statistical3                = 0.999999834013 1.00000016599
JET_EffectiveNP_Statistical4                = 0.999996016309 1.00000398369
JET_EffectiveNP_Statistical5                = 0.999995269367 1.00000473063
JET_EffectiveNP_Statistical6                = 0.999995850322 1.00000414968
JET_EtaIntercalibration_Modelling           = 0.999735416538 1.00026458346
JET_EtaIntercalibration_NonClosure_2018data = 1.00001477285 0.999985227147
JET_EtaIntercalibration_NonClosure_highE    = 0.999999834013 1.00000016599
JET_EtaIntercalibration_NonClosure_negEta   = 0.999997510193 1.00000248981
JET_EtaIntercalibration_NonClosure_posEta   = 1.00000713745 0.999992862554
JET_EtaIntercalibration_TotalStat           = 0.999963482835 1.00003651717
JET_Flavor_Composition                      = 0.999963482835 1.00003651717
JET_Flavor_Response                         = 0.999963482835 1.00003651717
JET_JER_DataVsMC_MC16                       = 1.00007577312 0.999924226882
JET_JER_EffectiveNP_10                      = 1.00001917151 0.999980828488
JET_JER_EffectiveNP_11                      = 1.00003294844 0.999967051558
JET_JER_EffectiveNP_1                       = 0.999707862677 1.00029213732
JET_JER_EffectiveNP_12restTerm              = 0.999707862677 1.00029213732
JET_JER_EffectiveNP_2                       = 1.00010224806 0.999897751937
JET_JER_EffectiveNP_3                       = 1.00008166566 0.999918334339
JET_JER_EffectiveNP_4                       = 0.999904889383 1.00009511062
JET_JER_EffectiveNP_5                       = 0.999980745495 1.00001925451
JET_JER_EffectiveNP_6                       = 0.999806790998 1.000193209
JET_JER_EffectiveNP_7                       = 1.00004456754 0.99995543246
JET_JER_EffectiveNP_8                       = 1.00000481363 0.999995186374
JET_JER_EffectiveNP_9                       = 1.00005734855 0.999942651452
JET_Pileup_OffsetMu                         = 0.999544365368 1.00045563463
JET_Pileup_OffsetNPV                        = 0.999876920554 1.00012307945
JET_Pileup_PtTerm                           = 1.00000091293 0.999999087071
JET_Pileup_RhoTopology                      = 0.999882979084 1.00011702092
JET_PunchThrough_MC16                       = 0.999999834013 1.00000016599
JET_SingleParticle_HighPt                   = 0.999999834013 1.00000016599
MET_SoftTrk_Scale                           = 1.00000207484 0.999997925161
MUON_ID                                     = 0.999873268837 1.00012673116
MUON_MS                                     = 1.00031139183 0.999688608171
MUON_SAGITTA_RESBIAS                        = 0.999405268165 1.00059473183
MUON_SAGITTA_RHO                            = 0.999459877926 1.00054012207
MUON_SCALE                                  = 0.997969479617 1.00203052038
[ME_disc_SR_4l_Incl_bin_5_13TeV]
OpgSqrd_PDF_var                             = 1.00804726314 0.991952736862
EFT_PS_muF_muR                              = 1.00261933099 0.997380669011
EL_EFF_ID_CorrUncertaintyNP0                = 1.00014346564 0.999856534357
EL_EFF_ID_CorrUncertaintyNP1                = 0.999991399706 1.00000860029
EL_EFF_ID_CorrUncertaintyNP2                = 0.999995922824 1.00000407718
EL_EFF_ID_CorrUncertaintyNP3                = 0.999920495061 1.00007950494
EL_EFF_ID_CorrUncertaintyNP4                = 1.00012218788 0.999877812121
EL_EFF_ID_CorrUncertaintyNP5                = 0.999873225298 1.0001267747
EL_EFF_ID_CorrUncertaintyNP6                = 0.999948143413 1.00005185659
EL_EFF_ID_CorrUncertaintyNP7                = 0.999676501538 1.00032349846
EL_EFF_ID_CorrUncertaintyNP8                = 0.999859847063 1.00014015294
EL_EFF_ID_CorrUncertaintyNP9                = 1.0000552967 0.999944703296
EL_EFF_ID_CorrUncertaintyNP10               = 1.00021481623 0.99978518377
EL_EFF_ID_CorrUncertaintyNP11               = 1.00038593022 0.999614069775
EL_EFF_ID_CorrUncertaintyNP12               = 0.99966471595 1.00033528405
EL_EFF_ID_CorrUncertaintyNP13               = 0.999884501238 1.00011549876
EL_EFF_ID_CorrUncertaintyNP14               = 0.999857808474 1.00014219153
EL_EFF_ID_CorrUncertaintyNP15               = 0.999900491414 1.00009950859
EL_EFF_ID_SIMPLIFIED_UncorrUncertaintyNP0   = 1.0 1.0
EL_EFF_ID_SIMPLIFIED_UncorrUncertaintyNP1   = 1.0001820077 0.999817992299
EL_EFF_ID_SIMPLIFIED_UncorrUncertaintyNP2   = 1.00058532963 0.999414670369
EL_EFF_ID_SIMPLIFIED_UncorrUncertaintyNP3   = 1.0004983074 0.999501692602
EL_EFF_ID_SIMPLIFIED_UncorrUncertaintyNP4   = 1.00041013846 0.99958986154
EL_EFF_ID_SIMPLIFIED_UncorrUncertaintyNP5   = 1.00026552611 0.999734473889
EL_EFF_ID_SIMPLIFIED_UncorrUncertaintyNP6   = 1.0006152714 0.999384728605
EL_EFF_ID_SIMPLIFIED_UncorrUncertaintyNP7   = 1.00056710975 0.99943289025
EL_EFF_ID_SIMPLIFIED_UncorrUncertaintyNP8   = 1.00164106349 0.998358936514
EL_EFF_ID_SIMPLIFIED_UncorrUncertaintyNP9   = 1.0 1.0
EL_EFF_ID_SIMPLIFIED_UncorrUncertaintyNP10  = 1.00027202411 0.99972797589
EL_EFF_ID_SIMPLIFIED_UncorrUncertaintyNP11  = 1.00091621798 0.999083782024
EL_EFF_ID_SIMPLIFIED_UncorrUncertaintyNP12  = 1.00053767763 0.999462322367
EL_EFF_ID_SIMPLIFIED_UncorrUncertaintyNP13  = 1.00025832735 0.999741672654
EL_EFF_ID_SIMPLIFIED_UncorrUncertaintyNP14  = 1.00017347111 0.999826528887
EL_EFF_ID_SIMPLIFIED_UncorrUncertaintyNP15  = 1.00037930481 0.999620695187
EL_EFF_ID_SIMPLIFIED_UncorrUncertaintyNP16  = 1.00027826729 0.999721732713
EL_EFF_ID_SIMPLIFIED_UncorrUncertaintyNP17  = 1.0007961961 0.999203803904
EL_EFF_Iso_TOTAL_1NPCOR_PLUS_UNCOR          = 1.00107191515 0.998928084852
EL_EFF_Reco_TOTAL_1NPCOR_PLUS_UNCOR         = 1.00728941798 0.992710582018
MUON_EFF_ISO_STAT                           = 1.00053372787 0.999466272132
MUON_EFF_ISO_SYS                            = 1.00345566179 0.99654433821
MUON_EFF_RECO_STAT_LOWPT                    = 1.00030706234 0.999692937655
MUON_EFF_RECO_STAT                          = 1.00164482213 0.998355177867
MUON_EFF_RECO_SYS_LOWPT                     = 1.00054239187 0.999457608132
MUON_EFF_RECO_SYS                           = 1.00463358352 0.995366416477
MUON_EFF_TTVA_STAT                          = 1.00101566286 0.998984337145
MUON_EFF_TTVA_SYS                           = 1.00103878809 0.99896121191
JET_fJvtEfficiency                          = 0.999356952841 1.00064304716
EG_RESOLUTION_ALL                           = 0.999408427192 1.00059157281
EG_SCALE_AF2                                = 0.999999808882 1.00000019112
EG_SCALE_ALL                                = 1.00040657093 0.99959342907
JET_BJES_Response                           = 0.999993119765 1.00000688024
JET_EffectiveNP_Detector1                   = 0.999994011647 1.00000598835
JET_EffectiveNP_Detector2                   = 0.999996432471 1.00000356753
JET_EffectiveNP_Mixed1                      = 0.999994839824 1.00000516018
JET_EffectiveNP_Mixed2                      = 0.999985475059 1.00001452494
JET_EffectiveNP_Mixed3                      = 0.999993884235 1.00000611576
JET_EffectiveNP_Modelling1                  = 0.999939160884 1.00006083912
JET_EffectiveNP_Modelling2                  = 0.999991336 1.000008664
JET_EffectiveNP_Modelling3                  = 1.00000299418 0.999997005824
JET_EffectiveNP_Modelling4                  = 0.999996177647 1.00000382235
JET_EffectiveNP_Statistical1                = 0.999995476882 1.00000452312
JET_EffectiveNP_Statistical2                = 0.999985347647 1.00001465235
JET_EffectiveNP_Statistical3                = 0.999996305059 1.00000369494
JET_EffectiveNP_Statistical4                = 0.999996623588 1.00000337641
JET_EffectiveNP_Statistical5                = 0.999996177647 1.00000382235
JET_EffectiveNP_Statistical6                = 1.00000388606 0.999996113941
JET_EtaIntercalibration_Modelling           = 0.999685738891 1.00031426111
JET_EtaIntercalibration_NonClosure_2018data = 1.00000815435 0.999991845647
JET_EtaIntercalibration_NonClosure_highE    = 0.999998662177 1.00000133782
JET_EtaIntercalibration_NonClosure_negEta   = 1.00000127412 0.999998725882
JET_EtaIntercalibration_NonClosure_posEta   = 0.999996942118 1.00000305788
JET_EtaIntercalibration_TotalStat           = 0.999943938825 1.00005606117
JET_Flavor_Composition                      = 0.999943938825 1.00005606117
JET_Flavor_Response                         = 0.999943938825 1.00005606117
JET_JER_DataVsMC_MC16                       = 0.999953112472 1.00004688753
JET_JER_EffectiveNP_10                      = 0.999962477236 1.00003752276
JET_JER_EffectiveNP_11                      = 1.000004332 0.999995668
JET_JER_EffectiveNP_1                       = 0.999722051243 1.00027794876
JET_JER_EffectiveNP_12restTerm              = 0.999722051243 1.00027794876
JET_JER_EffectiveNP_2                       = 1.00012524576 0.999874754239
JET_JER_EffectiveNP_3                       = 1.00004911723 0.999950882766
JET_JER_EffectiveNP_4                       = 0.999910174708 1.00008982529
JET_JER_EffectiveNP_5                       = 1.00001592647 0.99998407353
JET_JER_EffectiveNP_6                       = 0.999953813237 1.00004618676
JET_JER_EffectiveNP_7                       = 1.00000917365 0.999990826353
JET_JER_EffectiveNP_8                       = 0.999968784118 1.00003121588
JET_JER_EffectiveNP_9                       = 0.999997961412 1.00000203859
JET_Pileup_OffsetMu                         = 0.999529850601 1.0004701494
JET_Pileup_OffsetNPV                        = 0.999820731652 1.00017926835
JET_Pileup_PtTerm                           = 0.999963050589 1.00003694941
JET_Pileup_RhoTopology                      = 0.99988787765 1.00011212235
JET_PunchThrough_MC16                       = 0.999998662177 1.00000133782
JET_SingleParticle_HighPt                   = 0.999998662177 1.00000133782
MET_SoftTrk_Scale                           = 0.999999808882 1.00000019112
MUON_ID                                     = 0.99981767377 1.00018232623
MUON_MS                                     = 0.999897178709 1.00010282129
MUON_SAGITTA_RESBIAS                        = 0.998932671676 1.00106732832
MUON_SAGITTA_RHO                            = 1.00035675293 0.999643247068
MUON_SCALE                                  = 1.00004911723 0.999950882766
[ME_disc_SR_4l_Incl_bin_6_13TeV]
OpgSqrd_PDF_var                             = 1.01246336075 0.987536639246
EFT_PS_muF_muR                              = 1.00231289875 0.997687101248
EL_EFF_ID_CorrUncertaintyNP0                = 1.00016600113 0.999833998867
EL_EFF_ID_CorrUncertaintyNP1                = 1.00001316784 0.99998683216
EL_EFF_ID_CorrUncertaintyNP2                = 0.999964382072 1.00003561793
EL_EFF_ID_CorrUncertaintyNP3                = 0.999880194241 1.00011980576
EL_EFF_ID_CorrUncertaintyNP4                = 1.00015898548 0.999841014519
EL_EFF_ID_CorrUncertaintyNP5                = 0.999852239564 1.00014776044
EL_EFF_ID_CorrUncertaintyNP6                = 0.999853426828 1.00014657317
EL_EFF_ID_CorrUncertaintyNP7                = 0.999619427831 1.00038057217
EL_EFF_ID_CorrUncertaintyNP8                = 0.999859902815 1.00014009719
EL_EFF_ID_CorrUncertaintyNP9                = 1.00001554237 0.999984457631
EL_EFF_ID_CorrUncertaintyNP10               = 1.0001997842 0.999800215801
EL_EFF_ID_CorrUncertaintyNP11               = 1.00032682148 0.999673178523
EL_EFF_ID_CorrUncertaintyNP12               = 0.999681597307 1.00031840269
EL_EFF_ID_CorrUncertaintyNP13               = 0.999733729002 1.000266271
EL_EFF_ID_CorrUncertaintyNP14               = 0.999760928147 1.00023907185
EL_EFF_ID_CorrUncertaintyNP15               = 0.999912142443 1.00008785756
EL_EFF_ID_SIMPLIFIED_UncorrUncertaintyNP0   = 1.0 1.0
EL_EFF_ID_SIMPLIFIED_UncorrUncertaintyNP1   = 1.00013826232 0.999861737678
EL_EFF_ID_SIMPLIFIED_UncorrUncertaintyNP2   = 1.00043702119 0.999562978812
EL_EFF_ID_SIMPLIFIED_UncorrUncertaintyNP3   = 1.00035866175 0.999641338254
EL_EFF_ID_SIMPLIFIED_UncorrUncertaintyNP4   = 1.00028764176 0.999712358245
EL_EFF_ID_SIMPLIFIED_UncorrUncertaintyNP5   = 1.0001818673 0.999818132699
EL_EFF_ID_SIMPLIFIED_UncorrUncertaintyNP6   = 1.00045385875 0.999546141245
EL_EFF_ID_SIMPLIFIED_UncorrUncertaintyNP7   = 1.00050512698 0.999494873015
EL_EFF_ID_SIMPLIFIED_UncorrUncertaintyNP8   = 1.0025053435 0.997494656501
EL_EFF_ID_SIMPLIFIED_UncorrUncertaintyNP9   = 1.0 1.0
EL_EFF_ID_SIMPLIFIED_UncorrUncertaintyNP10  = 1.00025008103 0.999749918969
EL_EFF_ID_SIMPLIFIED_UncorrUncertaintyNP11  = 1.0007476527 0.999252347302
EL_EFF_ID_SIMPLIFIED_UncorrUncertaintyNP12  = 1.00041435523 0.999585644766
EL_EFF_ID_SIMPLIFIED_UncorrUncertaintyNP13  = 1.00018855915 0.999811440846
EL_EFF_ID_SIMPLIFIED_UncorrUncertaintyNP14  = 1.00012455482 0.999875445184
EL_EFF_ID_SIMPLIFIED_UncorrUncertaintyNP15  = 1.00029962233 0.999700377669
EL_EFF_ID_SIMPLIFIED_UncorrUncertaintyNP16  = 1.00027015659 0.99972984341
EL_EFF_ID_SIMPLIFIED_UncorrUncertaintyNP17  = 1.00138445808 0.998615541915
EL_EFF_Iso_TOTAL_1NPCOR_PLUS_UNCOR          = 1.00103205646 0.998967943541
EL_EFF_Reco_TOTAL_1NPCOR_PLUS_UNCOR         = 1.00659805934 0.993401940659
MUON_EFF_ISO_STAT                           = 1.00099050221 0.99900949779
MUON_EFF_ISO_SYS                            = 1.00378078914 0.996219210864
MUON_EFF_RECO_STAT_LOWPT                    = 1.00022957374 0.999770426261
MUON_EFF_RECO_STAT                          = 1.00172746953 0.998272530471
MUON_EFF_RECO_SYS_LOWPT                     = 1.00039298448 0.999607015523
MUON_EFF_RECO_SYS                           = 1.00554009893 0.994459901066
MUON_EFF_TTVA_STAT                          = 1.00109865119 0.998901348808
MUON_EFF_TTVA_SYS                           = 1.00126443646 0.998735563541
JET_fJvtEfficiency                          = 0.999556071092 1.00044392891
EG_RESOLUTION_ALL                           = 0.999807555253 1.00019244475
EG_SCALE_AF2                                = 0.999998057204 1.0000019428
EG_SCALE_ALL                                = 1.00210750203 0.997892497968
JET_BJES_Response                           = 1.00000453319 0.999995466809
JET_EffectiveNP_Detector1                   = 0.999995358876 1.00000464112
JET_EffectiveNP_Detector2                   = 1.00000388559 0.999996114408
JET_EffectiveNP_Mixed1                      = 1.00000345386 0.99999654614
JET_EffectiveNP_Mixed2                      = 0.999988127357 1.00001187264
JET_EffectiveNP_Mixed3                      = 1.00000248246 0.999997517538
JET_EffectiveNP_Modelling1                  = 0.99995531569 1.00004468431
JET_EffectiveNP_Modelling2                  = 0.999996762007 1.00000323799
JET_EffectiveNP_Modelling3                  = 0.999997085806 1.00000291419
JET_EffectiveNP_Modelling4                  = 1.00000259039 0.999997409605
JET_EffectiveNP_Statistical1                = 1.00000291419 0.999997085806
JET_EffectiveNP_Statistical2                = 0.999991473284 1.00000852672
JET_EffectiveNP_Statistical3                = 1.00000399353 0.999996006475
JET_EffectiveNP_Statistical4                = 1.00000453319 0.999995466809
JET_EffectiveNP_Statistical5                = 1.00000442526 0.999995574742
JET_EffectiveNP_Statistical6                = 1.00000215866 0.999997841338
JET_EtaIntercalibration_Modelling           = 0.999682352838 1.00031764716
JET_EtaIntercalibration_NonClosure_2018data = 1.0000182407 0.999981759303
JET_EtaIntercalibration_NonClosure_highE    = 1.00000107933 0.999998920669
JET_EtaIntercalibration_NonClosure_negEta   = 0.999990178086 1.00000982191
JET_EtaIntercalibration_NonClosure_posEta   = 0.99999827307 1.00000172693
JET_EtaIntercalibration_TotalStat           = 0.999954560158 1.00004543984
JET_Flavor_Composition                      = 0.999954560158 1.00004543984
JET_Flavor_Response                         = 0.999954560158 1.00004543984
JET_JER_DataVsMC_MC16                       = 1.00004533191 0.999954668091
JET_JER_EffectiveNP_10                      = 0.999922504022 1.00007749598
JET_JER_EffectiveNP_11                      = 1.00002860228 0.999971397724
JET_JER_EffectiveNP_1                       = 0.999686238431 1.00031376157
JET_JER_EffectiveNP_12restTerm              = 0.999686238431 1.00031376157
JET_JER_EffectiveNP_2                       = 1.00014182411 0.999858175885
JET_JER_EffectiveNP_3                       = 1.00001737723 0.999982622768
JET_JER_EffectiveNP_4                       = 0.999881381505 1.00011861849
JET_JER_EffectiveNP_5                       = 1.00007307072 0.99992692928
JET_JER_EffectiveNP_6                       = 0.999877711779 1.00012228822
JET_JER_EffectiveNP_7                       = 1.00001338371 0.999986616294
JET_JER_EffectiveNP_8                       = 0.99997193739 1.00002806261
JET_JER_EffectiveNP_9                       = 1.00002342149 0.999976578514
JET_Pileup_OffsetMu                         = 0.999509875718 1.00049012428
JET_Pileup_OffsetNPV                        = 0.999853318895 1.00014668111
JET_Pileup_PtTerm                           = 1.00002773881 0.999972261189
JET_Pileup_RhoTopology                      = 1.00013912579 0.999860874213
JET_PunchThrough_MC16                       = 1.00000118726 0.999998812736
JET_SingleParticle_HighPt                   = 1.00000107933 0.999998920669
MET_SoftTrk_Scale                           = 0.999998057204 1.0000019428
MUON_ID                                     = 1.00020755538 0.999792444617
MUON_MS                                     = 1.00013416086 0.999865839136
MUON_SAGITTA_RESBIAS                        = 1.00020604432 0.999793955681
MUON_SAGITTA_RHO                            = 0.999078574985 1.00092142502
MUON_SCALE                                  = 0.99917744172 1.00082255828
[ME_disc_SR_4l_Incl_bin_7_13TeV]
OpgSqrd_PDF_var                             = 1.01825337841 0.981746621593
EFT_PS_muF_muR                              = 1.00204860834 0.997951391658
EL_EFF_ID_CorrUncertaintyNP0                = 1.00017091412 0.999829085884
EL_EFF_ID_CorrUncertaintyNP1                = 1.00003698985 0.999963010145
EL_EFF_ID_CorrUncertaintyNP2                = 0.999934152812 1.00006584719
EL_EFF_ID_CorrUncertaintyNP3                = 0.999829413808 1.00017058619
EL_EFF_ID_CorrUncertaintyNP4                = 1.00019622987 0.999803770132
EL_EFF_ID_CorrUncertaintyNP5                = 0.999826987168 1.00017301283
EL_EFF_ID_CorrUncertaintyNP6                = 0.999750384065 1.00024961594
EL_EFF_ID_CorrUncertaintyNP7                = 0.999584126473 1.00041587353
EL_EFF_ID_CorrUncertaintyNP8                = 0.999860369857 1.00013963014
EL_EFF_ID_CorrUncertaintyNP9                = 0.999960124412 1.00003987559
EL_EFF_ID_CorrUncertaintyNP10               = 1.00017196347 0.999828036526
EL_EFF_ID_CorrUncertaintyNP11               = 1.00020895333 0.999791046671
EL_EFF_ID_CorrUncertaintyNP12               = 0.999699883731 1.00030011627
EL_EFF_ID_CorrUncertaintyNP13               = 0.99934644698 1.00065355302
EL_EFF_ID_CorrUncertaintyNP14               = 0.999472828984 1.00052717102
EL_EFF_ID_CorrUncertaintyNP15               = 0.999906213666 1.00009378633
EL_EFF_ID_SIMPLIFIED_UncorrUncertaintyNP0   = 1.0 1.0
EL_EFF_ID_SIMPLIFIED_UncorrUncertaintyNP1   = 1.00002662745 0.999973372551
EL_EFF_ID_SIMPLIFIED_UncorrUncertaintyNP2   = 1.00012618525 0.999873814751
EL_EFF_ID_SIMPLIFIED_UncorrUncertaintyNP3   = 1.00013300607 0.999866993926
EL_EFF_ID_SIMPLIFIED_UncorrUncertaintyNP4   = 1.00012743136 0.999872568638
EL_EFF_ID_SIMPLIFIED_UncorrUncertaintyNP5   = 1.00009640973 0.999903590272
EL_EFF_ID_SIMPLIFIED_UncorrUncertaintyNP6   = 1.00030542864 0.999694571358
EL_EFF_ID_SIMPLIFIED_UncorrUncertaintyNP7   = 1.00041226636 0.999587733639
EL_EFF_ID_SIMPLIFIED_UncorrUncertaintyNP8   = 1.00364553383 0.996354466171
EL_EFF_ID_SIMPLIFIED_UncorrUncertaintyNP9   = 1.0 1.0
EL_EFF_ID_SIMPLIFIED_UncorrUncertaintyNP10  = 1.00008047261 0.99991952739
EL_EFF_ID_SIMPLIFIED_UncorrUncertaintyNP11  = 1.00027007841 0.999729921592
EL_EFF_ID_SIMPLIFIED_UncorrUncertaintyNP12  = 1.00018140769 0.999818592308
EL_EFF_ID_SIMPLIFIED_UncorrUncertaintyNP13  = 1.00009031034 0.999909689663
EL_EFF_ID_SIMPLIFIED_UncorrUncertaintyNP14  = 1.0000692576 0.9999307424
EL_EFF_ID_SIMPLIFIED_UncorrUncertaintyNP15  = 1.00020108315 0.999798916853
EL_EFF_ID_SIMPLIFIED_UncorrUncertaintyNP16  = 1.00022364433 0.999776355665
EL_EFF_ID_SIMPLIFIED_UncorrUncertaintyNP17  = 1.00192648935 0.998073510647
EL_EFF_Iso_TOTAL_1NPCOR_PLUS_UNCOR          = 1.00086598235 0.999134017654
EL_EFF_Reco_TOTAL_1NPCOR_PLUS_UNCOR         = 1.00530056749 0.994699432507
MUON_EFF_ISO_STAT                           = 1.00176895455 0.998231045454
MUON_EFF_ISO_SYS                            = 1.00432768184 0.995672318157
MUON_EFF_RECO_STAT_LOWPT                    = 1.00007030696 0.999929693042
MUON_EFF_RECO_STAT                          = 1.00182155359 0.998178446405
MUON_EFF_RECO_SYS_LOWPT                     = 1.00010965787 0.999890342133
MUON_EFF_RECO_SYS                           = 1.0069523875 0.993047612502
MUON_EFF_TTVA_STAT                          = 1.00113796271 0.998862037286
MUON_EFF_TTVA_SYS                           = 1.00151415741 0.998485842592
JET_fJvtEfficiency                          = 0.999580125797 1.0004198742
EG_RESOLUTION_ALL                           = 1.00026456928 0.999735430719
EG_SCALE_AF2                                = 0.999999803245 1.00000019675
EG_SCALE_ALL                                = 1.00379690366 0.996203096339
JET_BJES_Response                           = 1.00000249222 0.999997507776
JET_EffectiveNP_Detector1                   = 0.999995409061 1.00000459094
JET_EffectiveNP_Detector2                   = 1.00000104936 0.999998950642
JET_EffectiveNP_Mixed1                      = 1.0000013117 0.999998688303
JET_EffectiveNP_Mixed2                      = 0.999988325897 1.0000116741
JET_EffectiveNP_Mixed3                      = 0.999996589588 1.00000341041
JET_EffectiveNP_Modelling1                  = 0.999915526715 1.00008447329
JET_EffectiveNP_Modelling2                  = 0.999994884382 1.00000511562
JET_EffectiveNP_Modelling3                  = 0.999997638945 1.00000236105
JET_EffectiveNP_Modelling4                  = 1.00000400068 0.999995999324
JET_EffectiveNP_Statistical1                = 1.00000236105 0.999997638945
JET_EffectiveNP_Statistical2                = 1.00001075592 0.999989244085
JET_EffectiveNP_Statistical3                = 1.00000144287 0.999998557133
JET_EffectiveNP_Statistical4                = 0.999998425964 1.00000157404
JET_EffectiveNP_Statistical5                = 0.999996130494 1.00000386951
JET_EffectiveNP_Statistical6                = 1.000003476 0.999996524003
JET_EtaIntercalibration_Modelling           = 0.999652597055 1.00034740294
JET_EtaIntercalibration_NonClosure_2018data = 1.0000116741 0.999988325897
JET_EtaIntercalibration_NonClosure_highE    = 0.999999344152 1.00000065585
JET_EtaIntercalibration_NonClosure_negEta   = 0.999999475321 1.00000052468
JET_EtaIntercalibration_NonClosure_posEta   = 0.999996851927 1.00000314807
JET_EtaIntercalibration_TotalStat           = 0.999959075054 1.00004092495
JET_Flavor_Composition                      = 0.999959075054 1.00004092495
JET_Flavor_Response                         = 0.999959075054 1.00004092495
JET_JER_DataVsMC_MC16                       = 1.00004367951 0.999956320491
JET_JER_EffectiveNP_10                      = 0.999965436785 1.00003456322
JET_JER_EffectiveNP_11                      = 1.00001147735 0.999988522651
JET_JER_EffectiveNP_1                       = 0.999534478742 1.00046552126
JET_JER_EffectiveNP_12restTerm              = 0.999534478742 1.00046552126
JET_JER_EffectiveNP_2                       = 1.00016120756 0.999838792441
JET_JER_EffectiveNP_3                       = 0.999940580127 1.00005941987
JET_JER_EffectiveNP_4                       = 0.999907263024 1.00009273698
JET_JER_EffectiveNP_5                       = 1.00005594388 0.999944056124
JET_JER_EffectiveNP_6                       = 0.999969634215 1.00003036579
JET_JER_EffectiveNP_7                       = 1.00004879513 0.999951204872
JET_JER_EffectiveNP_8                       = 0.999986751861 1.00001324814
JET_JER_EffectiveNP_9                       = 1.00003469439 0.999965305615
JET_Pileup_OffsetMu                         = 0.999447447648 1.00055255235
JET_Pileup_OffsetNPV                        = 0.999862337402 1.0001376626
JET_Pileup_PtTerm                           = 1.00001980662 0.999980193376
JET_Pileup_RhoTopology                      = 0.999865878984 1.00013412102
JET_PunchThrough_MC16                       = 0.999998950642 1.00000104936
JET_SingleParticle_HighPt                   = 0.999999344152 1.00000065585
MET_SoftTrk_Scale                           = 0.999999803245 1.00000019675
MUON_ID                                     = 0.999459121751 1.00054087825
MUON_MS                                     = 1.00025125556 0.999748744444
MUON_SAGITTA_RESBIAS                        = 0.999807574053 1.00019242595
MUON_SAGITTA_RHO                            = 0.999100307042 1.00089969296
MUON_SCALE                                  = 0.999376025747 1.00062397425
[ME_disc_SR_4l_Incl_bin_8_13TeV]
OpgSqrd_PDF_var                             = 1.02855381031 0.97144618969
EFT_PS_muF_muR                              = 1.001824981 0.998175019003
EL_EFF_ID_CorrUncertaintyNP0                = 1.00009605163 0.999903948369
EL_EFF_ID_CorrUncertaintyNP1                = 1.00008127446 0.999918725543
EL_EFF_ID_CorrUncertaintyNP2                = 0.999909643738 1.00009035626
EL_EFF_ID_CorrUncertaintyNP3                = 0.999781420967 1.00021857903
EL_EFF_ID_CorrUncertaintyNP4                = 1.00022381262 0.999776187384
EL_EFF_ID_CorrUncertaintyNP5                = 0.999796813857 1.00020318614
EL_EFF_ID_CorrUncertaintyNP6                = 0.999690756847 1.00030924315
EL_EFF_ID_CorrUncertaintyNP7                = 0.999679366108 1.00032063389
EL_EFF_ID_CorrUncertaintyNP8                = 0.99985345969 1.00014654031
EL_EFF_ID_CorrUncertaintyNP9                = 0.999926345023 1.00007365498
EL_EFF_ID_CorrUncertaintyNP10               = 1.00014638638 0.999853613619
EL_EFF_ID_CorrUncertaintyNP11               = 0.99985068897 1.00014931103
EL_EFF_ID_CorrUncertaintyNP12               = 0.999686292909 1.00031370709
EL_EFF_ID_CorrUncertaintyNP13               = 0.997902872713 1.00209712729
EL_EFF_ID_CorrUncertaintyNP14               = 0.998036021209 1.00196397879
EL_EFF_ID_CorrUncertaintyNP15               = 0.999763719144 1.00023628086
EL_EFF_ID_SIMPLIFIED_UncorrUncertaintyNP0   = 1.0 1.0
EL_EFF_ID_SIMPLIFIED_UncorrUncertaintyNP1   = 1.0 1.0
EL_EFF_ID_SIMPLIFIED_UncorrUncertaintyNP2   = 1.00000084661 0.999999153391
EL_EFF_ID_SIMPLIFIED_UncorrUncertaintyNP3   = 1.00000384822 0.999996151778
EL_EFF_ID_SIMPLIFIED_UncorrUncertaintyNP4   = 1.00000592626 0.999994073737
EL_EFF_ID_SIMPLIFIED_UncorrUncertaintyNP5   = 1.00000731162 0.999992688377
EL_EFF_ID_SIMPLIFIED_UncorrUncertaintyNP6   = 1.00007065336 0.999929346636
EL_EFF_ID_SIMPLIFIED_UncorrUncertaintyNP7   = 1.00017917324 0.999820826764
EL_EFF_ID_SIMPLIFIED_UncorrUncertaintyNP8   = 1.00565380837 0.99434619163
EL_EFF_ID_SIMPLIFIED_UncorrUncertaintyNP9   = 1.0 1.0
EL_EFF_ID_SIMPLIFIED_UncorrUncertaintyNP10  = 1.00000138536 0.99999861464
EL_EFF_ID_SIMPLIFIED_UncorrUncertaintyNP11  = 1.00000661894 0.999993381057
EL_EFF_ID_SIMPLIFIED_UncorrUncertaintyNP12  = 1.00000838912 0.999991610875
EL_EFF_ID_SIMPLIFIED_UncorrUncertaintyNP13  = 1.00000677287 0.999993227129
EL_EFF_ID_SIMPLIFIED_UncorrUncertaintyNP14  = 1.00000777341 0.999992226591
EL_EFF_ID_SIMPLIFIED_UncorrUncertaintyNP15  = 1.00004710224 0.999952897758
EL_EFF_ID_SIMPLIFIED_UncorrUncertaintyNP16  = 1.00008874001 0.999911259991
EL_EFF_ID_SIMPLIFIED_UncorrUncertaintyNP17  = 1.00212375699 0.997876243014
EL_EFF_Iso_TOTAL_1NPCOR_PLUS_UNCOR          = 1.00108473693 0.998915263066
EL_EFF_Reco_TOTAL_1NPCOR_PLUS_UNCOR         = 1.00388262552 0.996117374478
MUON_EFF_ISO_STAT                           = 1.00362194694 0.996378053064
MUON_EFF_ISO_SYS                            = 1.00714953546 0.992850464542
MUON_EFF_RECO_STAT_LOWPT                    = 1.00000123143 0.999998768569
MUON_EFF_RECO_STAT                          = 1.00211382857 0.997886171428
MUON_EFF_RECO_SYS_LOWPT                     = 1.00000161625 0.999998383747
MUON_EFF_RECO_SYS                           = 1.01042406487 0.989575935126
MUON_EFF_TTVA_STAT                          = 1.00132602048 0.998673979521
MUON_EFF_TTVA_SYS                           = 1.00193750302 0.998062496979
JET_fJvtEfficiency                          = 0.999489109992 1.00051089001
EG_RESOLUTION_ALL                           = 0.999640268169 1.00035973183
EG_SCALE_AF2                                = 0.999999384284 1.00000061572
EG_SCALE_ALL                                = 0.996207499847 1.00379250015
JET_BJES_Response                           = 1.00000646501 0.999993534986
JET_EffectiveNP_Detector1                   = 0.999993688915 1.00000631108
JET_EffectiveNP_Detector2                   = 0.999999076427 1.00000092357
JET_EffectiveNP_Mixed1                      = 0.99999722928 1.00000277072
JET_EffectiveNP_Mixed2                      = 0.999990687302 1.0000093127
JET_EffectiveNP_Mixed3                      = 0.999996305706 1.00000369429
JET_EffectiveNP_Modelling1                  = 0.999947356317 1.00005264368
JET_EffectiveNP_Modelling2                  = 1.00000507965 0.999994920346
JET_EffectiveNP_Modelling3                  = 1.00000123143 0.999998768569
JET_EffectiveNP_Modelling4                  = 0.999997998924 1.00000200108
JET_EffectiveNP_Statistical1                = 0.999997691067 1.00000230893
JET_EffectiveNP_Statistical2                = 0.99999584392 1.00000415608
JET_EffectiveNP_Statistical3                = 1.00000207804 0.99999792196
JET_EffectiveNP_Statistical4                = 0.999998768569 1.00000123143
JET_EffectiveNP_Statistical5                = 0.999998691604 1.0000013084
JET_EffectiveNP_Statistical6                = 0.999997844995 1.000002155
JET_EtaIntercalibration_Modelling           = 0.999636342982 1.00036365702
JET_EtaIntercalibration_NonClosure_2018data = 1.00002231969 0.99997768031
JET_EtaIntercalibration_NonClosure_highE    = 1.00000184715 0.999998152853
JET_EtaIntercalibration_NonClosure_negEta   = 1.00000523358 0.999994766418
JET_EtaIntercalibration_NonClosure_posEta   = 1.00001000538 0.999989994622
JET_EtaIntercalibration_TotalStat           = 0.999967059216 1.00003294078
JET_Flavor_Composition                      = 0.999967059216 1.00003294078
JET_Flavor_Response                         = 0.999967059216 1.00003294078
JET_JER_DataVsMC_MC16                       = 1.00008758554 0.999912414458
JET_JER_EffectiveNP_10                      = 0.999946432744 1.00005356726
JET_JER_EffectiveNP_11                      = 1.00001877933 0.999981220675
JET_JER_EffectiveNP_1                       = 0.999534365088 1.00046563491
JET_JER_EffectiveNP_12restTerm              = 0.999534365088 1.00046563491
JET_JER_EffectiveNP_2                       = 1.00023427978 0.999765720219
JET_JER_EffectiveNP_3                       = 0.999978296026 1.00002170397
JET_JER_EffectiveNP_4                       = 0.999870699727 1.00012930027
JET_JER_EffectiveNP_5                       = 1.00006557371 0.99993442629
JET_JER_EffectiveNP_6                       = 0.999952282042 1.00004771796
JET_JER_EffectiveNP_7                       = 1.00001816361 0.99998183639
JET_JER_EffectiveNP_8                       = 1.00001562378 0.999984376217
JET_JER_EffectiveNP_9                       = 1.00004540902 0.999954590976
JET_Pileup_OffsetMu                         = 0.999384438343 1.00061556166
JET_Pileup_OffsetNPV                        = 0.999850765935 1.00014923407
JET_Pileup_PtTerm                           = 1.00002786113 0.99997213887
JET_Pileup_RhoTopology                      = 0.999874470985 1.00012552902
JET_PunchThrough_MC16                       = 1.00000184715 0.999998152853
JET_SingleParticle_HighPt                   = 1.00000184715 0.999998152853
MET_SoftTrk_Scale                           = 0.999999384284 1.00000061572
MUON_ID                                     = 0.999053029428 1.00094697057
MUON_MS                                     = 0.999328716082 1.00067128392
MUON_SAGITTA_RESBIAS                        = 0.999356731141 1.00064326886
MUON_SAGITTA_RHO                            = 1.00145170342 0.998548296577
MUON_SCALE                                  = 1.00048179745 0.999518202554
