m4l_fsr_CR_1_Incl_bin_1_13TeV & m4l_fsr_CR_1_Incl_bin_2_13TeV & m4l_fsr_CR_1_Incl_bin_3_13TeV & m4l_fsr_CR_1_Incl_bin_4_13TeV & m4l_fsr_CR_2_Incl_bin_1_13TeV & m4l_fsr_CR_2_Incl_bin_2_13TeV & m4l_fsr_CR_3_Incl_bin_1_13TeV & ggFNN_MELA_SR_ggF_Incl_bin_1_13TeV & ggFNN_MELA_SR_ggF_Incl_bin_2_13TeV & ggFNN_MELA_SR_ggF_Incl_bin_3_13TeV & ggFNN_MELA_SR_ggF_Incl_bin_4_13TeV & ggFNN_MELA_SR_ggF_Incl_bin_5_13TeV & ggFNN_MELA_SR_ggF_Incl_bin_6_13TeV & ggFNN_MELA_SR_ggF_Incl_bin_7_13TeV & ggFNN_MELA_SR_ggF_Incl_bin_8_13TeV & ggFNN_MELA_SR_ggF_Incl_bin_9_13TeV & ggFNN_MELA_SR_ggF_Incl_bin_10_13TeV & ggFNN_MELA_SR_ggF_Incl_bin_11_13TeV & ggFNN_MELA_SR_ggF_Incl_bin_12_13TeV & ggFNN_MELA_SR_ggF_Incl_bin_13_13TeV & ggFNN_MELA_SR_ggF_Incl_bin_14_13TeV & ggFNN_MELA_SR_Mxd_Incl_bin_1_13TeV & ggFNN_MELA_SR_Mxd_Incl_bin_2_13TeV & ggFNN_MELA_SR_Mxd_Incl_bin_3_13TeV & VBFNN_MELA_SR_VBF_Incl_bin_1_13TeV & VBFNN_MELA_SR_VBF_Incl_bin_2_13TeV & VBFNN_MELA_SR_VBF_Incl_bin_3_13TeV & VBFNN_MELA_SR_VBF_Incl_bin_4_13TeV 
n_ggSNLOS  & 0.133942 & 0.209467 & 0.243664 & 0.269539 & 0.254608 & 0.394464 & 0.483486 & 0.277392 & 0.364028 & 0.665737 & 1.046900 & 1.499885 & 2.001304 & 2.442526 & 2.912252 & 3.442355 & 4.131841 & 4.929981 & 5.683162 & 4.904338 & 0.844820 & 0.015975 & 0.348907 & 3.601856 & 0.374751 & 0.467385 & 0.461557 & 0.386962
n_ggSNLOI  & -0.135872 & -0.212433 & -0.246321 & -0.270564 & -0.254791 & -0.401868 & -0.483065 & -0.285374 & -0.365716 & -0.658709 & -1.053596 & -1.520280 & -2.011488 & -2.449412 & -2.905372 & -3.442139 & -4.130115 & -4.939667 & -5.670792 & -4.916404 & -0.838546 & -0.015617 & -0.350243 & -3.588136 & -0.376555 & -0.475818 & -0.455252 & -0.392220
n_ggSBINLOI  & 37.003757 & 46.085545 & 43.178162 & 38.217617 & 34.371990 & 38.451637 & 31.540993 & 63.565414 & 44.669441 & 52.194805 & 50.255283 & 43.007095 & 33.284660 & 23.068817 & 15.776485 & 11.278237 & 8.364717 & 6.517276 & 4.966220 & 2.964105 & 0.407744 & 4.633361 & 24.571808 & 15.738688 & 7.987309 & 2.961730 & 1.082286 & 0.378121
n_ggBNLOB  & 37.052605 & 46.618622 & 43.735497 & 38.738071 & 34.885509 & 39.260696 & 33.254929 & 63.029762 & 44.353851 & 52.353340 & 51.031715 & 43.689739 & 33.957535 & 23.108257 & 15.757492 & 11.238953 & 8.663053 & 7.200857 & 6.224278 & 4.389606 & 0.750597 & 4.600282 & 24.952755 & 16.317776 & 8.012087 & 2.996620 & 1.107291 & 0.499286
n_ggBNLOI  & -36.673374 & -46.985817 & -44.361610 & -38.801331 & -34.750378 & -39.367935 & -32.995827 & -62.828644 & -44.753708 & -52.531235 & -50.508949 & -43.654243 & -33.474010 & -23.555023 & -15.739158 & -11.039968 & -8.524532 & -7.069552 & -6.198586 & -4.437016 & -0.684802 & -4.705967 & -24.707783 & -15.992434 & -7.988813 & -3.052004 & -1.137601 & -0.497351
n_qqZZ_0Jet  & 143.186722 & 200.179550 & 196.308685 & 173.164764 & 0.000000 & 0.000000 & 0.000000 & 345.427704 & 165.005585 & 153.319580 & 130.200653 & 96.404762 & 67.162537 & 44.738396 & 31.910973 & 22.524448 & 16.486427 & 11.868249 & 7.474217 & 3.045493 & 0.197348 & 0.000000 & 0.000000 & 0.000000 & 0.000000 & 0.000000 & 0.000000 & 0.000000
n_qqZZ_1Jet  & 0.000000 & 0.000000 & 0.000000 & 0.000000 & 110.229637 & 131.618393 & 0.000000 & 24.377739 & 32.079750 & 50.124332 & 59.388470 & 58.629665 & 49.864834 & 36.535229 & 25.881237 & 17.964687 & 12.622080 & 9.317800 & 6.950476 & 3.549457 & 0.343807 & 18.331930 & 70.415382 & 45.757881 & 0.000000 & 0.000000 & 0.000000 & 0.000000
n_qqZZ_2Jet  & 0.000000 & 0.000000 & 0.000000 & 0.000000 & 0.000000 & 0.000000 & 111.840569 & 11.344193 & 16.017277 & 30.727552 & 41.503490 & 45.302036 & 42.747219 & 35.977516 & 25.994011 & 18.278494 & 13.212553 & 9.581369 & 6.392322 & 3.154118 & 0.327635 & 0.000000 & 0.000000 & 0.000000 & 18.528114 & 4.795940 & 1.239886 & 0.342927
n_VBFB  & 0.047769 & 0.061947 & 0.066040 & 0.064444 & 0.589477 & 0.808654 & 5.194061 & 0.461530 & 0.756649 & 1.652963 & 2.560170 & 3.096947 & 3.281912 & 3.068674 & 2.485094 & 1.964707 & 1.575498 & 1.268654 & 1.070376 & 0.689888 & 0.087099 & 0.064735 & 0.852683 & 2.597746 & 3.617887 & 4.256562 & 2.125767 & 2.031603
n_VBFSBI  & 0.107216 & 0.138641 & 0.134040 & 0.124230 & 0.644321 & 0.818304 & 4.966617 & 0.484538 & 0.781615 & 1.689106 & 2.592202 & 3.127652 & 3.277779 & 3.040726 & 2.476018 & 1.858476 & 1.445965 & 1.050614 & 0.730022 & 0.358233 & 0.037708 & 0.057343 & 0.763329 & 1.204835 & 3.308478 & 3.897517 & 1.726700 & 0.717918
n_VBFSBI10  & 0.132017 & 0.183928 & 0.177212 & 0.169266 & 1.007613 & 1.287230 & 6.207613 & 0.519799 & 0.849338 & 1.876771 & 2.957727 & 3.739714 & 4.174297 & 4.101373 & 3.504443 & 2.912518 & 2.584316 & 2.542949 & 2.741438 & 2.244617 & 0.326295 & 0.066368 & 1.093445 & 7.879569 & 3.613766 & 5.207815 & 4.095469 & 6.959126
n_ttV_All  & 0.546962 & 0.685368 & 0.718635 & 0.775714 & 1.741682 & 2.106992 & 11.396707 & 1.723351 & 2.625883 & 4.753081 & 6.531563 & 7.238476 & 7.280156 & 6.508996 & 4.869052 & 3.535135 & 2.484825 & 1.501079 & 0.994420 & 0.363364 & 0.024516 & 0.050451 & 0.747945 & 0.999363 & 0.895009 & 0.558333 & 0.173576 & 0.014777
n_OtpSM  & 0.027903 & 0.042288 & 0.043948 & 0.039757 & 0.029889 & 0.039388 & 0.021095 & 0.054469 & 0.040930 & 0.046372 & 0.041783 & 0.022714 & -0.003020 & -0.029929 & -0.049596 & -0.068176 & -0.088562 & -0.103143 & -0.112111 & -0.089604 & -0.014337 & 0.003825 & 0.027503 & -0.088305 & 0.001781 & -0.007729 & -0.010698 & -0.010238
n_OpgSM  & -7.113970 & -10.783218 & -11.211677 & -10.119707 & -7.655210 & -10.077437 & -5.425143 & -12.769049 & -9.896641 & -11.312185 & -10.012071 & -5.481538 & 0.355809 & 6.278477 & 10.533078 & 13.620115 & 17.991619 & 21.567268 & 26.402525 & 22.965664 & 3.943279 & -0.906125 & -6.523808 & 19.154636 & -0.589911 & 1.389328 & 2.287201 & 2.729079
n_OpgSqrd  & 28.962389 & 41.643181 & 43.466702 & 43.076405 & 49.058548 & 63.673645 & 62.223053 & 32.457657 & 41.473160 & 73.037384 & 109.541420 & 147.502075 & 179.959686 & 200.125031 & 221.130707 & 261.771973 & 345.646729 & 476.504272 & 632.999878 & 555.828430 & 85.644592 & 1.961158 & 43.061256 & 406.972565 & 30.864456 & 44.208420 & 54.216034 & 91.655685
n_OtpSqrd  & 0.000567 & 0.000827 & 0.000870 & 0.000836 & 0.000640 & 0.000865 & 0.000459 & 0.000802 & 0.000946 & 0.001521 & 0.002256 & 0.002917 & 0.003590 & 0.004131 & 0.004804 & 0.005769 & 0.007081 & 0.008638 & 0.010231 & 0.009063 & 0.001526 & 0.000050 & 0.000922 & 0.009066 & 0.000695 & 0.000885 & 0.000995 & 0.001060
n_OpgOtp  & -0.207347 & -0.298390 & -0.312192 & -0.310463 & -0.351463 & -0.458235 & -0.447118 & -0.241262 & -0.309595 & -0.548610 & -0.827150 & -1.121777 & -1.378689 & -1.538552 & -1.667023 & -1.812589 & -2.009909 & -2.229523 & -2.342171 & -1.837290 & -0.311072 & -0.014486 & -0.324277 & -2.232854 & -0.238508 & -0.311519 & -0.296576 & -0.223843