[m4l_fsr_CR_4l_Incl_bin_1_13TeV]
####bin_value/all_bins: 17.20%
EFToperator_PDF_MUF_MUR                     = 1.2010 0.8350
MUON_SCALE                                  = 1.0090 0.9497
JET_Pileup_OffsetNPV                        = 0.9719 1.0000
JET_EtaIntercalibration_NonClosure_highE    = 0.9721 1.0000
PRW_DATASF                                  = 1.0251 0.9842
OpgSM_PDF_replica                           = 0.9829 1.0171
EFToperator_PDF_var                         = 0.9847 0.9891
MUON_SAGITTA_RESBIAS                        = 1.0111 1.0108
EG_SCALE_ALL                                = 0.9896 1.0051
EFToperator_alphaS                          = 1.0024 0.9906
EL_EFF_Reco_TOTAL_1NPCOR_PLUS_UNCOR         = 1.0080 0.9921
MUON_ID                                     = 0.9938 0.9989
JET_Flavor_Composition                      = 0.9938 0.9989
MUON_EFF_ISO_SYS                            = 1.0048 0.9952
EFToperator_PS_muF_muR                      = 0.9968 1.0044
EG_RESOLUTION_ALL                           = 0.9961 0.9983
JET_EffectiveNP_Statistical2                = 1.0032 1.0033
MUON_EFF_RECO_SYS                           = 1.0033 0.9968
JET_EffectiveNP_Modelling3                  = 1.0000 1.0032
JET_EffectiveNP_Detector2                   = 1.0032 1.0032
EFToperator_Var3c                           = 0.9973 1.0025
JET_JER_EffectiveNP_1                       = 1.0019 1.0002
EFToperator_isrPDF                          = 0.9983 1.0008
EL_EFF_ID_SIMPLIFIED_UncorrUncertaintyNP11  = 1.0017 0.9983
MUON_EFF_RECO_STAT                          = 1.0016 0.9984
MUON_MS                                     = 1.0015 0.9988
EL_EFF_Iso_TOTAL_1NPCOR_PLUS_UNCOR          = 1.0012 0.9988
EL_EFF_ID_SIMPLIFIED_UncorrUncertaintyNP12  = 1.0011 0.9989
EL_EFF_ID_SIMPLIFIED_UncorrUncertaintyNP6   = 1.0011 0.9989
EFToperator_hard                            = 0.9990 1.0009
MUON_SAGITTA_RHO                            = 0.9990 0.9990
MUON_EFF_RECO_SYS_LOWPT                     = 1.0009 0.9991
MUON_EFF_TTVA_STAT                          = 1.0008 0.9992
EL_EFF_ID_SIMPLIFIED_UncorrUncertaintyNP3   = 1.0007 0.9993
EL_EFF_ID_SIMPLIFIED_UncorrUncertaintyNP2   = 1.0007 0.9993
EL_EFF_ID_SIMPLIFIED_UncorrUncertaintyNP4   = 1.0007 0.9993
EL_EFF_ID_SIMPLIFIED_UncorrUncertaintyNP10  = 1.0006 0.9994
JET_JER_EffectiveNP_12restTerm              = 1.0006 0.9994
EL_EFF_ID_SIMPLIFIED_UncorrUncertaintyNP5   = 1.0006 0.9994
JET_Pileup_OffsetMu                         = 0.9999 1.0006
MUON_EFF_RECO_STAT_LOWPT                    = 1.0004 0.9995
JET_JER_DataVsMC_MC16                       = 1.0000 0.9995
EL_EFF_ID_CorrUncertaintyNP11               = 1.0005 0.9995
JET_fJvtEfficiency                          = 0.9995 1.0005
EL_EFF_ID_SIMPLIFIED_UncorrUncertaintyNP15  = 1.0005 0.9995
MUON_EFF_ISO_STAT                           = 1.0004 0.9996
JET_JER_EffectiveNP_2                       = 0.9999 0.9996
EL_EFF_ID_CorrUncertaintyNP12               = 0.9996 1.0004
EL_EFF_ID_SIMPLIFIED_UncorrUncertaintyNP14  = 1.0004 0.9996
EL_EFF_ID_SIMPLIFIED_UncorrUncertaintyNP13  = 1.0004 0.9996
MUON_EFF_TTVA_SYS                           = 1.0004 0.9996
JET_JER_EffectiveNP_6                       = 1.0000 0.9997
EL_EFF_ID_CorrUncertaintyNP10               = 1.0003 0.9997
EL_EFF_ID_CorrUncertaintyNP14               = 0.9997 1.0003
JET_JER_EffectiveNP_7                       = 0.9999 0.9998
JET_JER_EffectiveNP_5                       = 0.9999 0.9998
JET_JER_EffectiveNP_4                       = 1.0000 0.9998
JET_JER_EffectiveNP_9                       = 0.9998 0.9998
EL_EFF_ID_CorrUncertaintyNP8                = 0.9998 1.0002
EL_EFF_ID_CorrUncertaintyNP9                = 1.0002 0.9998
EL_EFF_ID_CorrUncertaintyNP6                = 1.0002 0.9998
JET_JER_EffectiveNP_3                       = 0.9999 0.9998
JET_Flavor_Response                         = 0.9999 0.9998
JET_JER_EffectiveNP_11                      = 0.9998 1.0000
JET_JER_EffectiveNP_10                      = 0.9998 1.0000
EL_EFF_ID_CorrUncertaintyNP15               = 0.9998 1.0002
JET_EtaIntercalibration_Modelling           = 0.9999 1.0002
EL_EFF_ID_SIMPLIFIED_UncorrUncertaintyNP7   = 1.0002 0.9998
JET_EffectiveNP_Modelling2                  = 1.0000 1.0001
JET_EffectiveNP_Modelling1                  = 0.9999 1.0001
JET_EffectiveNP_Detector1                   = 1.0001 1.0000
JET_EffectiveNP_Mixed3                      = 1.0001 1.0000
JET_EffectiveNP_Mixed2                      = 1.0000 1.0001
JET_EtaIntercalibration_TotalStat           = 1.0000 1.0001
EL_EFF_ID_CorrUncertaintyNP7                = 0.9999 1.0001
EL_EFF_ID_CorrUncertaintyNP5                = 0.9999 1.0001
EL_EFF_ID_CorrUncertaintyNP2                = 1.0001 0.9999
JET_Pileup_RhoTopology                      = 1.0001 1.0001
EL_EFF_ID_SIMPLIFIED_UncorrUncertaintyNP16  = 1.0001 0.9999
JET_Pileup_PtTerm                           = 0.9999 1.0001
EL_EFF_ID_SIMPLIFIED_UncorrUncertaintyNP1   = 1.0001 0.9999
JET_SingleParticle_HighPt                   = 1.0000 1.0000
JET_PunchThrough_MC16                       = 1.0000 1.0000
JET_EffectiveNP_Modelling4                  = 1.0000 1.0000
JET_EffectiveNP_Statistical6                = 1.0000 1.0000
JET_EffectiveNP_Statistical5                = 1.0000 1.0000
JET_EffectiveNP_Statistical4                = 1.0000 1.0000
JET_EffectiveNP_Statistical3                = 1.0000 1.0000
JET_EffectiveNP_Statistical1                = 1.0000 1.0000
JET_BJES_Response                           = 1.0000 1.0000
JET_EffectiveNP_Mixed1                      = 1.0000 1.0000
EG_SCALE_AF2                                = 1.0000 1.0000
EL_EFF_ID_CorrUncertaintyNP4                = 1.0000 1.0000
EL_EFF_ID_CorrUncertaintyNP3                = 1.0000 1.0000
EL_EFF_ID_CorrUncertaintyNP0                = 1.0000 1.0000
EL_EFF_ID_CorrUncertaintyNP1                = 1.0000 1.0000
EL_EFF_ID_CorrUncertaintyNP13               = 1.0000 1.0000
JET_EtaIntercalibration_NonClosure_posEta   = 1.0000 1.0000
EL_EFF_ID_SIMPLIFIED_UncorrUncertaintyNP17  = 1.0000 1.0000
JET_EtaIntercalibration_NonClosure_negEta   = 1.0000 1.0000
EL_EFF_ID_SIMPLIFIED_UncorrUncertaintyNP9   = 1.0000 1.0000
EL_EFF_ID_SIMPLIFIED_UncorrUncertaintyNP8   = 1.0000 1.0000
JET_JER_EffectiveNP_8                       = 1.0000 1.0000
EL_EFF_ID_SIMPLIFIED_UncorrUncertaintyNP0   = 1.0000 1.0000
JET_EtaIntercalibration_NonClosure_2018data = 1.0000 1.0000
[m4l_fsr_CR_4l_Incl_bin_2_13TeV]
####bin_value/all_bins: 27.20%
EFToperator_PDF_MUF_MUR                     = 1.2050 0.8328
MUON_SCALE                                  = 1.0037 0.9519
PRW_DATASF                                  = 1.0264 0.9825
JET_Pileup_OffsetNPV                        = 0.9778 0.9999
JET_EtaIntercalibration_NonClosure_highE    = 0.9780 1.0000
OpgSM_PDF_replica                           = 0.9828 1.0172
EFToperator_PDF_var                         = 0.9847 0.9888
MUON_SAGITTA_RESBIAS                        = 0.9876 0.9875
MUON_SAGITTA_RHO                            = 1.0123 1.0122
EFToperator_alphaS                          = 1.0025 0.9906
EL_EFF_Reco_TOTAL_1NPCOR_PLUS_UNCOR         = 1.0077 0.9924
EG_SCALE_ALL                                = 0.9977 1.0074
MUON_ID                                     = 1.0062 1.0019
JET_Flavor_Composition                      = 1.0062 1.0019
JET_EffectiveNP_Modelling3                  = 1.0000 1.0061
JET_EffectiveNP_Detector2                   = 1.0061 1.0061
JET_EffectiveNP_Statistical2                = 1.0061 1.0061
JET_JER_EffectiveNP_1                       = 1.0059 1.0000
MUON_EFF_ISO_SYS                            = 1.0044 0.9956
EFToperator_PS_muF_muR                      = 0.9960 0.9998
MUON_MS                                     = 0.9991 1.0037
MUON_EFF_RECO_SYS                           = 1.0034 0.9966
EFToperator_Var3c                           = 0.9967 1.0030
EFToperator_isrPDF                          = 0.9978 1.0011
EG_RESOLUTION_ALL                           = 1.0019 1.0015
MUON_EFF_RECO_STAT                          = 1.0015 0.9985
EFToperator_hard                            = 0.9987 1.0013
EL_EFF_ID_SIMPLIFIED_UncorrUncertaintyNP11  = 1.0013 0.9987
EL_EFF_Iso_TOTAL_1NPCOR_PLUS_UNCOR          = 1.0011 0.9989
EL_EFF_ID_SIMPLIFIED_UncorrUncertaintyNP6   = 1.0011 0.9989
EL_EFF_ID_SIMPLIFIED_UncorrUncertaintyNP12  = 1.0009 0.9991
MUON_EFF_TTVA_STAT                          = 1.0007 0.9992
JET_JER_EffectiveNP_5                       = 1.0008 1.0000
JET_JER_EffectiveNP_2                       = 0.9993 1.0004
EL_EFF_ID_SIMPLIFIED_UncorrUncertaintyNP3   = 1.0007 0.9993
EL_EFF_ID_SIMPLIFIED_UncorrUncertaintyNP4   = 1.0007 0.9993
JET_Pileup_OffsetMu                         = 0.9994 1.0003
MUON_EFF_RECO_SYS_LOWPT                     = 1.0006 0.9994
EL_EFF_ID_SIMPLIFIED_UncorrUncertaintyNP15  = 1.0006 0.9994
JET_fJvtEfficiency                          = 0.9995 1.0006
EL_EFF_ID_CorrUncertaintyNP11               = 1.0005 0.9995
MUON_EFF_TTVA_SYS                           = 1.0005 0.9995
JET_EtaIntercalibration_Modelling           = 0.9995 1.0002
EL_EFF_ID_SIMPLIFIED_UncorrUncertaintyNP2   = 1.0005 0.9995
EL_EFF_ID_SIMPLIFIED_UncorrUncertaintyNP5   = 1.0005 0.9995
MUON_EFF_RECO_STAT_LOWPT                    = 1.0003 0.9996
JET_JER_DataVsMC_MC16                       = 1.0000 1.0004
JET_JER_EffectiveNP_7                       = 0.9999 1.0004
JET_JER_EffectiveNP_6                       = 1.0001 1.0004
EL_EFF_ID_CorrUncertaintyNP12               = 0.9996 1.0004
EL_EFF_ID_SIMPLIFIED_UncorrUncertaintyNP13  = 1.0004 0.9996
EL_EFF_ID_SIMPLIFIED_UncorrUncertaintyNP10  = 1.0004 0.9996
JET_JER_EffectiveNP_12restTerm              = 1.0004 0.9996
MUON_EFF_ISO_STAT                           = 1.0003 0.9997
EL_EFF_ID_CorrUncertaintyNP10               = 1.0003 0.9997
JET_Pileup_RhoTopology                      = 0.9997 1.0001
EL_EFF_ID_SIMPLIFIED_UncorrUncertaintyNP14  = 1.0003 0.9997
JET_JER_EffectiveNP_10                      = 1.0003 1.0000
EL_EFF_ID_SIMPLIFIED_UncorrUncertaintyNP7   = 1.0003 0.9997
JET_JER_EffectiveNP_4                       = 0.9999 1.0002
EL_EFF_ID_CorrUncertaintyNP8                = 0.9998 1.0002
EL_EFF_ID_CorrUncertaintyNP6                = 1.0002 0.9998
EL_EFF_ID_CorrUncertaintyNP14               = 0.9998 1.0002
JET_JER_EffectiveNP_11                      = 1.0002 1.0001
EL_EFF_ID_CorrUncertaintyNP15               = 0.9998 1.0002
JET_JER_EffectiveNP_8                       = 1.0002 0.9999
JET_EffectiveNP_Modelling1                  = 0.9999 0.9999
JET_EtaIntercalibration_TotalStat           = 1.0000 1.0001
JET_JER_EffectiveNP_9                       = 1.0001 0.9999
EL_EFF_ID_CorrUncertaintyNP9                = 1.0001 0.9999
EL_EFF_ID_CorrUncertaintyNP7                = 0.9999 1.0001
EL_EFF_ID_CorrUncertaintyNP5                = 0.9999 1.0001
EL_EFF_ID_CorrUncertaintyNP2                = 1.0001 0.9999
EL_EFF_ID_SIMPLIFIED_UncorrUncertaintyNP16  = 1.0001 0.9999
JET_Pileup_PtTerm                           = 1.0001 1.0000
EL_EFF_ID_SIMPLIFIED_UncorrUncertaintyNP8   = 1.0001 0.9999
EL_EFF_ID_SIMPLIFIED_UncorrUncertaintyNP1   = 1.0001 0.9999
JET_EtaIntercalibration_NonClosure_2018data = 1.0000 0.9999
JET_SingleParticle_HighPt                   = 1.0000 1.0000
JET_PunchThrough_MC16                       = 1.0000 1.0000
JET_EffectiveNP_Modelling2                  = 1.0000 1.0000
JET_EffectiveNP_Modelling4                  = 1.0000 1.0000
JET_EffectiveNP_Detector1                   = 1.0000 1.0000
JET_EffectiveNP_Statistical6                = 1.0000 1.0000
JET_EffectiveNP_Statistical5                = 1.0000 1.0000
JET_EffectiveNP_Statistical4                = 1.0000 1.0000
JET_EffectiveNP_Statistical3                = 1.0000 1.0000
JET_EffectiveNP_Statistical1                = 1.0000 1.0000
JET_BJES_Response                           = 1.0000 1.0000
JET_EffectiveNP_Mixed1                      = 1.0000 1.0000
JET_EffectiveNP_Mixed3                      = 1.0000 1.0000
JET_EffectiveNP_Mixed2                      = 1.0000 1.0000
EG_SCALE_AF2                                = 1.0000 1.0000
EL_EFF_ID_CorrUncertaintyNP4                = 1.0000 1.0000
EL_EFF_ID_CorrUncertaintyNP3                = 1.0000 1.0000
EL_EFF_ID_CorrUncertaintyNP0                = 1.0000 1.0000
EL_EFF_ID_CorrUncertaintyNP1                = 1.0000 1.0000
EL_EFF_ID_CorrUncertaintyNP13               = 1.0000 1.0000
JET_EtaIntercalibration_NonClosure_posEta   = 1.0000 1.0000
EL_EFF_ID_SIMPLIFIED_UncorrUncertaintyNP17  = 1.0000 1.0000
JET_JER_EffectiveNP_3                       = 1.0000 1.0000
JET_Flavor_Response                         = 1.0000 1.0000
JET_EtaIntercalibration_NonClosure_negEta   = 1.0000 1.0000
EL_EFF_ID_SIMPLIFIED_UncorrUncertaintyNP9   = 1.0000 1.0000
EL_EFF_ID_SIMPLIFIED_UncorrUncertaintyNP0   = 1.0000 1.0000
[m4l_fsr_CR_4l_Incl_bin_3_13TeV]
####bin_value/all_bins: 28.99%
EFToperator_PDF_MUF_MUR                     = 1.2104 0.8300
MUON_SCALE                                  = 0.9986 0.9572
PRW_DATASF                                  = 1.0391 0.9731
JET_EtaIntercalibration_NonClosure_highE    = 0.9657 1.0000
JET_Pileup_OffsetNPV                        = 0.9658 1.0000
MUON_SAGITTA_RHO                            = 0.9818 0.9820
OpgSM_PDF_replica                           = 0.9827 1.0173
EFToperator_PDF_var                         = 0.9849 0.9885
EFToperator_alphaS                          = 1.0027 0.9906
EL_EFF_Reco_TOTAL_1NPCOR_PLUS_UNCOR         = 1.0078 0.9923
EFToperator_PS_muF_muR                      = 0.9970 1.0062
MUON_ID                                     = 0.9946 0.9967
JET_Flavor_Composition                      = 0.9946 0.9967
MUON_EFF_ISO_SYS                            = 1.0043 0.9958
MUON_EFF_RECO_SYS                           = 1.0036 0.9964
EFToperator_Var3c                           = 0.9970 1.0029
MUON_SAGITTA_RESBIAS                        = 1.0022 1.0026
MUON_MS                                     = 0.9992 0.9979
EFToperator_isrPDF                          = 0.9980 1.0008
EFToperator_hard                            = 0.9985 1.0015
MUON_EFF_RECO_STAT                          = 1.0015 0.9985
EL_EFF_ID_SIMPLIFIED_UncorrUncertaintyNP11  = 1.0013 0.9987
EL_EFF_Iso_TOTAL_1NPCOR_PLUS_UNCOR          = 1.0011 0.9989
EL_EFF_ID_SIMPLIFIED_UncorrUncertaintyNP6   = 1.0009 0.9991
EG_RESOLUTION_ALL                           = 1.0008 1.0009
MUON_EFF_TTVA_STAT                          = 1.0008 0.9992
EL_EFF_ID_SIMPLIFIED_UncorrUncertaintyNP12  = 1.0008 0.9992
JET_fJvtEfficiency                          = 0.9993 1.0006
EL_EFF_ID_SIMPLIFIED_UncorrUncertaintyNP3   = 1.0007 0.9993
EL_EFF_ID_SIMPLIFIED_UncorrUncertaintyNP4   = 1.0007 0.9993
MUON_EFF_RECO_SYS_LOWPT                     = 1.0006 0.9994
EL_EFF_ID_SIMPLIFIED_UncorrUncertaintyNP5   = 1.0006 0.9994
EL_EFF_ID_CorrUncertaintyNP11               = 1.0005 0.9995
EL_EFF_ID_SIMPLIFIED_UncorrUncertaintyNP15  = 1.0005 0.9995
MUON_EFF_TTVA_SYS                           = 1.0005 0.9995
EL_EFF_ID_SIMPLIFIED_UncorrUncertaintyNP2   = 1.0005 0.9995
JET_EffectiveNP_Modelling3                  = 1.0000 1.0004
JET_EffectiveNP_Detector2                   = 1.0004 1.0004
MUON_EFF_RECO_STAT_LOWPT                    = 1.0003 0.9996
JET_EffectiveNP_Statistical2                = 1.0002 1.0004
JET_JER_DataVsMC_MC16                       = 1.0004 0.9997
JET_JER_EffectiveNP_1                       = 0.9996 1.0004
JET_JER_EffectiveNP_5                       = 1.0004 0.9998
EL_EFF_ID_CorrUncertaintyNP12               = 0.9996 1.0004
EL_EFF_ID_SIMPLIFIED_UncorrUncertaintyNP13  = 1.0004 0.9996
EL_EFF_ID_SIMPLIFIED_UncorrUncertaintyNP10  = 1.0004 0.9996
JET_JER_EffectiveNP_12restTerm              = 1.0004 0.9996
JET_JER_EffectiveNP_3                       = 1.0004 0.9997
JET_Flavor_Response                         = 1.0004 0.9997
EL_EFF_ID_SIMPLIFIED_UncorrUncertaintyNP7   = 1.0004 0.9996
JET_Pileup_OffsetMu                         = 0.9997 1.0002
MUON_EFF_ISO_STAT                           = 1.0003 0.9997
EG_SCALE_ALL                                = 1.0003 0.9998
JET_JER_EffectiveNP_4                       = 0.9998 1.0003
EL_EFF_ID_CorrUncertaintyNP10               = 1.0003 0.9997
EL_EFF_ID_SIMPLIFIED_UncorrUncertaintyNP14  = 1.0003 0.9997
JET_EtaIntercalibration_Modelling           = 0.9998 1.0003
JET_EtaIntercalibration_TotalStat           = 1.0001 0.9998
JET_JER_EffectiveNP_6                       = 0.9998 1.0002
EL_EFF_ID_CorrUncertaintyNP8                = 0.9998 1.0002
EL_EFF_ID_CorrUncertaintyNP6                = 1.0002 0.9998
EL_EFF_ID_CorrUncertaintyNP7                = 0.9998 1.0002
EL_EFF_ID_CorrUncertaintyNP14               = 0.9998 1.0002
EL_EFF_ID_SIMPLIFIED_UncorrUncertaintyNP16  = 1.0002 0.9998
JET_JER_EffectiveNP_8                       = 0.9998 1.0001
JET_EffectiveNP_Modelling1                  = 1.0001 0.9999
JET_EffectiveNP_Mixed2                      = 0.9999 1.0000
JET_JER_EffectiveNP_2                       = 0.9999 1.0001
JET_JER_EffectiveNP_7                       = 0.9999 1.0001
JET_JER_EffectiveNP_9                       = 0.9999 1.0000
EL_EFF_ID_CorrUncertaintyNP9                = 1.0001 0.9999
EL_EFF_ID_CorrUncertaintyNP5                = 0.9999 1.0001
EL_EFF_ID_CorrUncertaintyNP2                = 1.0001 0.9999
EL_EFF_ID_CorrUncertaintyNP0                = 1.0001 0.9999
JET_Pileup_RhoTopology                      = 1.0001 1.0001
EL_EFF_ID_SIMPLIFIED_UncorrUncertaintyNP17  = 1.0001 0.9999
JET_JER_EffectiveNP_11                      = 0.9999 1.0000
JET_JER_EffectiveNP_10                      = 0.9999 1.0001
EL_EFF_ID_CorrUncertaintyNP15               = 0.9999 1.0001
EL_EFF_ID_SIMPLIFIED_UncorrUncertaintyNP8   = 1.0001 0.9999
EL_EFF_ID_SIMPLIFIED_UncorrUncertaintyNP1   = 1.0001 0.9999
JET_EtaIntercalibration_NonClosure_2018data = 1.0000 0.9999
JET_SingleParticle_HighPt                   = 1.0000 1.0000
JET_PunchThrough_MC16                       = 1.0000 1.0000
JET_EffectiveNP_Modelling2                  = 1.0000 1.0000
JET_EffectiveNP_Modelling4                  = 1.0000 1.0000
JET_EffectiveNP_Detector1                   = 1.0000 1.0000
JET_EffectiveNP_Statistical6                = 1.0000 1.0000
JET_EffectiveNP_Statistical5                = 1.0000 1.0000
JET_EffectiveNP_Statistical4                = 1.0000 1.0000
JET_EffectiveNP_Statistical3                = 1.0000 1.0000
JET_EffectiveNP_Statistical1                = 1.0000 1.0000
JET_BJES_Response                           = 1.0000 1.0000
JET_EffectiveNP_Mixed1                      = 1.0000 1.0000
JET_EffectiveNP_Mixed3                      = 1.0000 1.0000
EG_SCALE_AF2                                = 1.0000 1.0000
EL_EFF_ID_CorrUncertaintyNP4                = 1.0000 1.0000
EL_EFF_ID_CorrUncertaintyNP3                = 1.0000 1.0000
EL_EFF_ID_CorrUncertaintyNP1                = 1.0000 1.0000
EL_EFF_ID_CorrUncertaintyNP13               = 1.0000 1.0000
JET_EtaIntercalibration_NonClosure_posEta   = 1.0000 1.0000
JET_Pileup_PtTerm                           = 1.0000 1.0000
JET_EtaIntercalibration_NonClosure_negEta   = 1.0000 1.0000
EL_EFF_ID_SIMPLIFIED_UncorrUncertaintyNP9   = 1.0000 1.0000
EL_EFF_ID_SIMPLIFIED_UncorrUncertaintyNP0   = 1.0000 1.0000
[m4l_fsr_CR_4l_Incl_bin_4_13TeV]
####bin_value/all_bins: 26.51%
EFToperator_PDF_MUF_MUR                     = 1.2155 0.8272
MUON_SCALE                                  = 0.9980 0.9551
JET_Pileup_OffsetNPV                        = 0.9601 1.0004
JET_EtaIntercalibration_NonClosure_highE    = 0.9602 1.0000
PRW_DATASF                                  = 1.0323 0.9785
OpgSM_PDF_replica                           = 0.9826 1.0174
EFToperator_PDF_var                         = 0.9850 0.9882
EFToperator_alphaS                          = 1.0029 0.9906
EL_EFF_Reco_TOTAL_1NPCOR_PLUS_UNCOR         = 1.0077 0.9924
JET_EffectiveNP_Modelling3                  = 1.0000 1.0062
JET_EffectiveNP_Detector2                   = 1.0062 1.0062
JET_EffectiveNP_Statistical2                = 1.0062 1.0061
EFToperator_PS_muF_muR                      = 0.9960 1.0057
JET_JER_EffectiveNP_1                       = 1.0056 1.0012
EG_SCALE_ALL                                = 1.0022 0.9959
MUON_EFF_ISO_SYS                            = 1.0040 0.9960
MUON_EFF_RECO_SYS                           = 1.0036 0.9964
EFToperator_Var3c                           = 0.9969 1.0028
EFToperator_isrPDF                          = 0.9971 1.0014
MUON_ID                                     = 1.0029 1.0007
JET_Flavor_Composition                      = 1.0029 1.0007
MUON_SAGITTA_RHO                            = 1.0028 1.0026
EG_RESOLUTION_ALL                           = 0.9999 0.9974
MUON_MS                                     = 0.9979 0.9987
MUON_EFF_RECO_STAT                          = 1.0016 0.9984
EFToperator_hard                            = 0.9988 1.0012
MUON_SAGITTA_RESBIAS                        = 1.0012 1.0009
EL_EFF_Iso_TOTAL_1NPCOR_PLUS_UNCOR          = 1.0011 0.9989
EL_EFF_ID_SIMPLIFIED_UncorrUncertaintyNP11  = 1.0011 0.9989
JET_fJvtEfficiency                          = 0.9991 1.0010
EL_EFF_ID_SIMPLIFIED_UncorrUncertaintyNP6   = 1.0009 0.9991
MUON_EFF_TTVA_STAT                          = 1.0008 0.9992
EL_EFF_ID_SIMPLIFIED_UncorrUncertaintyNP3   = 1.0008 0.9992
EL_EFF_ID_SIMPLIFIED_UncorrUncertaintyNP4   = 1.0008 0.9992
JET_Pileup_OffsetMu                         = 0.9993 1.0005
EL_EFF_ID_SIMPLIFIED_UncorrUncertaintyNP12  = 1.0007 0.9993
MUON_EFF_TTVA_SYS                           = 1.0006 0.9994
EL_EFF_ID_SIMPLIFIED_UncorrUncertaintyNP5   = 1.0005 0.9994
JET_JER_EffectiveNP_5                       = 1.0006 1.0005
JET_JER_EffectiveNP_2                       = 1.0005 1.0000
JET_JER_EffectiveNP_7                       = 1.0005 0.9998
JET_JER_EffectiveNP_9                       = 0.9998 1.0005
EL_EFF_ID_CorrUncertaintyNP11               = 1.0005 0.9995
MUON_EFF_RECO_SYS_LOWPT                     = 1.0005 0.9995
EL_EFF_ID_SIMPLIFIED_UncorrUncertaintyNP15  = 1.0005 0.9995
EL_EFF_ID_SIMPLIFIED_UncorrUncertaintyNP2   = 1.0005 0.9995
EL_EFF_ID_SIMPLIFIED_UncorrUncertaintyNP7   = 1.0005 0.9995
MUON_EFF_RECO_STAT_LOWPT                    = 1.0003 0.9996
JET_JER_DataVsMC_MC16                       = 1.0003 1.0004
JET_JER_EffectiveNP_6                       = 1.0003 1.0004
EL_EFF_ID_CorrUncertaintyNP12               = 0.9996 1.0004
EL_EFF_ID_SIMPLIFIED_UncorrUncertaintyNP13  = 1.0004 0.9996
EL_EFF_ID_SIMPLIFIED_UncorrUncertaintyNP10  = 1.0004 0.9996
JET_JER_EffectiveNP_12restTerm              = 1.0004 0.9996
JET_JER_EffectiveNP_3                       = 1.0004 1.0000
JET_Flavor_Response                         = 1.0004 1.0000
MUON_EFF_ISO_STAT                           = 1.0003 0.9997
EL_EFF_ID_CorrUncertaintyNP10               = 1.0003 0.9997
JET_Pileup_RhoTopology                      = 0.9997 1.0002
EL_EFF_ID_SIMPLIFIED_UncorrUncertaintyNP16  = 1.0003 0.9997
EL_EFF_ID_SIMPLIFIED_UncorrUncertaintyNP14  = 1.0003 0.9997
JET_EtaIntercalibration_Modelling           = 0.9998 1.0003
EL_EFF_ID_SIMPLIFIED_UncorrUncertaintyNP8   = 1.0003 0.9997
JET_EtaIntercalibration_TotalStat           = 0.9998 1.0001
JET_JER_EffectiveNP_4                       = 1.0001 1.0002
EL_EFF_ID_CorrUncertaintyNP8                = 0.9998 1.0002
EL_EFF_ID_CorrUncertaintyNP7                = 0.9998 1.0002
EL_EFF_ID_CorrUncertaintyNP14               = 0.9998 1.0002
JET_JER_EffectiveNP_8                       = 1.0000 1.0002
JET_EffectiveNP_Modelling1                  = 0.9999 1.0000
EL_EFF_ID_CorrUncertaintyNP9                = 1.0001 0.9999
EL_EFF_ID_CorrUncertaintyNP6                = 1.0001 0.9999
EL_EFF_ID_CorrUncertaintyNP4                = 1.0001 0.9999
EL_EFF_ID_CorrUncertaintyNP5                = 0.9999 1.0001
EL_EFF_ID_CorrUncertaintyNP2                = 1.0001 0.9999
EL_EFF_ID_CorrUncertaintyNP0                = 1.0001 0.9999
EL_EFF_ID_SIMPLIFIED_UncorrUncertaintyNP17  = 1.0001 0.9999
JET_JER_EffectiveNP_11                      = 1.0001 1.0001
JET_JER_EffectiveNP_10                      = 1.0001 1.0001
JET_Pileup_PtTerm                           = 0.9999 0.9999
EL_EFF_ID_CorrUncertaintyNP15               = 0.9999 1.0001
EL_EFF_ID_SIMPLIFIED_UncorrUncertaintyNP1   = 1.0001 0.9999
JET_EtaIntercalibration_NonClosure_2018data = 0.9999 1.0000
JET_SingleParticle_HighPt                   = 1.0000 1.0000
JET_PunchThrough_MC16                       = 1.0000 1.0000
JET_EffectiveNP_Modelling2                  = 1.0000 1.0000
JET_EffectiveNP_Modelling4                  = 1.0000 1.0000
JET_EffectiveNP_Detector1                   = 1.0000 1.0000
JET_EffectiveNP_Statistical6                = 1.0000 1.0000
JET_EffectiveNP_Statistical5                = 1.0000 1.0000
JET_EffectiveNP_Statistical4                = 1.0000 1.0000
JET_EffectiveNP_Statistical3                = 1.0000 1.0000
JET_EffectiveNP_Statistical1                = 1.0000 1.0000
JET_BJES_Response                           = 1.0000 1.0000
JET_EffectiveNP_Mixed1                      = 1.0000 1.0000
JET_EffectiveNP_Mixed3                      = 1.0000 1.0000
JET_EffectiveNP_Mixed2                      = 1.0000 1.0000
EG_SCALE_AF2                                = 1.0000 1.0000
EL_EFF_ID_CorrUncertaintyNP3                = 1.0000 1.0000
EL_EFF_ID_CorrUncertaintyNP1                = 1.0000 1.0000
EL_EFF_ID_CorrUncertaintyNP13               = 1.0000 1.0000
JET_EtaIntercalibration_NonClosure_posEta   = 1.0000 1.0000
JET_EtaIntercalibration_NonClosure_negEta   = 1.0000 1.0000
EL_EFF_ID_SIMPLIFIED_UncorrUncertaintyNP9   = 1.0000 1.0000
EL_EFF_ID_SIMPLIFIED_UncorrUncertaintyNP0   = 1.0000 1.0000
[MCFM_MELA_ggZZ_SR_4l_Incl_bin_1_13TeV]
####bin_value/all_bins: -0.06%
JET_Pileup_OffsetNPV                        = 1.2419 1.0023
JET_EtaIntercalibration_NonClosure_highE    = 1.2405 1.0000
EFToperator_PDF_MUF_MUR                     = 1.2401 0.8140
MUON_SAGITTA_RHO                            = 0.7826 0.7826
EG_SCALE_ALL                                = 0.9481 1.0675
MUON_ID                                     = 0.9609 1.0081
JET_Flavor_Composition                      = 0.9609 1.0081
EG_RESOLUTION_ALL                           = 0.9631 0.9991
MUON_SCALE                                  = 0.9857 1.0351
JET_JER_EffectiveNP_1                       = 1.0254 0.9973
PRW_DATASF                                  = 1.0246 0.9895
JET_EffectiveNP_Modelling3                  = 1.0000 1.0202
JET_EffectiveNP_Detector2                   = 1.0202 1.0202
JET_EffectiveNP_Statistical2                = 1.0202 1.0202
OpgSM_PDF_replica                           = 0.9822 1.0178
EL_EFF_Reco_TOTAL_1NPCOR_PLUS_UNCOR         = 1.0145 0.9857
MUON_EFF_ISO_SYS                            = 1.0133 0.9868
EFToperator_PDF_var                         = 0.9871 0.9876
MUON_MS                                     = 1.0060 0.9879
EFToperator_alphaS                          = 1.0037 0.9908
EFToperator_PS_muF_muR                      = 1.0008 0.9922
MUON_SAGITTA_RESBIAS                        = 1.0066 1.0066
EL_EFF_ID_SIMPLIFIED_UncorrUncertaintyNP11  = 1.0061 0.9939
JET_Pileup_OffsetMu                         = 1.0018 1.0053
JET_EtaIntercalibration_Modelling           = 1.0017 1.0053
JET_EffectiveNP_Modelling1                  = 1.0048 0.9977
JET_JER_DataVsMC_MC16                       = 0.9999 1.0048
JET_JER_EffectiveNP_2                       = 1.0005 0.9953
EL_EFF_Iso_TOTAL_1NPCOR_PLUS_UNCOR          = 1.0046 0.9954
JET_JER_EffectiveNP_5                       = 0.9976 1.0036
MUON_EFF_RECO_SYS_LOWPT                     = 1.0036 0.9964
JET_fJvtEfficiency                          = 1.0036 0.9964
EL_EFF_ID_SIMPLIFIED_UncorrUncertaintyNP2   = 1.0036 0.9964
JET_Pileup_RhoTopology                      = 1.0033 0.9997
JET_JER_EffectiveNP_4                       = 1.0032 0.9968
JET_JER_EffectiveNP_6                       = 1.0031 0.9980
EL_EFF_ID_SIMPLIFIED_UncorrUncertaintyNP1   = 1.0031 0.9969
MUON_EFF_RECO_SYS                           = 1.0030 0.9971
EFToperator_isrPDF                          = 0.9971 1.0007
JET_JER_EffectiveNP_3                       = 0.9972 1.0027
JET_Flavor_Response                         = 0.9972 1.0027
MUON_EFF_TTVA_STAT                          = 1.0024 0.9976
MUON_EFF_RECO_STAT_LOWPT                    = 1.0017 0.9978
JET_JER_EffectiveNP_10                      = 0.9994 0.9979
JET_JER_EffectiveNP_11                      = 0.9980 0.9993
EL_EFF_ID_SIMPLIFIED_UncorrUncertaintyNP3   = 1.0020 0.9980
JET_JER_EffectiveNP_9                       = 1.0016 0.9992
EFToperator_hard                            = 0.9989 1.0014
EFToperator_Var3c                           = 0.9988 1.0013
MUON_EFF_RECO_STAT                          = 1.0011 0.9989
MUON_EFF_TTVA_SYS                           = 1.0011 0.9990
MUON_EFF_ISO_STAT                           = 1.0010 0.9990
EL_EFF_ID_SIMPLIFIED_UncorrUncertaintyNP4   = 1.0008 0.9992
JET_EtaIntercalibration_TotalStat           = 1.0008 1.0000
EL_EFF_ID_SIMPLIFIED_UncorrUncertaintyNP15  = 1.0007 0.9993
EL_EFF_ID_SIMPLIFIED_UncorrUncertaintyNP12  = 1.0007 0.9993
EL_EFF_ID_SIMPLIFIED_UncorrUncertaintyNP17  = 1.0006 0.9994
JET_JER_EffectiveNP_7                       = 1.0006 1.0003
JET_JER_EffectiveNP_8                       = 0.9995 1.0006
EL_EFF_ID_SIMPLIFIED_UncorrUncertaintyNP16  = 1.0005 0.9995
EL_EFF_ID_CorrUncertaintyNP10               = 1.0004 0.9996
EL_EFF_ID_CorrUncertaintyNP12               = 0.9996 1.0004
EL_EFF_ID_SIMPLIFIED_UncorrUncertaintyNP14  = 1.0004 0.9996
EL_EFF_ID_SIMPLIFIED_UncorrUncertaintyNP10  = 1.0004 0.9996
JET_JER_EffectiveNP_12restTerm              = 1.0004 0.9996
JET_Pileup_PtTerm                           = 1.0001 1.0004
EL_EFF_ID_SIMPLIFIED_UncorrUncertaintyNP5   = 1.0004 0.9996
EL_EFF_ID_CorrUncertaintyNP9                = 1.0003 0.9997
EL_EFF_ID_CorrUncertaintyNP11               = 1.0003 0.9997
EL_EFF_ID_CorrUncertaintyNP14               = 0.9997 1.0003
EL_EFF_ID_CorrUncertaintyNP15               = 0.9997 1.0003
EL_EFF_ID_SIMPLIFIED_UncorrUncertaintyNP6   = 1.0003 0.9997
EL_EFF_ID_CorrUncertaintyNP7                = 0.9998 1.0002
EL_EFF_ID_SIMPLIFIED_UncorrUncertaintyNP13  = 1.0002 0.9998
EL_EFF_ID_CorrUncertaintyNP8                = 0.9999 1.0001
EL_EFF_ID_CorrUncertaintyNP4                = 1.0001 0.9999
EL_EFF_ID_CorrUncertaintyNP5                = 0.9999 1.0001
EL_EFF_ID_CorrUncertaintyNP3                = 1.0001 0.9999
EL_EFF_ID_CorrUncertaintyNP13               = 0.9999 1.0001
EL_EFF_ID_SIMPLIFIED_UncorrUncertaintyNP8   = 1.0001 0.9999
EL_EFF_ID_SIMPLIFIED_UncorrUncertaintyNP7   = 1.0001 0.9999
JET_SingleParticle_HighPt                   = 1.0000 1.0000
JET_PunchThrough_MC16                       = 1.0000 1.0000
JET_EffectiveNP_Modelling2                  = 1.0000 1.0000
JET_EffectiveNP_Modelling4                  = 1.0000 1.0000
JET_EffectiveNP_Detector1                   = 1.0000 1.0000
JET_EffectiveNP_Statistical6                = 1.0000 1.0000
JET_EffectiveNP_Statistical5                = 1.0000 1.0000
JET_EffectiveNP_Statistical4                = 1.0000 1.0000
JET_EffectiveNP_Statistical3                = 1.0000 1.0000
JET_EffectiveNP_Statistical1                = 1.0000 1.0000
JET_BJES_Response                           = 1.0000 1.0000
JET_EffectiveNP_Mixed1                      = 1.0000 1.0000
JET_EffectiveNP_Mixed3                      = 1.0000 1.0000
JET_EffectiveNP_Mixed2                      = 1.0000 1.0000
EG_SCALE_AF2                                = 1.0000 1.0000
EL_EFF_ID_CorrUncertaintyNP6                = 1.0000 1.0000
EL_EFF_ID_CorrUncertaintyNP2                = 1.0000 1.0000
EL_EFF_ID_CorrUncertaintyNP0                = 1.0000 1.0000
EL_EFF_ID_CorrUncertaintyNP1                = 1.0000 1.0000
JET_EtaIntercalibration_NonClosure_posEta   = 1.0000 1.0000
JET_EtaIntercalibration_NonClosure_negEta   = 1.0000 1.0000
EL_EFF_ID_SIMPLIFIED_UncorrUncertaintyNP9   = 1.0000 1.0000
EL_EFF_ID_SIMPLIFIED_UncorrUncertaintyNP0   = 1.0000 1.0000
JET_EtaIntercalibration_NonClosure_2018data = 1.0000 1.0000
[MCFM_MELA_ggZZ_SR_4l_Incl_bin_2_13TeV]
####bin_value/all_bins: -2.26%
EFToperator_PDF_MUF_MUR                     = 1.2369 0.8157
JET_Pileup_OffsetNPV                        = 0.9250 1.0010
JET_EtaIntercalibration_NonClosure_highE    = 0.9257 1.0000
MUON_SCALE                                  = 1.0015 0.9555
PRW_DATASF                                  = 1.0259 0.9813
MUON_SAGITTA_RESBIAS                        = 1.0247 1.0250
OpgSM_PDF_replica                           = 0.9822 1.0178
MUON_SAGITTA_RHO                            = 1.0163 1.0164
JET_EffectiveNP_Modelling3                  = 1.0000 1.0146
JET_EffectiveNP_Detector2                   = 1.0146 1.0146
JET_EffectiveNP_Statistical2                = 1.0146 1.0142
EFToperator_PDF_var                         = 0.9864 0.9874
JET_JER_EffectiveNP_1                       = 1.0134 1.0010
EL_EFF_Reco_TOTAL_1NPCOR_PLUS_UNCOR         = 1.0124 0.9877
EFToperator_PS_muF_muR                      = 1.0020 0.9881
EFToperator_alphaS                          = 1.0035 0.9907
MUON_EFF_ISO_SYS                            = 1.0092 0.9908
EG_SCALE_ALL                                = 1.0071 0.9943
MUON_MS                                     = 1.0029 1.0056
MUON_ID                                     = 1.0036 1.0040
JET_Flavor_Composition                      = 1.0036 1.0040
MUON_EFF_RECO_SYS                           = 1.0039 0.9962
EL_EFF_ID_SIMPLIFIED_UncorrUncertaintyNP11  = 1.0033 0.9967
EL_EFF_ID_SIMPLIFIED_UncorrUncertaintyNP2   = 1.0032 0.9968
EL_EFF_Iso_TOTAL_1NPCOR_PLUS_UNCOR          = 1.0030 0.9970
MUON_EFF_RECO_SYS_LOWPT                     = 1.0029 0.9971
EFToperator_isrPDF                          = 0.9977 1.0003
MUON_EFF_RECO_STAT                          = 1.0019 0.9981
EG_RESOLUTION_ALL                           = 0.9987 1.0019
JET_JER_EffectiveNP_4                       = 1.0015 0.9981
MUON_EFF_TTVA_STAT                          = 1.0018 0.9982
EL_EFF_ID_SIMPLIFIED_UncorrUncertaintyNP3   = 1.0018 0.9982
MUON_EFF_RECO_STAT_LOWPT                    = 1.0012 0.9984
EL_EFF_ID_SIMPLIFIED_UncorrUncertaintyNP10  = 1.0016 0.9984
JET_JER_EffectiveNP_12restTerm              = 1.0016 0.9984
EFToperator_hard                            = 0.9989 1.0014
JET_JER_EffectiveNP_6                       = 1.0014 0.9990
JET_JER_EffectiveNP_7                       = 0.9988 1.0004
JET_JER_EffectiveNP_5                       = 0.9989 1.0011
JET_Pileup_OffsetMu                         = 0.9990 1.0009
EL_EFF_ID_SIMPLIFIED_UncorrUncertaintyNP12  = 1.0010 0.9990
EL_EFF_ID_SIMPLIFIED_UncorrUncertaintyNP1   = 1.0010 0.9990
EL_EFF_ID_SIMPLIFIED_UncorrUncertaintyNP4   = 1.0009 0.9991
EFToperator_Var3c                           = 0.9994 1.0009
JET_Pileup_RhoTopology                      = 0.9992 1.0003
MUON_EFF_TTVA_SYS                           = 1.0008 0.9992
JET_JER_EffectiveNP_10                      = 1.0008 0.9996
MUON_EFF_ISO_STAT                           = 1.0007 0.9993
JET_fJvtEfficiency                          = 0.9993 1.0007
JET_JER_DataVsMC_MC16                       = 0.9994 1.0000
EL_EFF_ID_SIMPLIFIED_UncorrUncertaintyNP15  = 1.0006 0.9994
JET_Pileup_PtTerm                           = 0.9994 1.0000
JET_EtaIntercalibration_Modelling           = 0.9994 1.0006
EL_EFF_ID_SIMPLIFIED_UncorrUncertaintyNP5   = 1.0006 0.9994
JET_JER_EffectiveNP_2                       = 0.9995 1.0006
JET_EffectiveNP_Modelling1                  = 0.9995 1.0003
EL_EFF_ID_SIMPLIFIED_UncorrUncertaintyNP6   = 1.0005 0.9995
JET_EffectiveNP_Modelling2                  = 1.0000 0.9996
JET_EffectiveNP_Detector1                   = 0.9996 1.0000
JET_EffectiveNP_Mixed2                      = 1.0000 0.9996
JET_EtaIntercalibration_TotalStat           = 0.9996 0.9999
EL_EFF_ID_CorrUncertaintyNP10               = 1.0004 0.9996
EL_EFF_ID_CorrUncertaintyNP11               = 1.0004 0.9996
EL_EFF_ID_CorrUncertaintyNP12               = 0.9996 1.0004
JET_JER_EffectiveNP_8                       = 1.0002 0.9996
JET_EtaIntercalibration_NonClosure_2018data = 0.9996 1.0000
EL_EFF_ID_CorrUncertaintyNP14               = 0.9997 1.0003
EL_EFF_ID_SIMPLIFIED_UncorrUncertaintyNP17  = 1.0003 0.9997
EL_EFF_ID_SIMPLIFIED_UncorrUncertaintyNP14  = 1.0003 0.9997
EL_EFF_ID_SIMPLIFIED_UncorrUncertaintyNP13  = 1.0003 0.9997
JET_JER_EffectiveNP_3                       = 1.0003 1.0000
JET_Flavor_Response                         = 1.0003 1.0000
EL_EFF_ID_SIMPLIFIED_UncorrUncertaintyNP7   = 1.0003 0.9997
JET_JER_EffectiveNP_9                       = 1.0002 1.0000
EL_EFF_ID_CorrUncertaintyNP8                = 0.9998 1.0002
EL_EFF_ID_CorrUncertaintyNP9                = 1.0002 0.9998
EL_EFF_ID_CorrUncertaintyNP6                = 1.0002 0.9998
EL_EFF_ID_SIMPLIFIED_UncorrUncertaintyNP16  = 1.0002 0.9998
JET_JER_EffectiveNP_11                      = 1.0001 1.0002
EL_EFF_ID_SIMPLIFIED_UncorrUncertaintyNP8   = 1.0002 0.9998
EL_EFF_ID_CorrUncertaintyNP7                = 0.9999 1.0001
EL_EFF_ID_CorrUncertaintyNP4                = 1.0001 0.9999
EL_EFF_ID_CorrUncertaintyNP13               = 1.0001 0.9999
EL_EFF_ID_CorrUncertaintyNP15               = 0.9999 1.0001
JET_SingleParticle_HighPt                   = 1.0000 1.0000
JET_PunchThrough_MC16                       = 1.0000 1.0000
JET_EffectiveNP_Modelling4                  = 1.0000 1.0000
JET_EffectiveNP_Statistical6                = 1.0000 1.0000
JET_EffectiveNP_Statistical5                = 1.0000 1.0000
JET_EffectiveNP_Statistical4                = 1.0000 1.0000
JET_EffectiveNP_Statistical3                = 1.0000 1.0000
JET_EffectiveNP_Statistical1                = 1.0000 1.0000
JET_BJES_Response                           = 1.0000 1.0000
JET_EffectiveNP_Mixed1                      = 1.0000 1.0000
JET_EffectiveNP_Mixed3                      = 1.0000 1.0000
EG_SCALE_AF2                                = 1.0000 1.0000
EL_EFF_ID_CorrUncertaintyNP5                = 1.0000 1.0000
EL_EFF_ID_CorrUncertaintyNP2                = 1.0000 1.0000
EL_EFF_ID_CorrUncertaintyNP3                = 1.0000 1.0000
EL_EFF_ID_CorrUncertaintyNP0                = 1.0000 1.0000
EL_EFF_ID_CorrUncertaintyNP1                = 1.0000 1.0000
JET_EtaIntercalibration_NonClosure_posEta   = 1.0000 1.0000
JET_EtaIntercalibration_NonClosure_negEta   = 1.0000 1.0000
EL_EFF_ID_SIMPLIFIED_UncorrUncertaintyNP9   = 1.0000 1.0000
EL_EFF_ID_SIMPLIFIED_UncorrUncertaintyNP0   = 1.0000 1.0000
[MCFM_MELA_ggZZ_SR_4l_Incl_bin_3_13TeV]
####bin_value/all_bins: -28.78%
EFToperator_PDF_MUF_MUR                     = 1.2317 0.8185
MUON_SCALE                                  = 0.9950 0.9477
PRW_DATASF                                  = 1.0344 0.9755
JET_Pileup_OffsetNPV                        = 0.9704 0.9998
JET_EtaIntercalibration_NonClosure_highE    = 0.9705 1.0000
OpgSM_PDF_replica                           = 0.9823 1.0177
EFToperator_PDF_var                         = 0.9860 0.9877
EFToperator_alphaS                          = 1.0034 0.9907
EL_EFF_Reco_TOTAL_1NPCOR_PLUS_UNCOR         = 1.0086 0.9915
EG_SCALE_ALL                                = 1.0061 0.9956
MUON_EFF_ISO_SYS                            = 1.0054 0.9946
MUON_SAGITTA_RESBIAS                        = 0.9949 0.9949
EFToperator_PS_muF_muR                      = 0.9992 0.9955
MUON_EFF_RECO_SYS                           = 1.0039 0.9962
MUON_SAGITTA_RHO                            = 1.0034 1.0034
JET_EffectiveNP_Modelling3                  = 1.0000 0.9971
JET_EffectiveNP_Detector2                   = 0.9971 0.9971
JET_EffectiveNP_Statistical2                = 0.9972 0.9971
JET_JER_EffectiveNP_1                       = 0.9971 1.0003
EFToperator_isrPDF                          = 0.9974 1.0007
EFToperator_Var3c                           = 0.9982 1.0019
EL_EFF_Iso_TOTAL_1NPCOR_PLUS_UNCOR          = 1.0018 0.9982
MUON_EFF_RECO_STAT                          = 1.0015 0.9984
EFToperator_hard                            = 0.9988 1.0015
EL_EFF_ID_SIMPLIFIED_UncorrUncertaintyNP11  = 1.0015 0.9985
EL_EFF_ID_SIMPLIFIED_UncorrUncertaintyNP2   = 1.0015 0.9985
EL_EFF_ID_SIMPLIFIED_UncorrUncertaintyNP3   = 1.0014 0.9986
MUON_EFF_RECO_SYS_LOWPT                     = 1.0012 0.9988
EG_RESOLUTION_ALL                           = 1.0011 1.0003
MUON_EFF_TTVA_STAT                          = 1.0011 0.9989
EL_EFF_ID_SIMPLIFIED_UncorrUncertaintyNP4   = 1.0011 0.9989
MUON_ID                                     = 0.9991 0.9999
JET_Flavor_Composition                      = 0.9991 0.9999
EL_EFF_ID_SIMPLIFIED_UncorrUncertaintyNP12  = 1.0009 0.9991
EL_EFF_ID_SIMPLIFIED_UncorrUncertaintyNP8   = 1.0009 0.9991
MUON_EFF_TTVA_SYS                           = 1.0008 0.9992
MUON_EFF_RECO_STAT_LOWPT                    = 1.0005 0.9994
JET_fJvtEfficiency                          = 0.9994 1.0006
EL_EFF_ID_SIMPLIFIED_UncorrUncertaintyNP10  = 1.0006 0.9994
JET_JER_EffectiveNP_12restTerm              = 1.0006 0.9994
EL_EFF_ID_SIMPLIFIED_UncorrUncertaintyNP6   = 1.0006 0.9994
EL_EFF_ID_SIMPLIFIED_UncorrUncertaintyNP5   = 1.0006 0.9994
JET_Pileup_OffsetMu                         = 0.9995 1.0003
EL_EFF_ID_CorrUncertaintyNP11               = 1.0005 0.9995
EL_EFF_ID_SIMPLIFIED_UncorrUncertaintyNP17  = 1.0005 0.9995
MUON_EFF_ISO_STAT                           = 1.0004 0.9996
EL_EFF_ID_CorrUncertaintyNP10               = 1.0004 0.9996
EL_EFF_ID_CorrUncertaintyNP12               = 0.9996 1.0004
EL_EFF_ID_SIMPLIFIED_UncorrUncertaintyNP15  = 1.0004 0.9996
EL_EFF_ID_SIMPLIFIED_UncorrUncertaintyNP13  = 1.0004 0.9996
JET_EtaIntercalibration_Modelling           = 0.9996 1.0003
EL_EFF_ID_SIMPLIFIED_UncorrUncertaintyNP1   = 1.0004 0.9996
EL_EFF_ID_SIMPLIFIED_UncorrUncertaintyNP7   = 1.0004 0.9996
JET_JER_EffectiveNP_2                       = 1.0003 0.9999
EL_EFF_ID_CorrUncertaintyNP14               = 0.9997 1.0003
JET_JER_EffectiveNP_6                       = 1.0001 1.0002
JET_JER_EffectiveNP_4                       = 1.0002 0.9999
JET_JER_EffectiveNP_9                       = 0.9998 1.0000
EL_EFF_ID_CorrUncertaintyNP7                = 0.9998 1.0002
EL_EFF_ID_SIMPLIFIED_UncorrUncertaintyNP16  = 1.0002 0.9998
EL_EFF_ID_SIMPLIFIED_UncorrUncertaintyNP14  = 1.0002 0.9998
JET_JER_EffectiveNP_10                      = 1.0002 1.0000
EL_EFF_ID_CorrUncertaintyNP15               = 0.9998 1.0002
JET_JER_EffectiveNP_8                       = 1.0000 1.0002
JET_EffectiveNP_Modelling1                  = 0.9999 0.9999
JET_EffectiveNP_Mixed2                      = 1.0001 1.0000
JET_JER_DataVsMC_MC16                       = 1.0000 1.0001
JET_EtaIntercalibration_TotalStat           = 0.9999 1.0000
JET_JER_EffectiveNP_7                       = 0.9999 1.0000
JET_JER_EffectiveNP_5                       = 1.0001 1.0001
EL_EFF_ID_CorrUncertaintyNP8                = 0.9999 1.0001
EL_EFF_ID_CorrUncertaintyNP9                = 1.0001 0.9999
EL_EFF_ID_CorrUncertaintyNP6                = 1.0001 0.9999
EL_EFF_ID_CorrUncertaintyNP4                = 1.0001 0.9999
EL_EFF_ID_CorrUncertaintyNP5                = 0.9999 1.0001
EL_EFF_ID_CorrUncertaintyNP0                = 1.0001 0.9999
JET_Pileup_RhoTopology                      = 1.0001 1.0000
JET_JER_EffectiveNP_3                       = 0.9999 1.0000
JET_Flavor_Response                         = 0.9999 1.0000
MUON_MS                                     = 0.9999 0.9999
JET_SingleParticle_HighPt                   = 1.0000 1.0000
JET_PunchThrough_MC16                       = 1.0000 1.0000
JET_EffectiveNP_Modelling2                  = 1.0000 1.0000
JET_EffectiveNP_Modelling4                  = 1.0000 1.0000
JET_EffectiveNP_Detector1                   = 1.0000 1.0000
JET_EffectiveNP_Statistical6                = 1.0000 1.0000
JET_EffectiveNP_Statistical5                = 1.0000 1.0000
JET_EffectiveNP_Statistical4                = 1.0000 1.0000
JET_EffectiveNP_Statistical3                = 1.0000 1.0000
JET_EffectiveNP_Statistical1                = 1.0000 1.0000
JET_BJES_Response                           = 1.0000 1.0000
JET_EffectiveNP_Mixed1                      = 1.0000 1.0000
JET_EffectiveNP_Mixed3                      = 1.0000 1.0000
EG_SCALE_AF2                                = 1.0000 1.0000
EL_EFF_ID_CorrUncertaintyNP2                = 1.0000 1.0000
EL_EFF_ID_CorrUncertaintyNP3                = 1.0000 1.0000
EL_EFF_ID_CorrUncertaintyNP1                = 1.0000 1.0000
EL_EFF_ID_CorrUncertaintyNP13               = 1.0000 1.0000
JET_EtaIntercalibration_NonClosure_posEta   = 1.0000 1.0000
JET_JER_EffectiveNP_11                      = 1.0000 1.0000
JET_Pileup_PtTerm                           = 1.0000 1.0000
JET_EtaIntercalibration_NonClosure_negEta   = 1.0000 1.0000
EL_EFF_ID_SIMPLIFIED_UncorrUncertaintyNP9   = 1.0000 1.0000
EL_EFF_ID_SIMPLIFIED_UncorrUncertaintyNP0   = 1.0000 1.0000
JET_EtaIntercalibration_NonClosure_2018data = 1.0000 1.0000
[MCFM_MELA_ggZZ_SR_4l_Incl_bin_4_13TeV]
####bin_value/all_bins: -34.31%
EFToperator_PDF_MUF_MUR                     = 1.2336 0.8175
MUON_SCALE                                  = 0.9978 0.9578
PRW_DATASF                                  = 1.0291 0.9775
OpgSM_PDF_replica                           = 0.9822 1.0178
EFToperator_PDF_var                         = 0.9862 0.9876
EFToperator_alphaS                          = 1.0035 0.9907
EL_EFF_Reco_TOTAL_1NPCOR_PLUS_UNCOR         = 1.0080 0.9920
MUON_SAGITTA_RHO                            = 0.9922 0.9923
EFToperator_PS_muF_muR                      = 0.9999 0.9931
MUON_EFF_ISO_SYS                            = 1.0046 0.9954
MUON_EFF_RECO_SYS                           = 1.0041 0.9959
JET_EffectiveNP_Modelling3                  = 1.0000 1.0038
JET_EffectiveNP_Detector2                   = 1.0038 1.0038
JET_EffectiveNP_Statistical2                = 1.0038 1.0037
JET_JER_EffectiveNP_1                       = 1.0034 1.0004
JET_EtaIntercalibration_NonClosure_highE    = 0.9966 1.0000
JET_Pileup_OffsetNPV                        = 0.9967 1.0004
EG_SCALE_ALL                                = 1.0023 0.9969
EG_RESOLUTION_ALL                           = 0.9971 1.0025
EFToperator_isrPDF                          = 0.9975 1.0006
MUON_ID                                     = 0.9999 1.0018
JET_Flavor_Composition                      = 0.9999 1.0018
MUON_MS                                     = 1.0017 1.0009
MUON_EFF_RECO_STAT                          = 1.0016 0.9984
EFToperator_Var3c                           = 0.9986 1.0015
EFToperator_hard                            = 0.9988 1.0015
EL_EFF_ID_SIMPLIFIED_UncorrUncertaintyNP11  = 1.0015 0.9985
EL_EFF_Iso_TOTAL_1NPCOR_PLUS_UNCOR          = 1.0014 0.9986
EL_EFF_ID_SIMPLIFIED_UncorrUncertaintyNP8   = 1.0013 0.9987
MUON_EFF_TTVA_STAT                          = 1.0011 0.9989
MUON_EFF_RECO_SYS_LOWPT                     = 1.0011 0.9989
EL_EFF_ID_SIMPLIFIED_UncorrUncertaintyNP3   = 1.0011 0.9989
EL_EFF_ID_SIMPLIFIED_UncorrUncertaintyNP2   = 1.0011 0.9989
MUON_EFF_TTVA_SYS                           = 1.0010 0.9991
JET_Pileup_OffsetMu                         = 0.9991 1.0007
EL_EFF_ID_SIMPLIFIED_UncorrUncertaintyNP12  = 1.0008 0.9992
EL_EFF_ID_SIMPLIFIED_UncorrUncertaintyNP4   = 1.0008 0.9992
JET_JER_EffectiveNP_6                       = 0.9993 1.0000
JET_JER_EffectiveNP_5                       = 1.0003 0.9994
EL_EFF_ID_SIMPLIFIED_UncorrUncertaintyNP17  = 1.0006 0.9994
EL_EFF_ID_SIMPLIFIED_UncorrUncertaintyNP6   = 1.0006 0.9994
JET_EtaIntercalibration_Modelling           = 0.9999 1.0006
MUON_EFF_ISO_STAT                           = 1.0005 0.9996
MUON_EFF_RECO_STAT_LOWPT                    = 1.0004 0.9995
JET_JER_EffectiveNP_4                       = 0.9995 1.0004
EL_EFF_ID_CorrUncertaintyNP11               = 1.0005 0.9995
JET_fJvtEfficiency                          = 0.9995 1.0005
EL_EFF_ID_SIMPLIFIED_UncorrUncertaintyNP7   = 1.0005 0.9995
JET_JER_EffectiveNP_7                       = 0.9996 1.0001
EL_EFF_ID_CorrUncertaintyNP12               = 0.9996 1.0004
EL_EFF_ID_SIMPLIFIED_UncorrUncertaintyNP13  = 1.0004 0.9996
MUON_SAGITTA_RESBIAS                        = 0.9997 0.9996
EL_EFF_ID_SIMPLIFIED_UncorrUncertaintyNP5   = 1.0004 0.9996
EL_EFF_ID_CorrUncertaintyNP7                = 0.9997 1.0003
EL_EFF_ID_CorrUncertaintyNP10               = 1.0003 0.9997
EL_EFF_ID_SIMPLIFIED_UncorrUncertaintyNP15  = 1.0003 0.9997
EL_EFF_ID_SIMPLIFIED_UncorrUncertaintyNP1   = 1.0003 0.9997
JET_JER_EffectiveNP_2                       = 1.0001 1.0002
JET_JER_EffectiveNP_9                       = 1.0000 0.9998
EL_EFF_ID_CorrUncertaintyNP14               = 0.9998 1.0002
JET_Pileup_RhoTopology                      = 1.0001 1.0002
EL_EFF_ID_SIMPLIFIED_UncorrUncertaintyNP16  = 1.0002 0.9998
EL_EFF_ID_SIMPLIFIED_UncorrUncertaintyNP14  = 1.0002 0.9998
EL_EFF_ID_SIMPLIFIED_UncorrUncertaintyNP10  = 1.0002 0.9998
JET_JER_EffectiveNP_12restTerm              = 1.0002 0.9998
JET_EffectiveNP_Modelling2                  = 1.0001 1.0000
JET_EffectiveNP_Modelling1                  = 0.9999 1.0001
JET_EffectiveNP_Detector1                   = 1.0000 1.0001
JET_EffectiveNP_Mixed2                      = 1.0001 1.0000
JET_JER_DataVsMC_MC16                       = 0.9999 0.9999
JET_EtaIntercalibration_TotalStat           = 0.9999 1.0001
EL_EFF_ID_CorrUncertaintyNP8                = 0.9999 1.0001
EL_EFF_ID_CorrUncertaintyNP9                = 1.0001 0.9999
EL_EFF_ID_CorrUncertaintyNP4                = 1.0001 0.9999
EL_EFF_ID_CorrUncertaintyNP5                = 0.9999 1.0001
EL_EFF_ID_CorrUncertaintyNP3                = 0.9999 1.0001
EL_EFF_ID_CorrUncertaintyNP0                = 1.0001 0.9999
JET_JER_EffectiveNP_11                      = 1.0000 0.9999
JET_Pileup_PtTerm                           = 1.0000 0.9999
EL_EFF_ID_CorrUncertaintyNP15               = 0.9999 1.0001
JET_JER_EffectiveNP_8                       = 1.0001 1.0000
JET_EtaIntercalibration_NonClosure_2018data = 1.0001 1.0000
JET_SingleParticle_HighPt                   = 1.0000 1.0000
JET_PunchThrough_MC16                       = 1.0000 1.0000
JET_EffectiveNP_Modelling4                  = 1.0000 1.0000
JET_EffectiveNP_Statistical6                = 1.0000 1.0000
JET_EffectiveNP_Statistical5                = 1.0000 1.0000
JET_EffectiveNP_Statistical4                = 1.0000 1.0000
JET_EffectiveNP_Statistical3                = 1.0000 1.0000
JET_EffectiveNP_Statistical1                = 1.0000 1.0000
JET_BJES_Response                           = 1.0000 1.0000
JET_EffectiveNP_Mixed1                      = 1.0000 1.0000
JET_EffectiveNP_Mixed3                      = 1.0000 1.0000
EG_SCALE_AF2                                = 1.0000 1.0000
EL_EFF_ID_CorrUncertaintyNP6                = 1.0000 1.0000
EL_EFF_ID_CorrUncertaintyNP2                = 1.0000 1.0000
EL_EFF_ID_CorrUncertaintyNP1                = 1.0000 1.0000
EL_EFF_ID_CorrUncertaintyNP13               = 1.0000 1.0000
JET_EtaIntercalibration_NonClosure_posEta   = 1.0000 1.0000
JET_JER_EffectiveNP_3                       = 1.0000 1.0000
JET_Flavor_Response                         = 1.0000 1.0000
JET_JER_EffectiveNP_10                      = 1.0000 1.0000
JET_EtaIntercalibration_NonClosure_negEta   = 1.0000 1.0000
EL_EFF_ID_SIMPLIFIED_UncorrUncertaintyNP9   = 1.0000 1.0000
EL_EFF_ID_SIMPLIFIED_UncorrUncertaintyNP0   = 1.0000 1.0000
[MCFM_MELA_ggZZ_SR_4l_Incl_bin_5_13TeV]
####bin_value/all_bins: 9.99%
EFToperator_PDF_MUF_MUR                     = 1.2667 0.8001
MUON_SCALE                                  = 0.9995 0.9708
PRW_DATASF                                  = 1.0279 0.9836
EFToperator_PS_muF_muR                      = 1.0046 0.9796
JET_EtaIntercalibration_NonClosure_highE    = 1.0202 1.0000
JET_Pileup_OffsetNPV                        = 1.0196 0.9995
OpgSM_PDF_replica                           = 0.9821 1.0179
EFToperator_PDF_var                         = 0.9914 0.9879
JET_JER_EffectiveNP_1                       = 0.9910 1.0010
EFToperator_alphaS                          = 1.0045 0.9913
JET_EffectiveNP_Statistical2                = 0.9933 0.9932
JET_EffectiveNP_Modelling3                  = 1.0000 0.9933
JET_EffectiveNP_Detector2                   = 0.9933 0.9933
EL_EFF_Reco_TOTAL_1NPCOR_PLUS_UNCOR         = 1.0066 0.9935
MUON_ID                                     = 1.0063 1.0061
JET_Flavor_Composition                      = 1.0063 1.0061
EG_RESOLUTION_ALL                           = 1.0054 0.9999
MUON_MS                                     = 1.0051 1.0014
MUON_EFF_RECO_SYS                           = 1.0046 0.9954
MUON_SAGITTA_RHO                            = 0.9956 0.9956
EFToperator_isrPDF                          = 0.9964 0.9999
EG_SCALE_ALL                                = 1.0030 0.9968
JET_fJvtEfficiency                          = 0.9978 1.0022
MUON_SAGITTA_RESBIAS                        = 1.0022 1.0021
MUON_EFF_RECO_STAT                          = 1.0019 0.9980
MUON_EFF_ISO_SYS                            = 1.0016 0.9984
JET_Pileup_OffsetMu                         = 0.9985 1.0010
EFToperator_Var3c                           = 1.0013 0.9993
EL_EFF_ID_SIMPLIFIED_UncorrUncertaintyNP17  = 1.0010 0.9990
JET_JER_DataVsMC_MC16                       = 1.0010 0.9996
EL_EFF_ID_SIMPLIFIED_UncorrUncertaintyNP8   = 1.0009 0.9991
MUON_EFF_TTVA_SYS                           = 1.0009 0.9992
JET_EtaIntercalibration_Modelling           = 0.9995 0.9992
MUON_EFF_TTVA_STAT                          = 1.0007 0.9993
EL_EFF_ID_SIMPLIFIED_UncorrUncertaintyNP6   = 1.0007 0.9993
EFToperator_hard                            = 0.9995 1.0007
EL_EFF_ID_SIMPLIFIED_UncorrUncertaintyNP11  = 1.0006 0.9994
EL_EFF_ID_SIMPLIFIED_UncorrUncertaintyNP7   = 1.0006 0.9994
JET_JER_EffectiveNP_5                       = 0.9999 1.0006
JET_EffectiveNP_Modelling1                  = 0.9996 0.9995
JET_JER_EffectiveNP_2                       = 1.0003 0.9995
JET_JER_EffectiveNP_7                       = 0.9999 0.9995
EL_EFF_ID_SIMPLIFIED_UncorrUncertaintyNP15  = 1.0005 0.9995
JET_JER_EffectiveNP_6                       = 0.9996 0.9997
EL_EFF_Iso_TOTAL_1NPCOR_PLUS_UNCOR          = 1.0004 0.9996
EL_EFF_ID_CorrUncertaintyNP11               = 1.0004 0.9996
JET_Pileup_RhoTopology                      = 1.0003 0.9996
EL_EFF_ID_SIMPLIFIED_UncorrUncertaintyNP16  = 1.0004 0.9996
EL_EFF_ID_SIMPLIFIED_UncorrUncertaintyNP10  = 1.0004 0.9996
JET_JER_EffectiveNP_12restTerm              = 1.0004 0.9996
JET_JER_EffectiveNP_3                       = 1.0004 0.9996
JET_Flavor_Response                         = 1.0004 0.9996
JET_EtaIntercalibration_TotalStat           = 0.9997 1.0000
JET_JER_EffectiveNP_4                       = 0.9997 1.0002
EL_EFF_ID_CorrUncertaintyNP7                = 0.9997 1.0003
EL_EFF_ID_CorrUncertaintyNP12               = 0.9997 1.0003
EL_EFF_ID_SIMPLIFIED_UncorrUncertaintyNP12  = 1.0003 0.9997
JET_JER_EffectiveNP_11                      = 1.0000 0.9997
JET_JER_EffectiveNP_8                       = 0.9998 0.9997
EL_EFF_ID_SIMPLIFIED_UncorrUncertaintyNP2   = 0.9997 1.0003
EL_EFF_ID_SIMPLIFIED_UncorrUncertaintyNP4   = 1.0003 0.9997
MUON_EFF_ISO_STAT                           = 1.0002 0.9998
JET_EffectiveNP_Mixed2                      = 1.0000 0.9998
JET_JER_EffectiveNP_9                       = 1.0000 1.0002
EL_EFF_ID_CorrUncertaintyNP10               = 1.0002 0.9998
JET_EtaIntercalibration_NonClosure_posEta   = 1.0001 0.9998
EL_EFF_ID_SIMPLIFIED_UncorrUncertaintyNP14  = 1.0002 0.9998
EL_EFF_ID_SIMPLIFIED_UncorrUncertaintyNP13  = 1.0002 0.9998
JET_Pileup_PtTerm                           = 0.9998 0.9998
EL_EFF_ID_SIMPLIFIED_UncorrUncertaintyNP5   = 1.0002 0.9998
JET_EffectiveNP_Detector1                   = 0.9999 1.0000
MUON_EFF_RECO_STAT_LOWPT                    = 1.0001 0.9999
JET_EffectiveNP_Statistical5                = 1.0001 1.0000
JET_EffectiveNP_Mixed1                      = 0.9999 1.0000
JET_EffectiveNP_Mixed3                      = 0.9999 1.0000
EL_EFF_ID_CorrUncertaintyNP8                = 0.9999 1.0001
EL_EFF_ID_CorrUncertaintyNP6                = 0.9999 1.0001
EL_EFF_ID_CorrUncertaintyNP4                = 1.0001 0.9999
EL_EFF_ID_CorrUncertaintyNP5                = 0.9999 1.0001
EL_EFF_ID_CorrUncertaintyNP3                = 0.9999 1.0001
EL_EFF_ID_CorrUncertaintyNP0                = 1.0001 0.9999
EL_EFF_ID_CorrUncertaintyNP13               = 0.9999 1.0001
MUON_EFF_RECO_SYS_LOWPT                     = 0.9999 1.0001
JET_JER_EffectiveNP_10                      = 0.9999 1.0000
JET_EtaIntercalibration_NonClosure_negEta   = 1.0000 1.0001
EL_EFF_ID_CorrUncertaintyNP15               = 0.9999 1.0001
EL_EFF_ID_SIMPLIFIED_UncorrUncertaintyNP3   = 1.0001 0.9999
EL_EFF_ID_SIMPLIFIED_UncorrUncertaintyNP1   = 0.9999 1.0001
JET_SingleParticle_HighPt                   = 1.0000 1.0000
JET_PunchThrough_MC16                       = 1.0000 1.0000
JET_EffectiveNP_Modelling2                  = 1.0000 1.0000
JET_EffectiveNP_Modelling4                  = 1.0000 1.0000
JET_EffectiveNP_Statistical6                = 1.0000 1.0000
JET_EffectiveNP_Statistical4                = 1.0000 1.0000
JET_EffectiveNP_Statistical3                = 1.0000 1.0000
JET_EffectiveNP_Statistical1                = 1.0000 1.0000
JET_BJES_Response                           = 1.0000 1.0000
EG_SCALE_AF2                                = 1.0000 1.0000
EL_EFF_ID_CorrUncertaintyNP9                = 1.0000 1.0000
EL_EFF_ID_CorrUncertaintyNP2                = 1.0000 1.0000
EL_EFF_ID_CorrUncertaintyNP1                = 1.0000 1.0000
EL_EFF_ID_CorrUncertaintyNP14               = 1.0000 1.0000
EL_EFF_ID_SIMPLIFIED_UncorrUncertaintyNP9   = 1.0000 1.0000
EL_EFF_ID_SIMPLIFIED_UncorrUncertaintyNP0   = 1.0000 1.0000
JET_EtaIntercalibration_NonClosure_2018data = 1.0000 1.0000
[MCFM_MELA_ggZZ_SR_4l_Incl_bin_6_13TeV]
####bin_value/all_bins: 39.30%
EFToperator_PDF_MUF_MUR                     = 1.2745 0.7961
MUON_SCALE                                  = 0.9997 0.9555
JET_Pileup_OffsetNPV                        = 0.9714 1.0002
JET_EtaIntercalibration_NonClosure_highE    = 0.9718 1.0000
PRW_DATASF                                  = 1.0274 0.9786
OpgSM_PDF_replica                           = 0.9821 1.0179
EFToperator_PDF_var                         = 0.9933 0.9884
EFToperator_alphaS                          = 1.0048 0.9915
EL_EFF_Reco_TOTAL_1NPCOR_PLUS_UNCOR         = 1.0067 0.9933
EFToperator_isrPDF                          = 0.9946 1.0011
EFToperator_PS_muF_muR                      = 0.9998 0.9946
MUON_EFF_RECO_SYS                           = 1.0051 0.9950
MUON_SAGITTA_RHO                            = 0.9958 0.9959
EG_RESOLUTION_ALL                           = 1.0003 0.9965
MUON_EFF_ISO_SYS                            = 1.0029 0.9972
EL_EFF_ID_SIMPLIFIED_UncorrUncertaintyNP8   = 1.0024 0.9976
JET_JER_EffectiveNP_1                       = 0.9977 1.0001
JET_EffectiveNP_Modelling3                  = 1.0000 0.9981
JET_EffectiveNP_Detector2                   = 0.9981 0.9981
JET_EffectiveNP_Statistical2                = 0.9981 0.9981
MUON_EFF_RECO_STAT                          = 1.0017 0.9983
EL_EFF_ID_SIMPLIFIED_UncorrUncertaintyNP17  = 1.0012 0.9988
MUON_EFF_TTVA_SYS                           = 1.0012 0.9989
EG_SCALE_ALL                                = 0.9988 0.9994
EFToperator_Var3c                           = 0.9990 1.0011
MUON_MS                                     = 1.0004 0.9989
MUON_EFF_TTVA_STAT                          = 1.0010 0.9990
EL_EFF_Iso_TOTAL_1NPCOR_PLUS_UNCOR          = 1.0010 0.9990
EFToperator_hard                            = 0.9991 1.0010
JET_Pileup_OffsetMu                         = 0.9993 1.0007
MUON_EFF_ISO_STAT                           = 1.0006 0.9994
MUON_ID                                     = 0.9994 0.9997
JET_Flavor_Composition                      = 0.9994 0.9997
EL_EFF_ID_SIMPLIFIED_UncorrUncertaintyNP7   = 1.0006 0.9994
EL_EFF_ID_SIMPLIFIED_UncorrUncertaintyNP11  = 1.0005 0.9995
MUON_SAGITTA_RESBIAS                        = 0.9995 0.9997
EL_EFF_ID_SIMPLIFIED_UncorrUncertaintyNP2   = 1.0005 0.9995
EL_EFF_ID_SIMPLIFIED_UncorrUncertaintyNP6   = 1.0005 0.9995
EL_EFF_ID_CorrUncertaintyNP7                = 0.9996 1.0004
EL_EFF_ID_SIMPLIFIED_UncorrUncertaintyNP12  = 1.0004 0.9996
EL_EFF_ID_SIMPLIFIED_UncorrUncertaintyNP10  = 1.0004 0.9996
JET_JER_EffectiveNP_12restTerm              = 1.0004 0.9996
JET_EtaIntercalibration_Modelling           = 0.9999 1.0004
EL_EFF_ID_CorrUncertaintyNP11               = 1.0003 0.9997
EL_EFF_ID_CorrUncertaintyNP12               = 0.9997 1.0003
EL_EFF_ID_SIMPLIFIED_UncorrUncertaintyNP16  = 1.0003 0.9997
EL_EFF_ID_SIMPLIFIED_UncorrUncertaintyNP15  = 1.0003 0.9997
EL_EFF_ID_SIMPLIFIED_UncorrUncertaintyNP3   = 1.0003 0.9997
MUON_EFF_RECO_STAT_LOWPT                    = 1.0001 0.9998
JET_JER_EffectiveNP_2                       = 1.0001 0.9998
JET_JER_EffectiveNP_6                       = 0.9999 1.0002
EL_EFF_ID_CorrUncertaintyNP6                = 0.9998 1.0002
EL_EFF_ID_CorrUncertaintyNP4                = 1.0002 0.9998
EL_EFF_ID_CorrUncertaintyNP5                = 0.9998 1.0002
EL_EFF_ID_CorrUncertaintyNP0                = 1.0002 0.9998
EL_EFF_ID_CorrUncertaintyNP10               = 1.0002 0.9998
EL_EFF_ID_CorrUncertaintyNP13               = 0.9998 1.0002
MUON_EFF_RECO_SYS_LOWPT                     = 1.0002 0.9998
JET_fJvtEfficiency                          = 1.0002 0.9999
EL_EFF_ID_SIMPLIFIED_UncorrUncertaintyNP13  = 1.0002 0.9998
JET_JER_EffectiveNP_3                       = 0.9998 1.0000
JET_Flavor_Response                         = 0.9998 1.0000
EL_EFF_ID_SIMPLIFIED_UncorrUncertaintyNP1   = 1.0002 0.9998
EL_EFF_ID_SIMPLIFIED_UncorrUncertaintyNP5   = 1.0002 0.9998
EL_EFF_ID_SIMPLIFIED_UncorrUncertaintyNP4   = 1.0002 0.9998
JET_EffectiveNP_Modelling1                  = 1.0000 1.0001
JET_JER_DataVsMC_MC16                       = 1.0001 1.0000
JET_EtaIntercalibration_TotalStat           = 1.0000 1.0001
JET_JER_EffectiveNP_7                       = 1.0000 0.9999
JET_JER_EffectiveNP_9                       = 1.0000 0.9999
EL_EFF_ID_CorrUncertaintyNP8                = 0.9999 1.0001
EL_EFF_ID_CorrUncertaintyNP3                = 0.9999 1.0001
EL_EFF_ID_CorrUncertaintyNP14               = 0.9999 1.0001
JET_Pileup_RhoTopology                      = 1.0001 1.0001
EL_EFF_ID_SIMPLIFIED_UncorrUncertaintyNP14  = 1.0001 0.9999
JET_JER_EffectiveNP_11                      = 1.0001 0.9999
JET_JER_EffectiveNP_10                      = 1.0001 1.0000
JET_Pileup_PtTerm                           = 1.0001 1.0000
JET_EtaIntercalibration_NonClosure_negEta   = 1.0001 1.0000
EL_EFF_ID_CorrUncertaintyNP15               = 0.9999 1.0001
JET_SingleParticle_HighPt                   = 1.0000 1.0000
JET_PunchThrough_MC16                       = 1.0000 1.0000
JET_EffectiveNP_Modelling2                  = 1.0000 1.0000
JET_EffectiveNP_Modelling4                  = 1.0000 1.0000
JET_EffectiveNP_Detector1                   = 1.0000 1.0000
JET_EffectiveNP_Statistical6                = 1.0000 1.0000
JET_EffectiveNP_Statistical5                = 1.0000 1.0000
JET_EffectiveNP_Statistical4                = 1.0000 1.0000
JET_EffectiveNP_Statistical3                = 1.0000 1.0000
JET_EffectiveNP_Statistical1                = 1.0000 1.0000
JET_BJES_Response                           = 1.0000 1.0000
JET_EffectiveNP_Mixed1                      = 1.0000 1.0000
JET_EffectiveNP_Mixed3                      = 1.0000 1.0000
JET_EffectiveNP_Mixed2                      = 1.0000 1.0000
JET_JER_EffectiveNP_5                       = 1.0000 1.0000
JET_JER_EffectiveNP_4                       = 1.0000 1.0000
EG_SCALE_AF2                                = 1.0000 1.0000
EL_EFF_ID_CorrUncertaintyNP9                = 1.0000 1.0000
EL_EFF_ID_CorrUncertaintyNP2                = 1.0000 1.0000
EL_EFF_ID_CorrUncertaintyNP1                = 1.0000 1.0000
JET_EtaIntercalibration_NonClosure_posEta   = 1.0000 1.0000
EL_EFF_ID_SIMPLIFIED_UncorrUncertaintyNP9   = 1.0000 1.0000
JET_JER_EffectiveNP_8                       = 1.0000 1.0000
EL_EFF_ID_SIMPLIFIED_UncorrUncertaintyNP0   = 1.0000 1.0000
JET_EtaIntercalibration_NonClosure_2018data = 1.0000 1.0000
[MCFM_MELA_ggZZ_SR_4l_Incl_bin_7_13TeV]
####bin_value/all_bins: 61.59%
EFToperator_PDF_MUF_MUR                     = 1.2921 0.7868
MUON_SCALE                                  = 0.9989 0.9521
PRW_DATASF                                  = 1.0280 0.9793
OpgSM_PDF_replica                           = 0.9821 1.0179
JET_EtaIntercalibration_NonClosure_highE    = 1.0170 1.0000
JET_Pileup_OffsetNPV                        = 1.0166 1.0001
EFToperator_PDF_var                         = 0.9974 0.9900
EFToperator_alphaS                          = 1.0055 0.9919
EFToperator_isrPDF                          = 0.9931 1.0013
MUON_EFF_RECO_SYS                           = 1.0060 0.9940
EL_EFF_Reco_TOTAL_1NPCOR_PLUS_UNCOR         = 1.0054 0.9946
EG_SCALE_ALL                                = 1.0043 0.9982
JET_EffectiveNP_Detector2                   = 1.0038 1.0038
JET_EffectiveNP_Modelling3                  = 1.0000 1.0037
JET_EffectiveNP_Statistical2                = 1.0037 1.0037
JET_JER_EffectiveNP_1                       = 1.0037 1.0005
EL_EFF_ID_SIMPLIFIED_UncorrUncertaintyNP8   = 1.0035 0.9965
MUON_EFF_ISO_SYS                            = 1.0032 0.9968
EFToperator_Var3c                           = 0.9982 1.0017
EG_RESOLUTION_ALL                           = 1.0008 1.0018
EL_EFF_ID_SIMPLIFIED_UncorrUncertaintyNP17  = 1.0018 0.9982
MUON_EFF_RECO_STAT                          = 1.0017 0.9983
MUON_SAGITTA_RHO                            = 1.0017 1.0016
MUON_EFF_TTVA_SYS                           = 1.0015 0.9986
EFToperator_PS_muF_muR                      = 0.9986 1.0004
MUON_EFF_ISO_STAT                           = 1.0013 0.9987
EFToperator_hard                            = 0.9990 1.0011
MUON_ID                                     = 1.0011 1.0006
JET_Flavor_Composition                      = 1.0011 1.0006
MUON_EFF_TTVA_STAT                          = 1.0011 0.9989
EL_EFF_Iso_TOTAL_1NPCOR_PLUS_UNCOR          = 1.0008 0.9992
JET_Pileup_OffsetMu                         = 0.9994 1.0007
EL_EFF_ID_CorrUncertaintyNP7                = 0.9995 1.0005
JET_EtaIntercalibration_Modelling           = 0.9995 1.0004
EL_EFF_ID_SIMPLIFIED_UncorrUncertaintyNP7   = 1.0005 0.9995
MUON_SAGITTA_RESBIAS                        = 1.0004 1.0002
JET_JER_EffectiveNP_2                       = 1.0003 0.9999
EL_EFF_ID_CorrUncertaintyNP6                = 0.9997 1.0003
EL_EFF_ID_CorrUncertaintyNP11               = 1.0003 0.9997
EL_EFF_ID_CorrUncertaintyNP12               = 0.9997 1.0003
EL_EFF_ID_CorrUncertaintyNP13               = 0.9997 1.0003
JET_Pileup_RhoTopology                      = 0.9997 1.0001
JET_fJvtEfficiency                          = 0.9998 1.0003
EL_EFF_ID_SIMPLIFIED_UncorrUncertaintyNP16  = 1.0003 0.9997
EL_EFF_ID_SIMPLIFIED_UncorrUncertaintyNP6   = 1.0003 0.9997
JET_JER_EffectiveNP_9                       = 1.0000 0.9998
EL_EFF_ID_CorrUncertaintyNP4                = 1.0002 0.9998
EL_EFF_ID_CorrUncertaintyNP5                = 0.9998 1.0002
EL_EFF_ID_CorrUncertaintyNP3                = 0.9998 1.0002
EL_EFF_ID_CorrUncertaintyNP0                = 1.0002 0.9998
EL_EFF_ID_CorrUncertaintyNP10               = 1.0002 0.9998
EL_EFF_ID_CorrUncertaintyNP14               = 0.9998 1.0002
EL_EFF_ID_SIMPLIFIED_UncorrUncertaintyNP15  = 1.0002 0.9998
EL_EFF_ID_SIMPLIFIED_UncorrUncertaintyNP12  = 1.0002 0.9998
EL_EFF_ID_SIMPLIFIED_UncorrUncertaintyNP11  = 1.0002 0.9998
JET_JER_EffectiveNP_8                       = 1.0000 0.9998
JET_EffectiveNP_Modelling1                  = 0.9999 1.0001
MUON_EFF_RECO_STAT_LOWPT                    = 1.0000 0.9999
JET_JER_DataVsMC_MC16                       = 0.9999 1.0000
JET_JER_EffectiveNP_7                       = 0.9999 1.0001
JET_JER_EffectiveNP_6                       = 1.0001 1.0000
JET_JER_EffectiveNP_4                       = 1.0001 0.9999
EL_EFF_ID_CorrUncertaintyNP8                = 0.9999 1.0001
EL_EFF_ID_CorrUncertaintyNP2                = 0.9999 1.0001
MUON_EFF_RECO_SYS_LOWPT                     = 1.0001 0.9999
EL_EFF_ID_SIMPLIFIED_UncorrUncertaintyNP14  = 1.0001 0.9999
EL_EFF_ID_SIMPLIFIED_UncorrUncertaintyNP13  = 1.0001 0.9999
EL_EFF_ID_SIMPLIFIED_UncorrUncertaintyNP10  = 1.0001 0.9999
JET_JER_EffectiveNP_12restTerm              = 1.0001 0.9999
JET_JER_EffectiveNP_3                       = 0.9999 1.0001
JET_Flavor_Response                         = 0.9999 1.0001
JET_JER_EffectiveNP_11                      = 1.0001 1.0000
JET_JER_EffectiveNP_10                      = 1.0000 1.0001
JET_Pileup_PtTerm                           = 1.0001 0.9999
MUON_MS                                     = 1.0001 0.9999
EL_EFF_ID_CorrUncertaintyNP15               = 0.9999 1.0001
EL_EFF_ID_SIMPLIFIED_UncorrUncertaintyNP3   = 1.0001 0.9999
EL_EFF_ID_SIMPLIFIED_UncorrUncertaintyNP1   = 1.0001 0.9999
EL_EFF_ID_SIMPLIFIED_UncorrUncertaintyNP5   = 1.0001 0.9999
EL_EFF_ID_SIMPLIFIED_UncorrUncertaintyNP4   = 1.0001 0.9999
JET_SingleParticle_HighPt                   = 1.0000 1.0000
JET_PunchThrough_MC16                       = 1.0000 1.0000
JET_EffectiveNP_Modelling2                  = 1.0000 1.0000
JET_EffectiveNP_Modelling4                  = 1.0000 1.0000
JET_EffectiveNP_Detector1                   = 1.0000 1.0000
JET_EffectiveNP_Statistical6                = 1.0000 1.0000
JET_EffectiveNP_Statistical5                = 1.0000 1.0000
JET_EffectiveNP_Statistical4                = 1.0000 1.0000
JET_EffectiveNP_Statistical3                = 1.0000 1.0000
JET_EffectiveNP_Statistical1                = 1.0000 1.0000
JET_BJES_Response                           = 1.0000 1.0000
JET_EffectiveNP_Mixed1                      = 1.0000 1.0000
JET_EffectiveNP_Mixed3                      = 1.0000 1.0000
JET_EffectiveNP_Mixed2                      = 1.0000 1.0000
JET_EtaIntercalibration_TotalStat           = 1.0000 1.0000
JET_JER_EffectiveNP_5                       = 1.0000 1.0000
EG_SCALE_AF2                                = 1.0000 1.0000
EL_EFF_ID_CorrUncertaintyNP9                = 1.0000 1.0000
EL_EFF_ID_CorrUncertaintyNP1                = 1.0000 1.0000
JET_EtaIntercalibration_NonClosure_posEta   = 1.0000 1.0000
JET_EtaIntercalibration_NonClosure_negEta   = 1.0000 1.0000
EL_EFF_ID_SIMPLIFIED_UncorrUncertaintyNP9   = 1.0000 1.0000
EL_EFF_ID_SIMPLIFIED_UncorrUncertaintyNP2   = 1.0000 1.0000
EL_EFF_ID_SIMPLIFIED_UncorrUncertaintyNP0   = 1.0000 1.0000
JET_EtaIntercalibration_NonClosure_2018data = 1.0000 1.0000
[MCFM_MELA_ggZZ_SR_4l_Incl_bin_8_13TeV]
####bin_value/all_bins: 44.86%
EFToperator_PDF_MUF_MUR                     = 1.3132 0.7760
MUON_SCALE                                  = 1.0010 0.9583
PRW_DATASF                                  = 1.0318 0.9768
JET_Pileup_OffsetNPV                        = 0.9794 1.0003
JET_EtaIntercalibration_NonClosure_highE    = 0.9798 1.0000
OpgSM_PDF_replica                           = 0.9824 1.0176
EFToperator_isrPDF                          = 0.9910 1.0015
MUON_EFF_RECO_SYS                           = 1.0075 0.9926
EFToperator_alphaS                          = 1.0065 0.9925
EFToperator_PDF_var                         = 1.0042 0.9937
JET_EffectiveNP_Statistical2                = 1.0054 1.0055
JET_EffectiveNP_Modelling3                  = 1.0000 1.0054
JET_EffectiveNP_Detector2                   = 1.0054 1.0054
JET_JER_EffectiveNP_1                       = 1.0052 0.9996
EL_EFF_ID_SIMPLIFIED_UncorrUncertaintyNP8   = 1.0052 0.9949
MUON_EFF_ISO_SYS                            = 1.0050 0.9951
EL_EFF_Reco_TOTAL_1NPCOR_PLUS_UNCOR         = 1.0042 0.9958
MUON_SAGITTA_RESBIAS                        = 0.9968 0.9971
EG_SCALE_ALL                                = 0.9970 1.0008
EFToperator_PS_muF_muR                      = 0.9983 1.0030
MUON_EFF_ISO_STAT                           = 1.0025 0.9975
EL_EFF_ID_SIMPLIFIED_UncorrUncertaintyNP17  = 1.0022 0.9978
EFToperator_Var3c                           = 0.9980 1.0017
MUON_EFF_RECO_STAT                          = 1.0018 0.9982
MUON_EFF_TTVA_SYS                           = 1.0018 0.9983
MUON_ID                                     = 0.9983 0.9989
JET_Flavor_Composition                      = 0.9983 0.9989
JET_fJvtEfficiency                          = 0.9984 1.0016
EG_RESOLUTION_ALL                           = 0.9986 0.9995
MUON_EFF_TTVA_STAT                          = 1.0012 0.9987
MUON_MS                                     = 0.9991 1.0012
MUON_SAGITTA_RHO                            = 0.9990 0.9990
EL_EFF_Iso_TOTAL_1NPCOR_PLUS_UNCOR          = 1.0009 0.9991
JET_Pileup_OffsetMu                         = 0.9996 1.0009
EFToperator_hard                            = 0.9992 1.0008
EL_EFF_ID_CorrUncertaintyNP13               = 0.9992 1.0008
EL_EFF_ID_CorrUncertaintyNP14               = 0.9994 1.0006
EL_EFF_ID_CorrUncertaintyNP7                = 0.9995 1.0005
JET_JER_DataVsMC_MC16                       = 0.9996 1.0002
EL_EFF_ID_CorrUncertaintyNP6                = 0.9996 1.0004
JET_JER_EffectiveNP_6                       = 0.9997 1.0002
EL_EFF_ID_CorrUncertaintyNP12               = 0.9997 1.0003
JET_EtaIntercalibration_Modelling           = 0.9999 1.0003
EL_EFF_ID_SIMPLIFIED_UncorrUncertaintyNP7   = 1.0003 0.9997
JET_JER_EffectiveNP_2                       = 1.0002 1.0000
JET_JER_EffectiveNP_5                       = 1.0001 0.9998
JET_JER_EffectiveNP_4                       = 0.9998 1.0002
EL_EFF_ID_CorrUncertaintyNP4                = 1.0002 0.9998
EL_EFF_ID_CorrUncertaintyNP5                = 0.9998 1.0002
EL_EFF_ID_CorrUncertaintyNP3                = 0.9998 1.0002
EL_EFF_ID_CorrUncertaintyNP0                = 1.0002 0.9998
EL_EFF_ID_CorrUncertaintyNP10               = 1.0002 0.9998
EL_EFF_ID_SIMPLIFIED_UncorrUncertaintyNP16  = 1.0002 0.9998
JET_JER_EffectiveNP_3                       = 0.9998 1.0002
JET_Flavor_Response                         = 0.9998 1.0002
JET_EtaIntercalibration_TotalStat           = 1.0001 1.0000
JET_JER_EffectiveNP_9                       = 1.0000 0.9999
EL_EFF_ID_CorrUncertaintyNP8                = 0.9999 1.0001
EL_EFF_ID_CorrUncertaintyNP9                = 0.9999 1.0001
EL_EFF_ID_CorrUncertaintyNP2                = 0.9999 1.0001
EL_EFF_ID_CorrUncertaintyNP1                = 1.0001 0.9999
EL_EFF_ID_CorrUncertaintyNP11               = 1.0001 0.9999
JET_Pileup_RhoTopology                      = 0.9999 1.0001
EL_EFF_ID_SIMPLIFIED_UncorrUncertaintyNP15  = 1.0001 0.9999
JET_JER_EffectiveNP_11                      = 0.9999 1.0000
JET_Pileup_PtTerm                           = 1.0001 1.0000
EL_EFF_ID_CorrUncertaintyNP15               = 0.9999 1.0001
JET_JER_EffectiveNP_8                       = 0.9999 1.0001
EL_EFF_ID_SIMPLIFIED_UncorrUncertaintyNP6   = 1.0001 0.9999
JET_EtaIntercalibration_NonClosure_2018data = 1.0000 0.9999
JET_SingleParticle_HighPt                   = 1.0000 1.0000
JET_PunchThrough_MC16                       = 1.0000 1.0000
JET_EffectiveNP_Modelling2                  = 1.0000 1.0000
JET_EffectiveNP_Modelling1                  = 1.0000 1.0000
JET_EffectiveNP_Modelling4                  = 1.0000 1.0000
JET_EffectiveNP_Detector1                   = 1.0000 1.0000
MUON_EFF_RECO_STAT_LOWPT                    = 1.0000 1.0000
JET_EffectiveNP_Statistical6                = 1.0000 1.0000
JET_EffectiveNP_Statistical5                = 1.0000 1.0000
JET_EffectiveNP_Statistical4                = 1.0000 1.0000
JET_EffectiveNP_Statistical3                = 1.0000 1.0000
JET_EffectiveNP_Statistical1                = 1.0000 1.0000
JET_BJES_Response                           = 1.0000 1.0000
JET_EffectiveNP_Mixed1                      = 1.0000 1.0000
JET_EffectiveNP_Mixed3                      = 1.0000 1.0000
JET_EffectiveNP_Mixed2                      = 1.0000 1.0000
JET_JER_EffectiveNP_7                       = 1.0000 1.0000
EG_SCALE_AF2                                = 1.0000 1.0000
MUON_EFF_RECO_SYS_LOWPT                     = 1.0000 1.0000
JET_EtaIntercalibration_NonClosure_posEta   = 1.0000 1.0000
EL_EFF_ID_SIMPLIFIED_UncorrUncertaintyNP14  = 1.0000 1.0000
EL_EFF_ID_SIMPLIFIED_UncorrUncertaintyNP13  = 1.0000 1.0000
EL_EFF_ID_SIMPLIFIED_UncorrUncertaintyNP12  = 1.0000 1.0000
EL_EFF_ID_SIMPLIFIED_UncorrUncertaintyNP11  = 1.0000 1.0000
EL_EFF_ID_SIMPLIFIED_UncorrUncertaintyNP10  = 1.0000 1.0000
JET_JER_EffectiveNP_12restTerm              = 1.0000 1.0000
JET_JER_EffectiveNP_10                      = 1.0000 1.0000
JET_EtaIntercalibration_NonClosure_negEta   = 1.0000 1.0000
EL_EFF_ID_SIMPLIFIED_UncorrUncertaintyNP9   = 1.0000 1.0000
EL_EFF_ID_SIMPLIFIED_UncorrUncertaintyNP3   = 1.0000 1.0000
EL_EFF_ID_SIMPLIFIED_UncorrUncertaintyNP2   = 1.0000 1.0000
EL_EFF_ID_SIMPLIFIED_UncorrUncertaintyNP1   = 1.0000 1.0000
EL_EFF_ID_SIMPLIFIED_UncorrUncertaintyNP0   = 1.0000 1.0000
EL_EFF_ID_SIMPLIFIED_UncorrUncertaintyNP5   = 1.0000 1.0000
EL_EFF_ID_SIMPLIFIED_UncorrUncertaintyNP4   = 1.0000 1.0000
[MCFM_MELA_ggZZ_SR_4l_Incl_bin_9_13TeV]
####bin_value/all_bins: 9.67%
EFToperator_PDF_MUF_MUR                     = 1.3348 0.7650
MUON_SCALE                                  = 1.0006 0.9353
JET_EtaIntercalibration_NonClosure_highE    = 1.0395 1.0000
JET_Pileup_OffsetNPV                        = 1.0392 1.0014
PRW_DATASF                                  = 1.0274 0.9799
JET_EffectiveNP_Statistical2                = 1.0174 1.0171
OpgSM_PDF_replica                           = 0.9829 1.0171
JET_EffectiveNP_Modelling3                  = 1.0001 1.0171
JET_EffectiveNP_Detector2                   = 1.0171 1.0171
JET_JER_EffectiveNP_1                       = 1.0165 0.9994
EFToperator_PDF_var                         = 1.0132 1.0000
EFToperator_isrPDF                          = 0.9881 1.0018
EG_SCALE_ALL                                = 0.9888 1.0082
MUON_EFF_RECO_SYS                           = 1.0106 0.9896
MUON_EFF_ISO_SYS                            = 1.0085 0.9916
MUON_SAGITTA_RHO                            = 1.0085 1.0085
MUON_ID                                     = 0.9920 1.0029
JET_Flavor_Composition                      = 0.9920 1.0029
EFToperator_alphaS                          = 1.0078 0.9935
EFToperator_PS_muF_muR                      = 0.9985 1.0070
EL_EFF_ID_SIMPLIFIED_UncorrUncertaintyNP8   = 1.0064 0.9936
MUON_EFF_ISO_STAT                           = 1.0045 0.9955
EG_RESOLUTION_ALL                           = 0.9960 0.9992
EL_EFF_Reco_TOTAL_1NPCOR_PLUS_UNCOR         = 1.0034 0.9966
EFToperator_Var3c                           = 0.9973 1.0022
MUON_EFF_RECO_STAT                          = 1.0025 0.9976
EL_EFF_ID_CorrUncertaintyNP13               = 0.9975 1.0025
EL_EFF_ID_CorrUncertaintyNP14               = 0.9976 1.0024
JET_Pileup_OffsetMu                         = 0.9991 1.0022
JET_fJvtEfficiency                          = 0.9979 1.0022
MUON_EFF_TTVA_SYS                           = 1.0021 0.9981
JET_EtaIntercalibration_Modelling           = 0.9992 1.0019
EL_EFF_ID_SIMPLIFIED_UncorrUncertaintyNP17  = 1.0018 0.9982
MUON_SAGITTA_RESBIAS                        = 0.9986 0.9983
JET_Pileup_RhoTopology                      = 0.9997 1.0016
JET_EffectiveNP_Modelling1                  = 1.0000 1.0015
MUON_EFF_TTVA_STAT                          = 1.0014 0.9986
JET_EtaIntercalibration_TotalStat           = 1.0000 1.0013
EL_EFF_Iso_TOTAL_1NPCOR_PLUS_UNCOR          = 1.0012 0.9988
JET_Pileup_PtTerm                           = 1.0012 1.0000
JET_JER_EffectiveNP_2                       = 0.9991 0.9990
JET_JER_EffectiveNP_3                       = 0.9990 0.9996
JET_Flavor_Response                         = 0.9990 0.9996
JET_JER_DataVsMC_MC16                       = 0.9991 0.9998
JET_JER_EffectiveNP_4                       = 0.9994 0.9992
MUON_MS                                     = 0.9992 0.9992
JET_JER_EffectiveNP_6                       = 0.9994 0.9996
JET_JER_EffectiveNP_8                       = 0.9994 0.9998
JET_JER_EffectiveNP_7                       = 0.9995 0.9996
JET_JER_EffectiveNP_5                       = 0.9998 0.9995
JET_JER_EffectiveNP_11                      = 0.9999 0.9995
JET_JER_EffectiveNP_10                      = 0.9998 0.9995
EFToperator_hard                            = 0.9996 1.0003
JET_JER_EffectiveNP_9                       = 0.9997 0.9996
EL_EFF_ID_CorrUncertaintyNP6                = 0.9997 1.0003
EL_EFF_ID_CorrUncertaintyNP7                = 0.9997 1.0003
EL_EFF_ID_CorrUncertaintyNP11               = 0.9997 1.0003
EL_EFF_ID_CorrUncertaintyNP12               = 0.9997 1.0003
EL_EFF_ID_CorrUncertaintyNP15               = 0.9997 1.0003
EL_EFF_ID_CorrUncertaintyNP8                = 0.9998 1.0002
EL_EFF_ID_CorrUncertaintyNP4                = 1.0002 0.9998
EL_EFF_ID_CorrUncertaintyNP5                = 0.9998 1.0002
EL_EFF_ID_CorrUncertaintyNP3                = 0.9998 1.0002
EL_EFF_ID_CorrUncertaintyNP10               = 1.0002 0.9998
JET_EffectiveNP_Detector1                   = 1.0000 1.0001
JET_EffectiveNP_Statistical6                = 1.0000 1.0001
JET_EffectiveNP_Statistical5                = 1.0001 1.0000
JET_EffectiveNP_Mixed1                      = 1.0000 1.0001
JET_EffectiveNP_Mixed3                      = 1.0000 1.0001
JET_EffectiveNP_Mixed2                      = 1.0001 1.0000
EL_EFF_ID_CorrUncertaintyNP9                = 0.9999 1.0001
EL_EFF_ID_CorrUncertaintyNP2                = 0.9999 1.0001
EL_EFF_ID_CorrUncertaintyNP1                = 1.0001 0.9999
JET_EtaIntercalibration_NonClosure_negEta   = 1.0000 1.0001
JET_SingleParticle_HighPt                   = 1.0000 1.0000
JET_PunchThrough_MC16                       = 1.0000 1.0000
JET_EffectiveNP_Modelling2                  = 1.0000 1.0000
JET_EffectiveNP_Modelling4                  = 1.0000 1.0000
MUON_EFF_RECO_STAT_LOWPT                    = 1.0000 1.0000
JET_EffectiveNP_Statistical4                = 1.0000 1.0000
JET_EffectiveNP_Statistical3                = 1.0000 1.0000
JET_EffectiveNP_Statistical1                = 1.0000 1.0000
JET_BJES_Response                           = 1.0000 1.0000
EG_SCALE_AF2                                = 1.0000 1.0000
EL_EFF_ID_CorrUncertaintyNP0                = 1.0000 1.0000
MUON_EFF_RECO_SYS_LOWPT                     = 1.0000 1.0000
JET_EtaIntercalibration_NonClosure_posEta   = 1.0000 1.0000
EL_EFF_ID_SIMPLIFIED_UncorrUncertaintyNP16  = 1.0000 1.0000
EL_EFF_ID_SIMPLIFIED_UncorrUncertaintyNP15  = 1.0000 1.0000
EL_EFF_ID_SIMPLIFIED_UncorrUncertaintyNP14  = 1.0000 1.0000
EL_EFF_ID_SIMPLIFIED_UncorrUncertaintyNP13  = 1.0000 1.0000
EL_EFF_ID_SIMPLIFIED_UncorrUncertaintyNP12  = 1.0000 1.0000
EL_EFF_ID_SIMPLIFIED_UncorrUncertaintyNP11  = 1.0000 1.0000
EL_EFF_ID_SIMPLIFIED_UncorrUncertaintyNP10  = 1.0000 1.0000
JET_JER_EffectiveNP_12restTerm              = 1.0000 1.0000
EL_EFF_ID_SIMPLIFIED_UncorrUncertaintyNP9   = 1.0000 1.0000
EL_EFF_ID_SIMPLIFIED_UncorrUncertaintyNP3   = 1.0000 1.0000
EL_EFF_ID_SIMPLIFIED_UncorrUncertaintyNP2   = 1.0000 1.0000
EL_EFF_ID_SIMPLIFIED_UncorrUncertaintyNP1   = 1.0000 1.0000
EL_EFF_ID_SIMPLIFIED_UncorrUncertaintyNP0   = 1.0000 1.0000
EL_EFF_ID_SIMPLIFIED_UncorrUncertaintyNP7   = 1.0000 1.0000
EL_EFF_ID_SIMPLIFIED_UncorrUncertaintyNP6   = 1.0000 1.0000
EL_EFF_ID_SIMPLIFIED_UncorrUncertaintyNP5   = 1.0000 1.0000
EL_EFF_ID_SIMPLIFIED_UncorrUncertaintyNP4   = 1.0000 1.0000
JET_EtaIntercalibration_NonClosure_2018data = 1.0000 1.0000
