[m4l_fsr_CR_4l_Incl_bin_1_13TeV]
####bin_value/all_bins: 19.47%
H4l_Shower_UEPS_Sherpa_qqHM_CSSKIN_norm     = 1.0548 0.9452
HOQCD_syst_qqZZ                             = 1.0470 0.9560
H4l_Shower_UEPS_Sherpa_qqHM_QSF_norm        = 1.0233 0.9767
qqZZ_PDF_replica                            = 1.0174 0.9826
H4l_Shower_UEPS_Sherpa_qqHM_CSSKIN_shape    = 1.0101 0.9899
MUON_SCALE                                  = 1.0100 0.9935
EG_SCALE_ALL                                = 0.9913 1.0099
JET_EffectiveNP_Modelling4                  = 0.9917 1.0000
EL_EFF_Reco_TOTAL_1NPCOR_PLUS_UNCOR         = 1.0071 0.9929
H4l_Shower_UEPS_Sherpa_qqHM_CKKW_norm       = 1.0053 0.9947
MUON_SAGITTA_RHO                            = 0.9949 0.9949
MUON_SAGITTA_RESBIAS                        = 0.9959 0.9958
PRW_DATASF                                  = 0.9961 1.0023
MUON_EFF_ISO_SYS                            = 1.0037 0.9963
H4l_Shower_UEPS_Sherpa_qqHM_QSF_shape       = 1.0035 0.9965
MUON_EFF_RECO_SYS                           = 1.0034 0.9966
HOEW_QCD_syst_qqZZ                          = 1.0023 0.9977
MUON_ID                                     = 0.9980 1.0004
JET_Flavor_Composition_qq                   = 0.9980 1.0004
H4l_Shower_UEPS_Sherpa_qqHM_CKKW_shape      = 1.0017 0.9983
MUON_EFF_RECO_STAT                          = 1.0016 0.9984
EL_EFF_ID_SIMPLIFIED_UncorrUncertaintyNP6   = 1.0012 0.9988
HOEW_syst_qqZZ                              = 0.9990 1.0010
EL_EFF_Iso_TOTAL_1NPCOR_PLUS_UNCOR          = 1.0010 0.9990
EL_EFF_ID_SIMPLIFIED_UncorrUncertaintyNP11  = 1.0010 0.9990
MUON_MS                                     = 0.9994 1.0010
EL_EFF_ID_SIMPLIFIED_UncorrUncertaintyNP15  = 1.0007 0.9993
MUON_EFF_TTVA_STAT                          = 1.0006 0.9994
EL_EFF_ID_SIMPLIFIED_UncorrUncertaintyNP12  = 1.0006 0.9994
MUON_EFF_RECO_SYS_LOWPT                     = 1.0005 0.9995
JET_fJvtEfficiency                          = 0.9995 1.0005
EL_EFF_ID_SIMPLIFIED_UncorrUncertaintyNP3   = 1.0005 0.9995
EL_EFF_ID_SIMPLIFIED_UncorrUncertaintyNP2   = 1.0005 0.9995
EL_EFF_ID_SIMPLIFIED_UncorrUncertaintyNP5   = 1.0005 0.9995
EL_EFF_ID_SIMPLIFIED_UncorrUncertaintyNP4   = 1.0005 0.9995
JET_JER_EffectiveNP_2                       = 1.0004 0.9998
EL_EFF_ID_CorrUncertaintyNP11               = 1.0004 0.9996
EL_EFF_ID_SIMPLIFIED_UncorrUncertaintyNP10  = 1.0004 0.9996
JET_JER_EffectiveNP_12restTerm              = 1.0004 0.9996
MUON_EFF_TTVA_SYS                           = 1.0004 0.9996
JET_Pileup_OffsetMu                         = 0.9997 1.0002
MUON_EFF_ISO_STAT                           = 1.0003 0.9997
MUON_EFF_RECO_STAT_LOWPT                    = 1.0002 0.9997
EL_EFF_ID_CorrUncertaintyNP12               = 0.9997 1.0003
EL_EFF_ID_SIMPLIFIED_UncorrUncertaintyNP14  = 1.0003 0.9997
EL_EFF_ID_SIMPLIFIED_UncorrUncertaintyNP13  = 1.0003 0.9997
EG_RESOLUTION_ALL                           = 0.9998 1.0000
EL_EFF_ID_CorrUncertaintyNP8                = 0.9998 1.0002
JET_JER_EffectiveNP_3                       = 0.9998 1.0002
JET_Flavor_Response_qq                      = 0.9998 1.0002
JET_Pileup_PtTerm                           = 1.0000 0.9998
EL_EFF_ID_CorrUncertaintyNP10               = 1.0002 0.9998
JET_EtaIntercalibration_Modelling           = 0.9998 1.0001
EL_EFF_ID_SIMPLIFIED_UncorrUncertaintyNP7   = 1.0002 0.9998
JET_EffectiveNP_Modelling1                  = 1.0000 1.0001
JET_EffectiveNP_Statistical3                = 0.9999 1.0000
JET_EffectiveNP_Mixed1                      = 1.0000 0.9999
JET_JER_DataVsMC_MC16                       = 1.0000 1.0001
JET_EtaIntercalibration_TotalStat           = 1.0001 1.0000
JET_JER_EffectiveNP_1                       = 1.0000 1.0001
JET_JER_EffectiveNP_6                       = 1.0000 1.0001
JET_JER_EffectiveNP_5                       = 1.0000 1.0001
JET_JER_EffectiveNP_4                       = 0.9999 1.0001
JET_JER_EffectiveNP_9                       = 1.0001 1.0000
EL_EFF_ID_CorrUncertaintyNP9                = 1.0001 0.9999
EL_EFF_ID_CorrUncertaintyNP6                = 1.0001 0.9999
EL_EFF_ID_CorrUncertaintyNP7                = 0.9999 1.0001
EL_EFF_ID_CorrUncertaintyNP5                = 0.9999 1.0001
EL_EFF_ID_CorrUncertaintyNP2                = 1.0001 0.9999
EL_EFF_ID_CorrUncertaintyNP14               = 0.9999 1.0001
EL_EFF_ID_SIMPLIFIED_UncorrUncertaintyNP16  = 1.0001 0.9999
EL_EFF_ID_CorrUncertaintyNP15               = 0.9999 1.0001
EL_EFF_ID_SIMPLIFIED_UncorrUncertaintyNP8   = 1.0001 0.9999
EL_EFF_ID_SIMPLIFIED_UncorrUncertaintyNP1   = 1.0001 0.9999
JET_SingleParticle_HighPt                   = 1.0000 1.0000
JET_PunchThrough_MC16                       = 1.0000 1.0000
JET_EffectiveNP_Modelling3                  = 1.0000 1.0000
JET_EffectiveNP_Modelling2                  = 1.0000 1.0000
JET_EffectiveNP_Detector2                   = 1.0000 1.0000
JET_EffectiveNP_Detector1                   = 1.0000 1.0000
JET_EffectiveNP_Statistical6                = 1.0000 1.0000
JET_EffectiveNP_Statistical5                = 1.0000 1.0000
JET_EffectiveNP_Statistical4                = 1.0000 1.0000
JET_EffectiveNP_Statistical2                = 1.0000 1.0000
JET_EffectiveNP_Statistical1                = 1.0000 1.0000
JET_BJES_Response                           = 1.0000 1.0000
JET_EffectiveNP_Mixed3                      = 1.0000 1.0000
JET_EffectiveNP_Mixed2                      = 1.0000 1.0000
JET_JER_EffectiveNP_7                       = 1.0000 1.0000
EG_SCALE_AF2                                = 1.0000 1.0000
EL_EFF_ID_CorrUncertaintyNP4                = 1.0000 1.0000
EL_EFF_ID_CorrUncertaintyNP3                = 1.0000 1.0000
EL_EFF_ID_CorrUncertaintyNP0                = 1.0000 1.0000
EL_EFF_ID_CorrUncertaintyNP1                = 1.0000 1.0000
EL_EFF_ID_CorrUncertaintyNP13               = 1.0000 1.0000
JET_Pileup_RhoTopology                      = 1.0000 1.0000
JET_EtaIntercalibration_NonClosure_posEta   = 1.0000 1.0000
EL_EFF_ID_SIMPLIFIED_UncorrUncertaintyNP17  = 1.0000 1.0000
JET_JER_EffectiveNP_11                      = 1.0000 1.0000
JET_JER_EffectiveNP_10                      = 1.0000 1.0000
JET_EtaIntercalibration_NonClosure_highE    = 1.0000 1.0000
JET_EtaIntercalibration_NonClosure_negEta   = 1.0000 1.0000
EL_EFF_ID_SIMPLIFIED_UncorrUncertaintyNP9   = 1.0000 1.0000
JET_JER_EffectiveNP_8                       = 1.0000 1.0000
EL_EFF_ID_SIMPLIFIED_UncorrUncertaintyNP0   = 1.0000 1.0000
JET_EtaIntercalibration_NonClosure_2018data = 1.0000 1.0000
JET_Pileup_OffsetNPV                        = 1.0000 1.0000
[m4l_fsr_CR_4l_Incl_bin_2_13TeV]
####bin_value/all_bins: 27.57%
H4l_Shower_UEPS_Sherpa_qqHM_CSSKIN_norm     = 1.0548 0.9452
HOQCD_syst_qqZZ                             = 1.0472 0.9566
H4l_Shower_UEPS_Sherpa_qqHM_QSF_norm        = 1.0233 0.9767
qqZZ_PDF_replica                            = 1.0174 0.9826
H4l_Shower_UEPS_Sherpa_qqHM_CSSKIN_shape    = 1.0104 0.9896
JET_EffectiveNP_Modelling4                  = 0.9919 1.0000
EL_EFF_Reco_TOTAL_1NPCOR_PLUS_UNCOR         = 1.0073 0.9928
H4l_Shower_UEPS_Sherpa_qqHM_CKKW_norm       = 1.0053 0.9947
HOEW_QCD_syst_qqZZ                          = 1.0039 0.9961
PRW_DATASF                                  = 0.9961 1.0036
MUON_EFF_RECO_SYS                           = 1.0037 0.9964
MUON_EFF_ISO_SYS                            = 1.0036 0.9965
EG_SCALE_ALL                                = 0.9974 1.0034
H4l_Shower_UEPS_Sherpa_qqHM_QSF_shape       = 1.0032 0.9968
MUON_SAGITTA_RESBIAS                        = 0.9972 0.9972
MUON_SCALE                                  = 1.0013 0.9982
MUON_EFF_RECO_STAT                          = 1.0017 0.9983
H4l_Shower_UEPS_Sherpa_qqHM_CKKW_shape      = 1.0015 0.9985
EL_EFF_ID_SIMPLIFIED_UncorrUncertaintyNP6   = 1.0011 0.9989
MUON_SAGITTA_RHO                            = 1.0010 1.0010
EL_EFF_Iso_TOTAL_1NPCOR_PLUS_UNCOR          = 1.0009 0.9991
EL_EFF_ID_SIMPLIFIED_UncorrUncertaintyNP11  = 1.0009 0.9991
EL_EFF_ID_SIMPLIFIED_UncorrUncertaintyNP15  = 1.0007 0.9993
MUON_ID                                     = 1.0007 0.9999
JET_Flavor_Composition_qq                   = 1.0007 0.9999
HOEW_syst_qqZZ                              = 0.9994 1.0006
MUON_EFF_TTVA_STAT                          = 1.0006 0.9994
EL_EFF_ID_SIMPLIFIED_UncorrUncertaintyNP12  = 1.0006 0.9994
MUON_MS                                     = 1.0006 1.0004
JET_JER_EffectiveNP_1                       = 0.9998 1.0005
JET_fJvtEfficiency                          = 0.9995 1.0005
EL_EFF_ID_SIMPLIFIED_UncorrUncertaintyNP3   = 1.0005 0.9995
EL_EFF_ID_SIMPLIFIED_UncorrUncertaintyNP5   = 1.0005 0.9995
EL_EFF_ID_SIMPLIFIED_UncorrUncertaintyNP4   = 1.0005 0.9995
EG_RESOLUTION_ALL                           = 0.9996 1.0000
EL_EFF_ID_CorrUncertaintyNP11               = 1.0004 0.9996
MUON_EFF_RECO_SYS_LOWPT                     = 1.0004 0.9996
MUON_EFF_TTVA_SYS                           = 1.0004 0.9996
EL_EFF_ID_SIMPLIFIED_UncorrUncertaintyNP2   = 1.0004 0.9996
MUON_EFF_ISO_STAT                           = 1.0003 0.9997
MUON_EFF_RECO_STAT_LOWPT                    = 1.0002 0.9997
JET_EffectiveNP_Statistical3                = 0.9997 1.0000
JET_EffectiveNP_Mixed1                      = 1.0000 0.9997
EL_EFF_ID_CorrUncertaintyNP12               = 0.9997 1.0003
EL_EFF_ID_SIMPLIFIED_UncorrUncertaintyNP14  = 1.0003 0.9997
EL_EFF_ID_SIMPLIFIED_UncorrUncertaintyNP13  = 1.0003 0.9997
EL_EFF_ID_SIMPLIFIED_UncorrUncertaintyNP10  = 1.0003 0.9997
JET_JER_EffectiveNP_12restTerm              = 1.0003 0.9997
EL_EFF_ID_SIMPLIFIED_UncorrUncertaintyNP7   = 1.0003 0.9997
JET_Pileup_OffsetMu                         = 0.9998 1.0002
JET_EtaIntercalibration_TotalStat           = 1.0002 1.0000
JET_JER_EffectiveNP_6                       = 1.0002 1.0000
JET_JER_EffectiveNP_5                       = 1.0002 1.0000
EL_EFF_ID_CorrUncertaintyNP7                = 0.9998 1.0002
EL_EFF_ID_SIMPLIFIED_UncorrUncertaintyNP16  = 1.0002 0.9998
JET_Pileup_PtTerm                           = 1.0000 1.0002
EL_EFF_ID_CorrUncertaintyNP10               = 1.0002 0.9998
JET_EtaIntercalibration_Modelling           = 0.9998 1.0001
JET_EffectiveNP_Modelling1                  = 0.9999 1.0000
JET_JER_DataVsMC_MC16                       = 1.0001 1.0000
JET_JER_EffectiveNP_2                       = 1.0001 1.0000
JET_JER_EffectiveNP_7                       = 1.0001 1.0000
JET_JER_EffectiveNP_9                       = 1.0001 1.0001
EL_EFF_ID_CorrUncertaintyNP8                = 0.9999 1.0001
EL_EFF_ID_CorrUncertaintyNP9                = 1.0001 0.9999
EL_EFF_ID_CorrUncertaintyNP6                = 1.0001 0.9999
EL_EFF_ID_CorrUncertaintyNP5                = 0.9999 1.0001
EL_EFF_ID_CorrUncertaintyNP13               = 0.9999 1.0001
EL_EFF_ID_CorrUncertaintyNP14               = 0.9999 1.0001
JET_Pileup_RhoTopology                      = 0.9999 1.0000
JET_JER_EffectiveNP_3                       = 1.0001 1.0001
JET_Flavor_Response_qq                      = 1.0001 1.0001
JET_JER_EffectiveNP_11                      = 1.0000 1.0001
JET_JER_EffectiveNP_10                      = 1.0001 1.0001
EL_EFF_ID_CorrUncertaintyNP15               = 0.9999 1.0001
EL_EFF_ID_SIMPLIFIED_UncorrUncertaintyNP8   = 1.0001 0.9999
JET_JER_EffectiveNP_8                       = 1.0001 1.0001
EL_EFF_ID_SIMPLIFIED_UncorrUncertaintyNP1   = 1.0001 0.9999
JET_Pileup_OffsetNPV                        = 0.9999 1.0000
JET_SingleParticle_HighPt                   = 1.0000 1.0000
JET_PunchThrough_MC16                       = 1.0000 1.0000
JET_EffectiveNP_Modelling3                  = 1.0000 1.0000
JET_EffectiveNP_Modelling2                  = 1.0000 1.0000
JET_EffectiveNP_Detector2                   = 1.0000 1.0000
JET_EffectiveNP_Detector1                   = 1.0000 1.0000
JET_EffectiveNP_Statistical6                = 1.0000 1.0000
JET_EffectiveNP_Statistical5                = 1.0000 1.0000
JET_EffectiveNP_Statistical4                = 1.0000 1.0000
JET_EffectiveNP_Statistical2                = 1.0000 1.0000
JET_EffectiveNP_Statistical1                = 1.0000 1.0000
JET_BJES_Response                           = 1.0000 1.0000
JET_EffectiveNP_Mixed3                      = 1.0000 1.0000
JET_EffectiveNP_Mixed2                      = 1.0000 1.0000
JET_JER_EffectiveNP_4                       = 1.0000 1.0000
EG_SCALE_AF2                                = 1.0000 1.0000
EL_EFF_ID_CorrUncertaintyNP4                = 1.0000 1.0000
EL_EFF_ID_CorrUncertaintyNP2                = 1.0000 1.0000
EL_EFF_ID_CorrUncertaintyNP3                = 1.0000 1.0000
EL_EFF_ID_CorrUncertaintyNP0                = 1.0000 1.0000
EL_EFF_ID_CorrUncertaintyNP1                = 1.0000 1.0000
JET_EtaIntercalibration_NonClosure_posEta   = 1.0000 1.0000
EL_EFF_ID_SIMPLIFIED_UncorrUncertaintyNP17  = 1.0000 1.0000
JET_EtaIntercalibration_NonClosure_highE    = 1.0000 1.0000
JET_EtaIntercalibration_NonClosure_negEta   = 1.0000 1.0000
EL_EFF_ID_SIMPLIFIED_UncorrUncertaintyNP9   = 1.0000 1.0000
EL_EFF_ID_SIMPLIFIED_UncorrUncertaintyNP0   = 1.0000 1.0000
JET_EtaIntercalibration_NonClosure_2018data = 1.0000 1.0000
[m4l_fsr_CR_4l_Incl_bin_3_13TeV]
####bin_value/all_bins: 27.73%
H4l_Shower_UEPS_Sherpa_qqHM_CSSKIN_norm     = 1.0548 0.9452
HOQCD_syst_qqZZ                             = 1.0527 0.9547
H4l_Shower_UEPS_Sherpa_qqHM_QSF_norm        = 1.0233 0.9767
qqZZ_PDF_replica                            = 1.0168 0.9832
H4l_Shower_UEPS_Sherpa_qqHM_CSSKIN_shape    = 1.0098 0.9902
JET_EffectiveNP_Modelling4                  = 0.9912 1.0000
EL_EFF_Reco_TOTAL_1NPCOR_PLUS_UNCOR         = 1.0074 0.9926
HOEW_QCD_syst_qqZZ                          = 1.0053 0.9947
H4l_Shower_UEPS_Sherpa_qqHM_CKKW_norm       = 1.0053 0.9947
PRW_DATASF                                  = 0.9955 1.0041
MUON_EFF_RECO_SYS                           = 1.0038 0.9963
MUON_EFF_ISO_SYS                            = 1.0036 0.9964
H4l_Shower_UEPS_Sherpa_qqHM_QSF_shape       = 1.0028 0.9972
MUON_SAGITTA_RESBIAS                        = 0.9974 0.9972
MUON_SAGITTA_RHO                            = 1.0027 1.0027
MUON_EFF_RECO_STAT                          = 1.0017 0.9983
H4l_Shower_UEPS_Sherpa_qqHM_CKKW_shape      = 1.0014 0.9986
EG_RESOLUTION_ALL                           = 1.0003 1.0012
JET_Pileup_PtTerm                           = 1.0000 0.9989
EG_SCALE_ALL                                = 0.9990 0.9999
EL_EFF_Iso_TOTAL_1NPCOR_PLUS_UNCOR          = 1.0010 0.9990
EL_EFF_ID_SIMPLIFIED_UncorrUncertaintyNP6   = 1.0010 0.9990
MUON_MS                                     = 0.9995 1.0010
EL_EFF_ID_SIMPLIFIED_UncorrUncertaintyNP11  = 1.0009 0.9991
MUON_ID                                     = 1.0009 1.0006
JET_Flavor_Composition_qq                   = 1.0009 1.0006
MUON_EFF_TTVA_STAT                          = 1.0007 0.9993
MUON_SCALE                                  = 0.9999 1.0007
HOEW_syst_qqZZ                              = 0.9994 1.0006
EL_EFF_ID_SIMPLIFIED_UncorrUncertaintyNP15  = 1.0006 0.9994
EL_EFF_ID_SIMPLIFIED_UncorrUncertaintyNP12  = 1.0006 0.9994
EL_EFF_ID_SIMPLIFIED_UncorrUncertaintyNP4   = 1.0006 0.9994
JET_JER_EffectiveNP_1                       = 0.9995 1.0001
MUON_EFF_RECO_SYS_LOWPT                     = 1.0005 0.9995
MUON_EFF_TTVA_SYS                           = 1.0005 0.9995
EL_EFF_ID_SIMPLIFIED_UncorrUncertaintyNP3   = 1.0005 0.9995
EL_EFF_ID_SIMPLIFIED_UncorrUncertaintyNP2   = 1.0005 0.9995
EL_EFF_ID_SIMPLIFIED_UncorrUncertaintyNP5   = 1.0005 0.9995
EL_EFF_ID_CorrUncertaintyNP11               = 1.0004 0.9996
EL_EFF_ID_CorrUncertaintyNP12               = 0.9996 1.0004
JET_fJvtEfficiency                          = 0.9997 1.0004
EL_EFF_ID_SIMPLIFIED_UncorrUncertaintyNP7   = 1.0004 0.9996
JET_Pileup_OffsetMu                         = 0.9997 1.0001
MUON_EFF_ISO_STAT                           = 1.0003 0.9997
MUON_EFF_RECO_STAT_LOWPT                    = 1.0002 0.9997
JET_JER_EffectiveNP_2                       = 1.0002 0.9997
EL_EFF_ID_SIMPLIFIED_UncorrUncertaintyNP14  = 1.0003 0.9997
EL_EFF_ID_SIMPLIFIED_UncorrUncertaintyNP13  = 1.0003 0.9997
EL_EFF_ID_SIMPLIFIED_UncorrUncertaintyNP10  = 1.0003 0.9997
JET_JER_EffectiveNP_12restTerm              = 1.0003 0.9997
JET_EffectiveNP_Statistical3                = 0.9998 1.0000
JET_EffectiveNP_Mixed1                      = 1.0000 0.9998
JET_JER_DataVsMC_MC16                       = 1.0000 0.9998
EL_EFF_ID_CorrUncertaintyNP8                = 0.9998 1.0002
EL_EFF_ID_CorrUncertaintyNP7                = 0.9998 1.0002
EL_EFF_ID_SIMPLIFIED_UncorrUncertaintyNP16  = 1.0002 0.9998
EL_EFF_ID_CorrUncertaintyNP10               = 1.0002 0.9998
JET_EtaIntercalibration_TotalStat           = 0.9999 1.0000
JET_JER_EffectiveNP_7                       = 1.0001 0.9999
JET_JER_EffectiveNP_5                       = 0.9999 1.0000
JET_JER_EffectiveNP_4                       = 0.9999 1.0000
EL_EFF_ID_CorrUncertaintyNP9                = 1.0001 0.9999
EL_EFF_ID_CorrUncertaintyNP6                = 1.0001 0.9999
EL_EFF_ID_CorrUncertaintyNP5                = 0.9999 1.0001
EL_EFF_ID_CorrUncertaintyNP0                = 1.0001 0.9999
EL_EFF_ID_CorrUncertaintyNP13               = 0.9999 1.0001
EL_EFF_ID_CorrUncertaintyNP14               = 0.9999 1.0001
EL_EFF_ID_SIMPLIFIED_UncorrUncertaintyNP17  = 1.0001 0.9999
JET_JER_EffectiveNP_3                       = 0.9999 0.9999
JET_Flavor_Response_qq                      = 0.9999 0.9999
JET_JER_EffectiveNP_10                      = 1.0000 1.0001
EL_EFF_ID_CorrUncertaintyNP15               = 0.9999 1.0001
JET_EtaIntercalibration_Modelling           = 0.9999 1.0001
EL_EFF_ID_SIMPLIFIED_UncorrUncertaintyNP8   = 1.0001 0.9999
EL_EFF_ID_SIMPLIFIED_UncorrUncertaintyNP1   = 1.0001 0.9999
JET_SingleParticle_HighPt                   = 1.0000 1.0000
JET_PunchThrough_MC16                       = 1.0000 1.0000
JET_EffectiveNP_Modelling3                  = 1.0000 1.0000
JET_EffectiveNP_Modelling2                  = 1.0000 1.0000
JET_EffectiveNP_Modelling1                  = 1.0000 1.0000
JET_EffectiveNP_Detector2                   = 1.0000 1.0000
JET_EffectiveNP_Detector1                   = 1.0000 1.0000
JET_EffectiveNP_Statistical6                = 1.0000 1.0000
JET_EffectiveNP_Statistical5                = 1.0000 1.0000
JET_EffectiveNP_Statistical4                = 1.0000 1.0000
JET_EffectiveNP_Statistical2                = 1.0000 1.0000
JET_EffectiveNP_Statistical1                = 1.0000 1.0000
JET_BJES_Response                           = 1.0000 1.0000
JET_EffectiveNP_Mixed3                      = 1.0000 1.0000
JET_EffectiveNP_Mixed2                      = 1.0000 1.0000
JET_JER_EffectiveNP_6                       = 1.0000 1.0000
JET_JER_EffectiveNP_9                       = 1.0000 1.0000
EG_SCALE_AF2                                = 1.0000 1.0000
EL_EFF_ID_CorrUncertaintyNP4                = 1.0000 1.0000
EL_EFF_ID_CorrUncertaintyNP2                = 1.0000 1.0000
EL_EFF_ID_CorrUncertaintyNP3                = 1.0000 1.0000
EL_EFF_ID_CorrUncertaintyNP1                = 1.0000 1.0000
JET_Pileup_RhoTopology                      = 1.0000 1.0000
JET_EtaIntercalibration_NonClosure_posEta   = 1.0000 1.0000
JET_JER_EffectiveNP_11                      = 1.0000 1.0000
JET_EtaIntercalibration_NonClosure_highE    = 1.0000 1.0000
JET_EtaIntercalibration_NonClosure_negEta   = 1.0000 1.0000
EL_EFF_ID_SIMPLIFIED_UncorrUncertaintyNP9   = 1.0000 1.0000
JET_JER_EffectiveNP_8                       = 1.0000 1.0000
EL_EFF_ID_SIMPLIFIED_UncorrUncertaintyNP0   = 1.0000 1.0000
JET_EtaIntercalibration_NonClosure_2018data = 1.0000 1.0000
JET_Pileup_OffsetNPV                        = 1.0000 1.0000
[m4l_fsr_CR_4l_Incl_bin_4_13TeV]
####bin_value/all_bins: 25.01%
HOQCD_syst_qqZZ                             = 1.0559 0.9472
H4l_Shower_UEPS_Sherpa_qqHM_CSSKIN_norm     = 1.0548 0.9452
H4l_Shower_UEPS_Sherpa_qqHM_QSF_norm        = 1.0233 0.9767
qqZZ_PDF_replica                            = 1.0166 0.9834
JET_EffectiveNP_Modelling4                  = 0.9914 1.0000
H4l_Shower_UEPS_Sherpa_qqHM_CSSKIN_shape    = 1.0080 0.9920
EL_EFF_Reco_TOTAL_1NPCOR_PLUS_UNCOR         = 1.0076 0.9924
HOEW_QCD_syst_qqZZ                          = 1.0065 0.9935
H4l_Shower_UEPS_Sherpa_qqHM_CKKW_norm       = 1.0053 0.9947
MUON_EFF_RECO_SYS                           = 1.0039 0.9962
MUON_EFF_ISO_SYS                            = 1.0037 0.9963
PRW_DATASF                                  = 0.9966 1.0030
H4l_Shower_UEPS_Sherpa_qqHM_QSF_shape       = 1.0025 0.9975
MUON_EFF_RECO_STAT                          = 1.0017 0.9983
EG_RESOLUTION_ALL                           = 1.0016 0.9999
MUON_SAGITTA_RESBIAS                        = 1.0012 1.0014
H4l_Shower_UEPS_Sherpa_qqHM_CKKW_shape      = 1.0013 0.9987
MUON_ID                                     = 0.9987 0.9998
JET_Flavor_Composition_qq                   = 0.9987 0.9998
MUON_SCALE                                  = 0.9988 1.0009
EG_SCALE_ALL                                = 1.0011 1.0004
EL_EFF_Iso_TOTAL_1NPCOR_PLUS_UNCOR          = 1.0010 0.9990
EL_EFF_ID_SIMPLIFIED_UncorrUncertaintyNP11  = 1.0009 0.9991
EL_EFF_ID_SIMPLIFIED_UncorrUncertaintyNP6   = 1.0009 0.9991
JET_EtaIntercalibration_TotalStat           = 0.9993 1.0000
MUON_EFF_TTVA_STAT                          = 1.0007 0.9993
HOEW_syst_qqZZ                              = 0.9994 1.0006
MUON_EFF_RECO_SYS_LOWPT                     = 1.0006 0.9994
EL_EFF_ID_SIMPLIFIED_UncorrUncertaintyNP15  = 1.0006 0.9994
EL_EFF_ID_SIMPLIFIED_UncorrUncertaintyNP12  = 1.0006 0.9994
EL_EFF_ID_SIMPLIFIED_UncorrUncertaintyNP3   = 1.0006 0.9994
EL_EFF_ID_SIMPLIFIED_UncorrUncertaintyNP4   = 1.0006 0.9994
MUON_EFF_TTVA_SYS                           = 1.0006 0.9995
EL_EFF_ID_CorrUncertaintyNP11               = 1.0005 0.9995
EL_EFF_ID_SIMPLIFIED_UncorrUncertaintyNP2   = 1.0005 0.9995
EL_EFF_ID_SIMPLIFIED_UncorrUncertaintyNP7   = 1.0005 0.9995
EL_EFF_ID_SIMPLIFIED_UncorrUncertaintyNP5   = 1.0005 0.9995
EL_EFF_ID_CorrUncertaintyNP12               = 0.9996 1.0004
MUON_MS                                     = 1.0002 0.9996
JET_fJvtEfficiency                          = 0.9997 1.0004
EL_EFF_ID_SIMPLIFIED_UncorrUncertaintyNP13  = 1.0004 0.9996
MUON_EFF_ISO_STAT                           = 1.0003 0.9997
MUON_EFF_RECO_STAT_LOWPT                    = 1.0003 0.9997
EL_EFF_ID_SIMPLIFIED_UncorrUncertaintyNP16  = 1.0003 0.9997
EL_EFF_ID_SIMPLIFIED_UncorrUncertaintyNP14  = 1.0003 0.9997
EL_EFF_ID_SIMPLIFIED_UncorrUncertaintyNP10  = 1.0003 0.9997
JET_JER_EffectiveNP_12restTerm              = 1.0003 0.9997
JET_Pileup_PtTerm                           = 1.0000 0.9997
EL_EFF_ID_CorrUncertaintyNP10               = 1.0003 0.9997
MUON_SAGITTA_RHO                            = 1.0003 1.0003
JET_Pileup_OffsetMu                         = 0.9998 1.0002
JET_JER_EffectiveNP_2                       = 1.0002 0.9998
JET_JER_EffectiveNP_1                       = 0.9998 1.0002
JET_JER_EffectiveNP_9                       = 1.0001 0.9998
EL_EFF_ID_CorrUncertaintyNP7                = 0.9998 1.0002
EL_EFF_ID_SIMPLIFIED_UncorrUncertaintyNP17  = 1.0002 0.9998
JET_EtaIntercalibration_Modelling           = 0.9998 1.0001
EL_EFF_ID_SIMPLIFIED_UncorrUncertaintyNP8   = 1.0002 0.9998
JET_EffectiveNP_Statistical3                = 0.9999 1.0000
JET_EffectiveNP_Mixed1                      = 1.0000 0.9999
JET_JER_EffectiveNP_7                       = 0.9999 1.0001
JET_JER_EffectiveNP_6                       = 0.9999 1.0001
JET_JER_EffectiveNP_4                       = 0.9999 1.0001
EL_EFF_ID_CorrUncertaintyNP8                = 0.9999 1.0001
EL_EFF_ID_CorrUncertaintyNP9                = 1.0001 0.9999
EL_EFF_ID_CorrUncertaintyNP6                = 1.0001 0.9999
EL_EFF_ID_CorrUncertaintyNP4                = 1.0001 1.0000
EL_EFF_ID_CorrUncertaintyNP5                = 0.9999 1.0001
EL_EFF_ID_CorrUncertaintyNP0                = 1.0001 0.9999
EL_EFF_ID_CorrUncertaintyNP13               = 0.9999 1.0001
EL_EFF_ID_CorrUncertaintyNP14               = 0.9999 1.0001
JET_JER_EffectiveNP_3                       = 0.9999 1.0001
JET_Flavor_Response_qq                      = 0.9999 1.0001
EL_EFF_ID_CorrUncertaintyNP15               = 0.9999 1.0001
EL_EFF_ID_SIMPLIFIED_UncorrUncertaintyNP1   = 1.0001 0.9999
JET_SingleParticle_HighPt                   = 1.0000 1.0000
JET_PunchThrough_MC16                       = 1.0000 1.0000
JET_EffectiveNP_Modelling3                  = 1.0000 1.0000
JET_EffectiveNP_Modelling2                  = 1.0000 1.0000
JET_EffectiveNP_Modelling1                  = 1.0000 1.0000
JET_EffectiveNP_Detector2                   = 1.0000 1.0000
JET_EffectiveNP_Detector1                   = 1.0000 1.0000
JET_EffectiveNP_Statistical6                = 1.0000 1.0000
JET_EffectiveNP_Statistical5                = 1.0000 1.0000
JET_EffectiveNP_Statistical4                = 1.0000 1.0000
JET_EffectiveNP_Statistical2                = 1.0000 1.0000
JET_EffectiveNP_Statistical1                = 1.0000 1.0000
JET_BJES_Response                           = 1.0000 1.0000
JET_EffectiveNP_Mixed3                      = 1.0000 1.0000
JET_EffectiveNP_Mixed2                      = 1.0000 1.0000
JET_JER_DataVsMC_MC16                       = 1.0000 1.0000
JET_JER_EffectiveNP_5                       = 1.0000 1.0000
EG_SCALE_AF2                                = 1.0000 1.0000
EL_EFF_ID_CorrUncertaintyNP2                = 1.0000 1.0000
EL_EFF_ID_CorrUncertaintyNP3                = 1.0000 1.0000
EL_EFF_ID_CorrUncertaintyNP1                = 1.0000 1.0000
JET_Pileup_RhoTopology                      = 1.0000 1.0000
JET_EtaIntercalibration_NonClosure_posEta   = 1.0000 1.0000
JET_JER_EffectiveNP_11                      = 1.0000 1.0000
JET_JER_EffectiveNP_10                      = 1.0000 1.0000
JET_EtaIntercalibration_NonClosure_highE    = 1.0000 1.0000
JET_EtaIntercalibration_NonClosure_negEta   = 1.0000 1.0000
EL_EFF_ID_SIMPLIFIED_UncorrUncertaintyNP9   = 1.0000 1.0000
JET_JER_EffectiveNP_8                       = 1.0000 1.0000
EL_EFF_ID_SIMPLIFIED_UncorrUncertaintyNP0   = 1.0000 1.0000
JET_EtaIntercalibration_NonClosure_2018data = 1.0000 1.0000
JET_Pileup_OffsetNPV                        = 1.0000 1.0000
[MCFM_MELA_ggZZ_SR_4l_Incl_bin_1_13TeV]
####bin_value/all_bins: 0.13%
HOQCD_syst_qqZZ                             = 1.0663 0.9432
H4l_Shower_UEPS_Sherpa_qqHM_CSSKIN_norm     = 1.0548 0.9452
H4l_Shower_UEPS_Sherpa_qqHM_QSF_norm        = 1.0233 0.9767
HOEW_QCD_syst_qqZZ                          = 1.0209 0.9791
EG_RESOLUTION_ALL                           = 1.0205 1.0034
PRW_DATASF                                  = 0.9915 1.0174
qqZZ_PDF_replica                            = 1.0161 0.9839
MUON_MS                                     = 1.0161 1.0014
MUON_SAGITTA_RESBIAS                        = 1.0156 1.0160
MUON_EFF_ISO_SYS                            = 1.0150 0.9851
EL_EFF_Reco_TOTAL_1NPCOR_PLUS_UNCOR         = 1.0132 0.9870
JET_JER_EffectiveNP_4                       = 0.9979 1.0095
MUON_ID                                     = 1.0086 1.0015
JET_Flavor_Composition_qq                   = 1.0086 1.0015
MUON_EFF_RECO_SYS_LOWPT                     = 1.0067 0.9933
MUON_SCALE                                  = 0.9996 1.0066
EL_EFF_Iso_TOTAL_1NPCOR_PLUS_UNCOR          = 1.0063 0.9937
H4l_Shower_UEPS_Sherpa_qqHM_CSSKIN_shape    = 1.0054 0.9946
H4l_Shower_UEPS_Sherpa_qqHM_CKKW_norm       = 1.0053 0.9947
EL_EFF_ID_SIMPLIFIED_UncorrUncertaintyNP2   = 1.0044 0.9956
MUON_EFF_RECO_SYS                           = 1.0042 0.9959
MUON_SAGITTA_RHO                            = 0.9960 0.9962
EL_EFF_ID_SIMPLIFIED_UncorrUncertaintyNP1   = 1.0037 0.9963
JET_EtaIntercalibration_TotalStat           = 1.0027 0.9999
MUON_EFF_RECO_STAT_LOWPT                    = 1.0022 0.9974
MUON_EFF_TTVA_STAT                          = 1.0026 0.9974
EL_EFF_ID_SIMPLIFIED_UncorrUncertaintyNP10  = 1.0026 0.9974
JET_JER_EffectiveNP_12restTerm              = 1.0026 0.9974
JET_JER_EffectiveNP_1                       = 1.0023 0.9993
MUON_EFF_RECO_STAT                          = 1.0022 0.9978
EL_EFF_ID_SIMPLIFIED_UncorrUncertaintyNP3   = 1.0021 0.9979
JET_Pileup_OffsetMu                         = 0.9982 0.9999
JET_JER_EffectiveNP_6                       = 0.9982 1.0017
JET_Pileup_PtTerm                           = 0.9998 0.9982
EG_SCALE_ALL                                = 1.0017 0.9993
JET_JER_EffectiveNP_9                       = 1.0010 0.9983
EL_EFF_ID_SIMPLIFIED_UncorrUncertaintyNP11  = 1.0017 0.9983
MUON_EFF_ISO_STAT                           = 1.0015 0.9985
EL_EFF_ID_SIMPLIFIED_UncorrUncertaintyNP12  = 1.0014 0.9986
H4l_Shower_UEPS_Sherpa_qqHM_QSF_shape       = 1.0013 0.9987
JET_JER_EffectiveNP_5                       = 1.0013 0.9989
JET_JER_DataVsMC_MC16                       = 1.0000 1.0012
H4l_Shower_UEPS_Sherpa_qqHM_CKKW_shape      = 1.0010 0.9990
JET_JER_EffectiveNP_7                       = 0.9990 0.9997
MUON_EFF_TTVA_SYS                           = 1.0010 0.9990
JET_JER_EffectiveNP_2                       = 0.9994 1.0010
EL_EFF_ID_SIMPLIFIED_UncorrUncertaintyNP13  = 1.0008 0.9992
JET_JER_EffectiveNP_3                       = 0.9992 1.0001
JET_Flavor_Response_qq                      = 0.9992 1.0001
EL_EFF_ID_SIMPLIFIED_UncorrUncertaintyNP4   = 1.0008 0.9992
JET_EffectiveNP_Modelling4                  = 1.0008 1.0000
EL_EFF_ID_SIMPLIFIED_UncorrUncertaintyNP15  = 1.0007 0.9993
HOEW_syst_qqZZ                              = 0.9994 1.0006
JET_EffectiveNP_Statistical3                = 1.0006 1.0000
JET_EffectiveNP_Mixed1                      = 1.0000 1.0006
EL_EFF_ID_CorrUncertaintyNP12               = 0.9995 1.0005
JET_Pileup_RhoTopology                      = 1.0005 0.9999
JET_fJvtEfficiency                          = 0.9995 1.0005
EL_EFF_ID_CorrUncertaintyNP14               = 0.9996 1.0004
EL_EFF_ID_SIMPLIFIED_UncorrUncertaintyNP17  = 1.0004 0.9996
EL_EFF_ID_CorrUncertaintyNP10               = 1.0004 0.9996
JET_EtaIntercalibration_Modelling           = 1.0004 0.9997
EL_EFF_ID_SIMPLIFIED_UncorrUncertaintyNP8   = 1.0004 0.9996
EL_EFF_ID_SIMPLIFIED_UncorrUncertaintyNP5   = 1.0004 0.9996
JET_Pileup_OffsetNPV                        = 0.9999 0.9996
JET_EffectiveNP_Modelling1                  = 0.9998 0.9997
EL_EFF_ID_CorrUncertaintyNP9                = 1.0003 0.9997
EL_EFF_ID_CorrUncertaintyNP11               = 1.0003 0.9997
EL_EFF_ID_CorrUncertaintyNP15               = 0.9997 1.0003
EL_EFF_ID_SIMPLIFIED_UncorrUncertaintyNP6   = 1.0003 0.9997
EL_EFF_ID_CorrUncertaintyNP8                = 0.9998 1.0002
EL_EFF_ID_CorrUncertaintyNP7                = 0.9998 1.0002
EL_EFF_ID_SIMPLIFIED_UncorrUncertaintyNP16  = 1.0002 0.9998
EL_EFF_ID_SIMPLIFIED_UncorrUncertaintyNP14  = 1.0002 0.9998
JET_JER_EffectiveNP_11                      = 1.0002 1.0001
JET_JER_EffectiveNP_10                      = 1.0000 1.0002
EL_EFF_ID_SIMPLIFIED_UncorrUncertaintyNP7   = 1.0002 0.9998
JET_EtaIntercalibration_NonClosure_2018data = 1.0000 0.9998
JET_EffectiveNP_Modelling2                  = 0.9999 1.0000
JET_EffectiveNP_Detector1                   = 1.0000 0.9999
JET_EffectiveNP_Mixed3                      = 1.0000 0.9999
EL_EFF_ID_CorrUncertaintyNP6                = 1.0001 0.9999
EL_EFF_ID_CorrUncertaintyNP13               = 1.0001 0.9999
JET_JER_EffectiveNP_8                       = 0.9999 1.0001
JET_SingleParticle_HighPt                   = 1.0000 1.0000
JET_PunchThrough_MC16                       = 1.0000 1.0000
JET_EffectiveNP_Modelling3                  = 1.0000 1.0000
JET_EffectiveNP_Detector2                   = 1.0000 1.0000
JET_EffectiveNP_Statistical6                = 1.0000 1.0000
JET_EffectiveNP_Statistical5                = 1.0000 1.0000
JET_EffectiveNP_Statistical4                = 1.0000 1.0000
JET_EffectiveNP_Statistical2                = 1.0000 1.0000
JET_EffectiveNP_Statistical1                = 1.0000 1.0000
JET_BJES_Response                           = 1.0000 1.0000
JET_EffectiveNP_Mixed2                      = 1.0000 1.0000
EG_SCALE_AF2                                = 1.0000 1.0000
EL_EFF_ID_CorrUncertaintyNP4                = 1.0000 1.0000
EL_EFF_ID_CorrUncertaintyNP5                = 1.0000 1.0000
EL_EFF_ID_CorrUncertaintyNP2                = 1.0000 1.0000
EL_EFF_ID_CorrUncertaintyNP3                = 1.0000 1.0000
EL_EFF_ID_CorrUncertaintyNP0                = 1.0000 1.0000
EL_EFF_ID_CorrUncertaintyNP1                = 1.0000 1.0000
JET_EtaIntercalibration_NonClosure_posEta   = 1.0000 1.0000
JET_EtaIntercalibration_NonClosure_highE    = 1.0000 1.0000
JET_EtaIntercalibration_NonClosure_negEta   = 1.0000 1.0000
EL_EFF_ID_SIMPLIFIED_UncorrUncertaintyNP9   = 1.0000 1.0000
EL_EFF_ID_SIMPLIFIED_UncorrUncertaintyNP0   = 1.0000 1.0000
[MCFM_MELA_ggZZ_SR_4l_Incl_bin_2_13TeV]
####bin_value/all_bins: 2.76%
HOQCD_syst_qqZZ                             = 1.0740 0.9376
H4l_Shower_UEPS_Sherpa_qqHM_CSSKIN_norm     = 1.0548 0.9452
H4l_Shower_UEPS_Sherpa_qqHM_QSF_norm        = 1.0233 0.9767
qqZZ_PDF_replica                            = 1.0165 0.9835
HOEW_QCD_syst_qqZZ                          = 1.0143 0.9857
EL_EFF_Reco_TOTAL_1NPCOR_PLUS_UNCOR         = 1.0117 0.9884
MUON_EFF_ISO_SYS                            = 1.0091 0.9909
PRW_DATASF                                  = 0.9929 1.0066
MUON_SAGITTA_RESBIAS                        = 1.0067 1.0066
H4l_Shower_UEPS_Sherpa_qqHM_CSSKIN_shape    = 1.0063 0.9937
JET_EffectiveNP_Modelling4                  = 0.9937 1.0000
EG_SCALE_ALL                                = 1.0057 0.9968
H4l_Shower_UEPS_Sherpa_qqHM_CKKW_norm       = 1.0053 0.9947
MUON_SAGITTA_RHO                            = 0.9956 0.9956
MUON_SCALE                                  = 0.9959 1.0021
MUON_EFF_RECO_SYS                           = 1.0040 0.9960
EL_EFF_Iso_TOTAL_1NPCOR_PLUS_UNCOR          = 1.0031 0.9969
EL_EFF_ID_SIMPLIFIED_UncorrUncertaintyNP2   = 1.0030 0.9970
EL_EFF_ID_SIMPLIFIED_UncorrUncertaintyNP11  = 1.0029 0.9972
MUON_EFF_RECO_SYS_LOWPT                     = 1.0027 0.9973
MUON_MS                                     = 0.9991 0.9973
MUON_EFF_RECO_STAT                          = 1.0020 0.9980
MUON_ID                                     = 0.9989 0.9981
JET_Flavor_Composition_qq                   = 0.9989 0.9981
MUON_EFF_TTVA_STAT                          = 1.0017 0.9983
EL_EFF_ID_SIMPLIFIED_UncorrUncertaintyNP3   = 1.0016 0.9984
EL_EFF_ID_SIMPLIFIED_UncorrUncertaintyNP10  = 1.0015 0.9985
JET_JER_EffectiveNP_12restTerm              = 1.0015 0.9985
MUON_EFF_RECO_STAT_LOWPT                    = 1.0011 0.9986
EG_RESOLUTION_ALL                           = 0.9996 0.9987
H4l_Shower_UEPS_Sherpa_qqHM_CKKW_shape      = 1.0012 0.9988
JET_JER_EffectiveNP_4                       = 0.9999 0.9988
EL_EFF_ID_SIMPLIFIED_UncorrUncertaintyNP12  = 1.0011 0.9989
EL_EFF_ID_SIMPLIFIED_UncorrUncertaintyNP1   = 1.0011 0.9989
EL_EFF_ID_SIMPLIFIED_UncorrUncertaintyNP4   = 1.0009 0.9991
MUON_EFF_ISO_STAT                           = 1.0008 0.9992
MUON_EFF_TTVA_SYS                           = 1.0008 0.9992
HOEW_syst_qqZZ                              = 0.9994 1.0006
EL_EFF_ID_SIMPLIFIED_UncorrUncertaintyNP15  = 1.0006 0.9994
EL_EFF_ID_SIMPLIFIED_UncorrUncertaintyNP6   = 1.0006 0.9994
JET_EffectiveNP_Statistical3                = 0.9995 1.0000
JET_EffectiveNP_Mixed1                      = 1.0000 0.9995
JET_EtaIntercalibration_TotalStat           = 0.9995 1.0000
EL_EFF_ID_SIMPLIFIED_UncorrUncertaintyNP5   = 1.0005 0.9995
EL_EFF_ID_CorrUncertaintyNP11               = 1.0004 0.9996
EL_EFF_ID_CorrUncertaintyNP12               = 0.9996 1.0004
JET_fJvtEfficiency                          = 0.9996 1.0004
EL_EFF_ID_SIMPLIFIED_UncorrUncertaintyNP13  = 1.0004 0.9996
EL_EFF_ID_CorrUncertaintyNP14               = 0.9997 1.0003
EL_EFF_ID_SIMPLIFIED_UncorrUncertaintyNP17  = 1.0003 0.9997
EL_EFF_ID_SIMPLIFIED_UncorrUncertaintyNP16  = 1.0003 0.9997
EL_EFF_ID_CorrUncertaintyNP10               = 1.0003 0.9997
JET_Pileup_OffsetMu                         = 0.9998 1.0002
JET_JER_DataVsMC_MC16                       = 1.0001 0.9998
JET_JER_EffectiveNP_1                       = 0.9998 1.0001
JET_JER_EffectiveNP_9                       = 0.9998 1.0001
EL_EFF_ID_CorrUncertaintyNP8                = 0.9998 1.0002
EL_EFF_ID_CorrUncertaintyNP9                = 1.0002 0.9998
EL_EFF_ID_CorrUncertaintyNP6                = 1.0002 0.9998
EL_EFF_ID_CorrUncertaintyNP7                = 0.9998 1.0002
EL_EFF_ID_SIMPLIFIED_UncorrUncertaintyNP14  = 1.0002 0.9998
JET_JER_EffectiveNP_11                      = 0.9998 1.0001
JET_Pileup_PtTerm                           = 0.9999 0.9998
EL_EFF_ID_CorrUncertaintyNP15               = 0.9998 1.0002
JET_EtaIntercalibration_Modelling           = 0.9998 1.0002
EL_EFF_ID_SIMPLIFIED_UncorrUncertaintyNP8   = 1.0002 0.9998
EL_EFF_ID_SIMPLIFIED_UncorrUncertaintyNP7   = 1.0002 0.9998
H4l_Shower_UEPS_Sherpa_qqHM_QSF_shape       = 1.0001 0.9999
JET_EffectiveNP_Modelling1                  = 1.0000 0.9999
JET_EffectiveNP_Statistical2                = 0.9999 1.0000
JET_BJES_Response                           = 1.0001 1.0000
JET_JER_EffectiveNP_2                       = 0.9999 1.0000
JET_JER_EffectiveNP_7                       = 1.0001 0.9999
JET_JER_EffectiveNP_5                       = 0.9999 1.0000
EL_EFF_ID_CorrUncertaintyNP4                = 1.0001 0.9999
EL_EFF_ID_CorrUncertaintyNP0                = 1.0000 0.9999
EL_EFF_ID_CorrUncertaintyNP13               = 1.0001 0.9999
JET_EtaIntercalibration_NonClosure_posEta   = 0.9999 1.0000
JET_JER_EffectiveNP_3                       = 1.0001 1.0000
JET_Flavor_Response_qq                      = 1.0001 1.0000
JET_JER_EffectiveNP_10                      = 1.0000 1.0001
JET_JER_EffectiveNP_8                       = 0.9999 1.0001
JET_Pileup_OffsetNPV                        = 1.0000 1.0001
JET_SingleParticle_HighPt                   = 1.0000 1.0000
JET_PunchThrough_MC16                       = 1.0000 1.0000
JET_EffectiveNP_Modelling3                  = 1.0000 1.0000
JET_EffectiveNP_Modelling2                  = 1.0000 1.0000
JET_EffectiveNP_Detector2                   = 1.0000 1.0000
JET_EffectiveNP_Detector1                   = 1.0000 1.0000
JET_EffectiveNP_Statistical6                = 1.0000 1.0000
JET_EffectiveNP_Statistical5                = 1.0000 1.0000
JET_EffectiveNP_Statistical4                = 1.0000 1.0000
JET_EffectiveNP_Statistical1                = 1.0000 1.0000
JET_EffectiveNP_Mixed3                      = 1.0000 1.0000
JET_EffectiveNP_Mixed2                      = 1.0000 1.0000
JET_JER_EffectiveNP_6                       = 1.0000 1.0000
EG_SCALE_AF2                                = 1.0000 1.0000
EL_EFF_ID_CorrUncertaintyNP5                = 1.0000 1.0000
EL_EFF_ID_CorrUncertaintyNP2                = 1.0000 1.0000
EL_EFF_ID_CorrUncertaintyNP3                = 1.0000 1.0000
EL_EFF_ID_CorrUncertaintyNP1                = 1.0000 1.0000
JET_Pileup_RhoTopology                      = 1.0000 1.0000
JET_EtaIntercalibration_NonClosure_highE    = 1.0000 1.0000
JET_EtaIntercalibration_NonClosure_negEta   = 1.0000 1.0000
EL_EFF_ID_SIMPLIFIED_UncorrUncertaintyNP9   = 1.0000 1.0000
EL_EFF_ID_SIMPLIFIED_UncorrUncertaintyNP0   = 1.0000 1.0000
JET_EtaIntercalibration_NonClosure_2018data = 1.0000 1.0000
[MCFM_MELA_ggZZ_SR_4l_Incl_bin_3_13TeV]
####bin_value/all_bins: 26.40%
HOQCD_syst_qqZZ                             = 1.0601 0.9440
H4l_Shower_UEPS_Sherpa_qqHM_CSSKIN_norm     = 1.0548 0.9452
H4l_Shower_UEPS_Sherpa_qqHM_QSF_norm        = 1.0233 0.9767
qqZZ_PDF_replica                            = 1.0164 0.9836
HOEW_QCD_syst_qqZZ                          = 1.0105 0.9895
EL_EFF_Reco_TOTAL_1NPCOR_PLUS_UNCOR         = 1.0081 0.9919
JET_EffectiveNP_Modelling4                  = 0.9931 1.0000
EG_SCALE_ALL                                = 1.0053 0.9938
H4l_Shower_UEPS_Sherpa_qqHM_CSSKIN_shape    = 1.0054 0.9946
H4l_Shower_UEPS_Sherpa_qqHM_CKKW_norm       = 1.0053 0.9947
MUON_EFF_ISO_SYS                            = 1.0049 0.9951
MUON_SCALE                                  = 0.9953 1.0034
MUON_EFF_RECO_SYS                           = 1.0041 0.9959
PRW_DATASF                                  = 0.9961 1.0035
MUON_EFF_RECO_STAT                          = 1.0018 0.9982
EL_EFF_Iso_TOTAL_1NPCOR_PLUS_UNCOR          = 1.0016 0.9984
MUON_SAGITTA_RESBIAS                        = 1.0015 1.0015
EL_EFF_ID_SIMPLIFIED_UncorrUncertaintyNP11  = 1.0012 0.9988
EL_EFF_ID_SIMPLIFIED_UncorrUncertaintyNP3   = 1.0011 0.9989
EL_EFF_ID_SIMPLIFIED_UncorrUncertaintyNP2   = 1.0011 0.9989
MUON_EFF_TTVA_STAT                          = 1.0010 0.9990
MUON_EFF_RECO_SYS_LOWPT                     = 1.0010 0.9990
EL_EFF_ID_SIMPLIFIED_UncorrUncertaintyNP4   = 1.0009 0.9991
EG_RESOLUTION_ALL                           = 0.9992 0.9994
EL_EFF_ID_SIMPLIFIED_UncorrUncertaintyNP12  = 1.0008 0.9992
JET_JER_EffectiveNP_4                       = 0.9999 0.9993
MUON_EFF_TTVA_SYS                           = 1.0007 0.9993
EL_EFF_ID_SIMPLIFIED_UncorrUncertaintyNP6   = 1.0007 0.9993
H4l_Shower_UEPS_Sherpa_qqHM_QSF_shape       = 1.0006 0.9994
HOEW_syst_qqZZ                              = 0.9994 1.0006
JET_fJvtEfficiency                          = 0.9994 1.0006
JET_Pileup_PtTerm                           = 1.0000 0.9994
EL_EFF_ID_SIMPLIFIED_UncorrUncertaintyNP8   = 1.0006 0.9994
MUON_EFF_RECO_STAT_LOWPT                    = 1.0004 0.9995
EL_EFF_ID_CorrUncertaintyNP11               = 1.0005 0.9995
MUON_MS                                     = 1.0001 0.9995
EL_EFF_ID_SIMPLIFIED_UncorrUncertaintyNP17  = 1.0005 0.9995
EL_EFF_ID_SIMPLIFIED_UncorrUncertaintyNP15  = 1.0005 0.9995
EL_EFF_ID_SIMPLIFIED_UncorrUncertaintyNP10  = 1.0005 0.9995
JET_JER_EffectiveNP_12restTerm              = 1.0005 0.9995
EL_EFF_ID_SIMPLIFIED_UncorrUncertaintyNP5   = 1.0005 0.9995
MUON_EFF_ISO_STAT                           = 1.0004 0.9996
JET_EffectiveNP_Statistical3                = 1.0004 1.0000
JET_EffectiveNP_Mixed1                      = 1.0000 1.0004
EL_EFF_ID_CorrUncertaintyNP12               = 0.9996 1.0004
EL_EFF_ID_SIMPLIFIED_UncorrUncertaintyNP13  = 1.0004 0.9996
EL_EFF_ID_SIMPLIFIED_UncorrUncertaintyNP1   = 1.0004 0.9996
EL_EFF_ID_SIMPLIFIED_UncorrUncertaintyNP7   = 1.0004 0.9996
JET_JER_EffectiveNP_1                       = 0.9998 1.0003
EL_EFF_ID_SIMPLIFIED_UncorrUncertaintyNP16  = 1.0003 0.9997
EL_EFF_ID_CorrUncertaintyNP10               = 1.0003 0.9997
H4l_Shower_UEPS_Sherpa_qqHM_CKKW_shape      = 1.0002 0.9998
JET_Pileup_OffsetMu                         = 0.9998 1.0002
JET_JER_EffectiveNP_2                       = 1.0002 0.9998
EL_EFF_ID_CorrUncertaintyNP7                = 0.9998 1.0002
EL_EFF_ID_CorrUncertaintyNP14               = 0.9998 1.0002
EL_EFF_ID_SIMPLIFIED_UncorrUncertaintyNP14  = 1.0002 0.9998
JET_EtaIntercalibration_TotalStat           = 0.9999 1.0000
JET_JER_EffectiveNP_9                       = 1.0001 0.9999
MUON_ID                                     = 0.9999 1.0000
JET_Flavor_Composition_qq                   = 0.9999 1.0000
EL_EFF_ID_CorrUncertaintyNP8                = 0.9999 1.0001
EL_EFF_ID_CorrUncertaintyNP9                = 1.0001 0.9999
EL_EFF_ID_CorrUncertaintyNP6                = 1.0001 0.9999
EL_EFF_ID_CorrUncertaintyNP4                = 1.0001 0.9999
EL_EFF_ID_CorrUncertaintyNP5                = 0.9999 1.0001
EL_EFF_ID_CorrUncertaintyNP0                = 1.0001 0.9999
JET_JER_EffectiveNP_3                       = 1.0000 1.0001
JET_Flavor_Response_qq                      = 1.0000 1.0001
JET_JER_EffectiveNP_10                      = 1.0000 1.0001
MUON_SAGITTA_RHO                            = 1.0001 1.0001
EL_EFF_ID_CorrUncertaintyNP15               = 0.9999 1.0001
JET_EtaIntercalibration_Modelling           = 0.9999 1.0001
JET_JER_EffectiveNP_8                       = 1.0001 0.9999
JET_SingleParticle_HighPt                   = 1.0000 1.0000
JET_PunchThrough_MC16                       = 1.0000 1.0000
JET_EffectiveNP_Modelling3                  = 1.0000 1.0000
JET_EffectiveNP_Modelling2                  = 1.0000 1.0000
JET_EffectiveNP_Modelling1                  = 1.0000 1.0000
JET_EffectiveNP_Detector2                   = 1.0000 1.0000
JET_EffectiveNP_Detector1                   = 1.0000 1.0000
JET_EffectiveNP_Statistical6                = 1.0000 1.0000
JET_EffectiveNP_Statistical5                = 1.0000 1.0000
JET_EffectiveNP_Statistical4                = 1.0000 1.0000
JET_EffectiveNP_Statistical2                = 1.0000 1.0000
JET_EffectiveNP_Statistical1                = 1.0000 1.0000
JET_BJES_Response                           = 1.0000 1.0000
JET_EffectiveNP_Mixed3                      = 1.0000 1.0000
JET_EffectiveNP_Mixed2                      = 1.0000 1.0000
JET_JER_DataVsMC_MC16                       = 1.0000 1.0000
JET_JER_EffectiveNP_7                       = 1.0000 1.0000
JET_JER_EffectiveNP_6                       = 1.0000 1.0000
JET_JER_EffectiveNP_5                       = 1.0000 1.0000
EG_SCALE_AF2                                = 1.0000 1.0000
EL_EFF_ID_CorrUncertaintyNP2                = 1.0000 1.0000
EL_EFF_ID_CorrUncertaintyNP3                = 1.0000 1.0000
EL_EFF_ID_CorrUncertaintyNP1                = 1.0000 1.0000
EL_EFF_ID_CorrUncertaintyNP13               = 1.0000 1.0000
JET_Pileup_RhoTopology                      = 1.0000 1.0000
JET_EtaIntercalibration_NonClosure_posEta   = 1.0000 1.0000
JET_JER_EffectiveNP_11                      = 1.0000 1.0000
JET_EtaIntercalibration_NonClosure_highE    = 1.0000 1.0000
JET_EtaIntercalibration_NonClosure_negEta   = 1.0000 1.0000
EL_EFF_ID_SIMPLIFIED_UncorrUncertaintyNP9   = 1.0000 1.0000
EL_EFF_ID_SIMPLIFIED_UncorrUncertaintyNP0   = 1.0000 1.0000
JET_EtaIntercalibration_NonClosure_2018data = 1.0000 1.0000
JET_Pileup_OffsetNPV                        = 1.0000 1.0000
[MCFM_MELA_ggZZ_SR_4l_Incl_bin_4_13TeV]
####bin_value/all_bins: 37.35%
HOQCD_syst_qqZZ                             = 1.0691 0.9375
H4l_Shower_UEPS_Sherpa_qqHM_CSSKIN_norm     = 1.0548 0.9452
H4l_Shower_UEPS_Sherpa_qqHM_QSF_norm        = 1.0233 0.9767
qqZZ_PDF_replica                            = 1.0155 0.9845
HOEW_QCD_syst_qqZZ                          = 1.0121 0.9879
EL_EFF_Reco_TOTAL_1NPCOR_PLUS_UNCOR         = 1.0076 0.9924
JET_EffectiveNP_Modelling4                  = 0.9940 1.0000
H4l_Shower_UEPS_Sherpa_qqHM_CKKW_norm       = 1.0053 0.9947
PRW_DATASF                                  = 0.9953 1.0040
MUON_EFF_RECO_SYS                           = 1.0044 0.9957
MUON_EFF_ISO_SYS                            = 1.0040 0.9960
EG_SCALE_ALL                                = 1.0017 0.9976
MUON_EFF_RECO_STAT                          = 1.0018 0.9982
MUON_SCALE                                  = 0.9983 1.0010
EL_EFF_Iso_TOTAL_1NPCOR_PLUS_UNCOR          = 1.0013 0.9987
MUON_SAGITTA_RESBIAS                        = 0.9987 0.9987
JET_JER_EffectiveNP_4                       = 0.9999 0.9988
MUON_EFF_TTVA_STAT                          = 1.0010 0.9990
EL_EFF_ID_SIMPLIFIED_UncorrUncertaintyNP11  = 1.0010 0.9990
EL_EFF_ID_SIMPLIFIED_UncorrUncertaintyNP8   = 1.0009 0.9991
EL_EFF_ID_SIMPLIFIED_UncorrUncertaintyNP2   = 1.0009 0.9991
H4l_Shower_UEPS_Sherpa_qqHM_CSSKIN_shape    = 1.0008 0.9992
MUON_EFF_RECO_SYS_LOWPT                     = 1.0008 0.9992
JET_Pileup_PtTerm                           = 1.0000 0.9992
MUON_EFF_TTVA_SYS                           = 1.0008 0.9992
EL_EFF_ID_SIMPLIFIED_UncorrUncertaintyNP3   = 1.0008 0.9992
MUON_SAGITTA_RHO                            = 1.0008 1.0008
EG_RESOLUTION_ALL                           = 0.9993 1.0000
EL_EFF_ID_SIMPLIFIED_UncorrUncertaintyNP6   = 1.0007 0.9993
HOEW_syst_qqZZ                              = 0.9994 1.0006
EL_EFF_ID_SIMPLIFIED_UncorrUncertaintyNP17  = 1.0006 0.9994
EL_EFF_ID_SIMPLIFIED_UncorrUncertaintyNP12  = 1.0006 0.9994
EL_EFF_ID_SIMPLIFIED_UncorrUncertaintyNP4   = 1.0006 0.9994
JET_fJvtEfficiency                          = 0.9995 1.0005
EL_EFF_ID_SIMPLIFIED_UncorrUncertaintyNP15  = 1.0005 0.9995
EL_EFF_ID_SIMPLIFIED_UncorrUncertaintyNP7   = 1.0005 0.9995
MUON_EFF_ISO_STAT                           = 1.0004 0.9996
MUON_EFF_RECO_STAT_LOWPT                    = 1.0003 0.9996
MUON_ID                                     = 0.9999 0.9996
JET_Flavor_Composition_qq                   = 0.9999 0.9996
EL_EFF_ID_CorrUncertaintyNP11               = 1.0004 0.9996
EL_EFF_ID_CorrUncertaintyNP12               = 0.9996 1.0004
EL_EFF_ID_SIMPLIFIED_UncorrUncertaintyNP5   = 1.0004 0.9996
JET_Pileup_OffsetMu                         = 0.9997 1.0002
EL_EFF_ID_CorrUncertaintyNP7                = 0.9997 1.0003
MUON_MS                                     = 0.9997 1.0002
EL_EFF_ID_SIMPLIFIED_UncorrUncertaintyNP16  = 1.0003 0.9997
EL_EFF_ID_SIMPLIFIED_UncorrUncertaintyNP13  = 1.0003 0.9997
EL_EFF_ID_SIMPLIFIED_UncorrUncertaintyNP10  = 1.0003 0.9997
JET_JER_EffectiveNP_12restTerm              = 1.0003 0.9997
EL_EFF_ID_CorrUncertaintyNP10               = 1.0003 0.9997
H4l_Shower_UEPS_Sherpa_qqHM_QSF_shape       = 1.0002 0.9998
JET_EtaIntercalibration_TotalStat           = 0.9998 1.0000
JET_JER_EffectiveNP_1                       = 0.9998 1.0002
EL_EFF_ID_CorrUncertaintyNP14               = 0.9998 1.0002
EL_EFF_ID_SIMPLIFIED_UncorrUncertaintyNP14  = 1.0002 0.9998
EL_EFF_ID_SIMPLIFIED_UncorrUncertaintyNP1   = 1.0002 0.9998
JET_EffectiveNP_Statistical3                = 0.9999 1.0000
JET_EffectiveNP_Mixed1                      = 1.0000 0.9999
JET_JER_DataVsMC_MC16                       = 1.0000 0.9999
JET_JER_EffectiveNP_2                       = 1.0001 0.9999
JET_JER_EffectiveNP_7                       = 0.9999 1.0001
EL_EFF_ID_CorrUncertaintyNP8                = 0.9999 1.0001
EL_EFF_ID_CorrUncertaintyNP9                = 1.0001 0.9999
EL_EFF_ID_CorrUncertaintyNP4                = 1.0001 0.9999
EL_EFF_ID_CorrUncertaintyNP5                = 0.9999 1.0001
EL_EFF_ID_CorrUncertaintyNP0                = 1.0001 0.9999
EL_EFF_ID_CorrUncertaintyNP13               = 0.9999 1.0001
EL_EFF_ID_CorrUncertaintyNP15               = 0.9999 1.0001
JET_EtaIntercalibration_Modelling           = 0.9999 1.0001
JET_Pileup_OffsetNPV                        = 0.9999 1.0000
H4l_Shower_UEPS_Sherpa_qqHM_CKKW_shape      = 1.0000 1.0000
JET_SingleParticle_HighPt                   = 1.0000 1.0000
JET_PunchThrough_MC16                       = 1.0000 1.0000
JET_EffectiveNP_Modelling3                  = 1.0000 1.0000
JET_EffectiveNP_Modelling2                  = 1.0000 1.0000
JET_EffectiveNP_Modelling1                  = 1.0000 1.0000
JET_EffectiveNP_Detector2                   = 1.0000 1.0000
JET_EffectiveNP_Detector1                   = 1.0000 1.0000
JET_EffectiveNP_Statistical6                = 1.0000 1.0000
JET_EffectiveNP_Statistical5                = 1.0000 1.0000
JET_EffectiveNP_Statistical4                = 1.0000 1.0000
JET_EffectiveNP_Statistical2                = 1.0000 1.0000
JET_EffectiveNP_Statistical1                = 1.0000 1.0000
JET_BJES_Response                           = 1.0000 1.0000
JET_EffectiveNP_Mixed3                      = 1.0000 1.0000
JET_EffectiveNP_Mixed2                      = 1.0000 1.0000
JET_JER_EffectiveNP_6                       = 1.0000 1.0000
JET_JER_EffectiveNP_5                       = 1.0000 1.0000
JET_JER_EffectiveNP_9                       = 1.0000 1.0000
EG_SCALE_AF2                                = 1.0000 1.0000
EL_EFF_ID_CorrUncertaintyNP6                = 1.0000 1.0000
EL_EFF_ID_CorrUncertaintyNP2                = 1.0000 1.0000
EL_EFF_ID_CorrUncertaintyNP3                = 1.0000 1.0000
EL_EFF_ID_CorrUncertaintyNP1                = 1.0000 1.0000
JET_Pileup_RhoTopology                      = 1.0000 1.0000
JET_EtaIntercalibration_NonClosure_posEta   = 1.0000 1.0000
JET_JER_EffectiveNP_3                       = 1.0000 1.0000
JET_Flavor_Response_qq                      = 1.0000 1.0000
JET_JER_EffectiveNP_11                      = 1.0000 1.0000
JET_JER_EffectiveNP_10                      = 1.0000 1.0000
JET_EtaIntercalibration_NonClosure_highE    = 1.0000 1.0000
JET_EtaIntercalibration_NonClosure_negEta   = 1.0000 1.0000
EL_EFF_ID_SIMPLIFIED_UncorrUncertaintyNP9   = 1.0000 1.0000
JET_JER_EffectiveNP_8                       = 1.0000 1.0000
EL_EFF_ID_SIMPLIFIED_UncorrUncertaintyNP0   = 1.0000 1.0000
JET_EtaIntercalibration_NonClosure_2018data = 1.0000 1.0000
[MCFM_MELA_ggZZ_SR_4l_Incl_bin_5_13TeV]
####bin_value/all_bins: 18.98%
HOQCD_syst_qqZZ                             = 1.0766 0.9299
H4l_Shower_UEPS_Sherpa_qqHM_CSSKIN_norm     = 1.0548 0.9452
H4l_Shower_UEPS_Sherpa_qqHM_QSF_norm        = 1.0233 0.9767
HOEW_QCD_syst_qqZZ                          = 1.0171 0.9829
qqZZ_PDF_replica                            = 1.0144 0.9856
H4l_Shower_UEPS_Sherpa_qqHM_CSSKIN_shape    = 1.0084 0.9916
EL_EFF_Reco_TOTAL_1NPCOR_PLUS_UNCOR         = 1.0074 0.9926
H4l_Shower_UEPS_Sherpa_qqHM_CKKW_norm       = 1.0053 0.9947
MUON_EFF_RECO_SYS                           = 1.0049 0.9952
MUON_EFF_ISO_SYS                            = 1.0039 0.9961
JET_JER_EffectiveNP_4                       = 1.0000 0.9961
PRW_DATASF                                  = 0.9967 1.0028
JET_EffectiveNP_Modelling4                  = 0.9969 1.0000
H4l_Shower_UEPS_Sherpa_qqHM_QSF_shape       = 1.0027 0.9973
MUON_SAGITTA_RESBIAS                        = 0.9980 0.9980
MUON_EFF_RECO_STAT                          = 1.0018 0.9982
EL_EFF_ID_SIMPLIFIED_UncorrUncertaintyNP8   = 1.0014 0.9986
EL_EFF_Iso_TOTAL_1NPCOR_PLUS_UNCOR          = 1.0012 0.9988
MUON_EFF_TTVA_STAT                          = 1.0011 0.9990
EL_EFF_ID_SIMPLIFIED_UncorrUncertaintyNP11  = 1.0010 0.9990
MUON_EFF_TTVA_SYS                           = 1.0010 0.9990
EL_EFF_ID_SIMPLIFIED_UncorrUncertaintyNP17  = 1.0009 0.9991
H4l_Shower_UEPS_Sherpa_qqHM_CKKW_shape      = 1.0008 0.9992
MUON_ID                                     = 0.9993 1.0008
JET_Flavor_Composition_qq                   = 0.9993 1.0008
MUON_EFF_RECO_SYS_LOWPT                     = 1.0007 0.9993
EL_EFF_ID_SIMPLIFIED_UncorrUncertaintyNP2   = 1.0007 0.9993
MUON_MS                                     = 0.9997 1.0007
HOEW_syst_qqZZ                              = 0.9994 1.0006
MUON_EFF_ISO_STAT                           = 1.0006 0.9994
EL_EFF_ID_SIMPLIFIED_UncorrUncertaintyNP12  = 1.0006 0.9994
EL_EFF_ID_SIMPLIFIED_UncorrUncertaintyNP3   = 1.0006 0.9994
EL_EFF_ID_SIMPLIFIED_UncorrUncertaintyNP6   = 1.0006 0.9994
EG_SCALE_ALL                                = 1.0005 0.9998
JET_fJvtEfficiency                          = 0.9995 1.0005
EL_EFF_ID_SIMPLIFIED_UncorrUncertaintyNP7   = 1.0005 0.9995
MUON_EFF_RECO_STAT_LOWPT                    = 1.0003 0.9996
JET_EtaIntercalibration_TotalStat           = 1.0004 1.0000
EG_RESOLUTION_ALL                           = 1.0000 1.0004
JET_JER_EffectiveNP_1                       = 0.9997 1.0004
EL_EFF_ID_CorrUncertaintyNP11               = 1.0004 0.9996
EL_EFF_ID_SIMPLIFIED_UncorrUncertaintyNP15  = 1.0004 0.9996
EL_EFF_ID_SIMPLIFIED_UncorrUncertaintyNP4   = 1.0004 0.9996
JET_Pileup_OffsetMu                         = 0.9997 1.0002
JET_JER_EffectiveNP_2                       = 1.0003 0.9999
EL_EFF_ID_CorrUncertaintyNP7                = 0.9997 1.0003
EL_EFF_ID_CorrUncertaintyNP12               = 0.9997 1.0003
EL_EFF_ID_SIMPLIFIED_UncorrUncertaintyNP16  = 1.0003 0.9997
EL_EFF_ID_SIMPLIFIED_UncorrUncertaintyNP13  = 1.0003 0.9997
EL_EFF_ID_SIMPLIFIED_UncorrUncertaintyNP10  = 1.0003 0.9997
JET_JER_EffectiveNP_12restTerm              = 1.0003 0.9997
EL_EFF_ID_SIMPLIFIED_UncorrUncertaintyNP5   = 1.0003 0.9997
JET_EffectiveNP_Statistical3                = 1.0002 1.0000
JET_EffectiveNP_Mixed1                      = 1.0000 1.0002
EL_EFF_ID_CorrUncertaintyNP14               = 0.9998 1.0002
EL_EFF_ID_SIMPLIFIED_UncorrUncertaintyNP14  = 1.0002 0.9998
MUON_SCALE                                  = 1.0000 1.0002
JET_Pileup_PtTerm                           = 1.0000 0.9998
EL_EFF_ID_CorrUncertaintyNP10               = 1.0002 0.9998
EL_EFF_ID_SIMPLIFIED_UncorrUncertaintyNP1   = 1.0002 0.9998
JET_JER_DataVsMC_MC16                       = 1.0000 0.9999
JET_JER_EffectiveNP_7                       = 1.0001 1.0000
JET_JER_EffectiveNP_9                       = 1.0000 1.0001
EL_EFF_ID_CorrUncertaintyNP8                = 0.9999 1.0001
EL_EFF_ID_CorrUncertaintyNP9                = 1.0001 0.9999
EL_EFF_ID_CorrUncertaintyNP4                = 1.0001 0.9999
EL_EFF_ID_CorrUncertaintyNP5                = 0.9999 1.0001
EL_EFF_ID_CorrUncertaintyNP3                = 0.9999 1.0001
EL_EFF_ID_CorrUncertaintyNP0                = 1.0001 0.9999
EL_EFF_ID_CorrUncertaintyNP13               = 0.9999 1.0001
JET_JER_EffectiveNP_3                       = 1.0001 1.0000
JET_Flavor_Response_qq                      = 1.0001 1.0000
JET_JER_EffectiveNP_11                      = 1.0000 1.0001
EL_EFF_ID_CorrUncertaintyNP15               = 0.9999 1.0001
JET_EtaIntercalibration_Modelling           = 0.9999 1.0001
JET_SingleParticle_HighPt                   = 1.0000 1.0000
JET_PunchThrough_MC16                       = 1.0000 1.0000
JET_EffectiveNP_Modelling3                  = 1.0000 1.0000
JET_EffectiveNP_Modelling2                  = 1.0000 1.0000
JET_EffectiveNP_Modelling1                  = 1.0000 1.0000
JET_EffectiveNP_Detector2                   = 1.0000 1.0000
JET_EffectiveNP_Detector1                   = 1.0000 1.0000
JET_EffectiveNP_Statistical6                = 1.0000 1.0000
JET_EffectiveNP_Statistical5                = 1.0000 1.0000
JET_EffectiveNP_Statistical4                = 1.0000 1.0000
JET_EffectiveNP_Statistical2                = 1.0000 1.0000
JET_EffectiveNP_Statistical1                = 1.0000 1.0000
JET_BJES_Response                           = 1.0000 1.0000
JET_EffectiveNP_Mixed3                      = 1.0000 1.0000
JET_EffectiveNP_Mixed2                      = 1.0000 1.0000
JET_JER_EffectiveNP_6                       = 1.0000 1.0000
JET_JER_EffectiveNP_5                       = 1.0000 1.0000
EG_SCALE_AF2                                = 1.0000 1.0000
EL_EFF_ID_CorrUncertaintyNP6                = 1.0000 1.0000
EL_EFF_ID_CorrUncertaintyNP2                = 1.0000 1.0000
EL_EFF_ID_CorrUncertaintyNP1                = 1.0000 1.0000
JET_Pileup_RhoTopology                      = 1.0000 1.0000
JET_EtaIntercalibration_NonClosure_posEta   = 1.0000 1.0000
JET_JER_EffectiveNP_10                      = 1.0000 1.0000
JET_EtaIntercalibration_NonClosure_highE    = 1.0000 1.0000
JET_EtaIntercalibration_NonClosure_negEta   = 1.0000 1.0000
MUON_SAGITTA_RHO                            = 1.0000 1.0000
EL_EFF_ID_SIMPLIFIED_UncorrUncertaintyNP9   = 1.0000 1.0000
JET_JER_EffectiveNP_8                       = 1.0000 1.0000
EL_EFF_ID_SIMPLIFIED_UncorrUncertaintyNP0   = 1.0000 1.0000
JET_EtaIntercalibration_NonClosure_2018data = 1.0000 1.0000
JET_Pileup_OffsetNPV                        = 1.0000 1.0000
[MCFM_MELA_ggZZ_SR_4l_Incl_bin_6_13TeV]
####bin_value/all_bins: 8.75%
HOQCD_syst_qqZZ                             = 1.0869 0.9238
H4l_Shower_UEPS_Sherpa_qqHM_CSSKIN_norm     = 1.0548 0.9452
H4l_Shower_UEPS_Sherpa_qqHM_CSSKIN_shape    = 1.0253 0.9747
H4l_Shower_UEPS_Sherpa_qqHM_QSF_norm        = 1.0233 0.9767
HOEW_QCD_syst_qqZZ                          = 1.0226 0.9774
qqZZ_PDF_replica                            = 1.0129 0.9871
EL_EFF_Reco_TOTAL_1NPCOR_PLUS_UNCOR         = 1.0068 0.9933
JET_JER_EffectiveNP_4                       = 1.0000 0.9935
H4l_Shower_UEPS_Sherpa_qqHM_QSF_shape       = 1.0063 0.9937
MUON_EFF_RECO_SYS                           = 1.0056 0.9945
H4l_Shower_UEPS_Sherpa_qqHM_CKKW_norm       = 1.0053 0.9947
MUON_EFF_ISO_SYS                            = 1.0040 0.9960
PRW_DATASF                                  = 0.9963 1.0029
H4l_Shower_UEPS_Sherpa_qqHM_CKKW_shape      = 1.0025 0.9975
EL_EFF_ID_SIMPLIFIED_UncorrUncertaintyNP8   = 1.0022 0.9978
MUON_EFF_RECO_STAT                          = 1.0019 0.9981
EL_EFF_ID_SIMPLIFIED_UncorrUncertaintyNP17  = 1.0015 0.9985
MUON_SAGITTA_RESBIAS                        = 0.9985 0.9985
MUON_SAGITTA_RHO                            = 0.9985 0.9985
MUON_EFF_TTVA_SYS                           = 1.0012 0.9989
EG_SCALE_ALL                                = 1.0011 0.9988
MUON_EFF_TTVA_STAT                          = 1.0011 0.9989
EL_EFF_Iso_TOTAL_1NPCOR_PLUS_UNCOR          = 1.0011 0.9989
MUON_EFF_ISO_STAT                           = 1.0010 0.9991
EL_EFF_ID_SIMPLIFIED_UncorrUncertaintyNP11  = 1.0008 0.9992
HOEW_syst_qqZZ                              = 0.9993 1.0007
MUON_SCALE                                  = 0.9993 1.0003
EG_RESOLUTION_ALL                           = 0.9997 1.0006
MUON_EFF_RECO_SYS_LOWPT                     = 1.0005 0.9995
EL_EFF_ID_SIMPLIFIED_UncorrUncertaintyNP12  = 1.0005 0.9995
EL_EFF_ID_SIMPLIFIED_UncorrUncertaintyNP2   = 1.0005 0.9995
EL_EFF_ID_SIMPLIFIED_UncorrUncertaintyNP7   = 1.0005 0.9995
JET_EffectiveNP_Modelling4                  = 0.9996 1.0000
MUON_ID                                     = 1.0000 1.0004
JET_Flavor_Composition_qq                   = 1.0000 1.0004
EL_EFF_ID_CorrUncertaintyNP7                = 0.9996 1.0004
MUON_MS                                     = 0.9996 1.0003
JET_fJvtEfficiency                          = 0.9996 1.0004
EL_EFF_ID_SIMPLIFIED_UncorrUncertaintyNP3   = 1.0004 0.9996
EL_EFF_ID_SIMPLIFIED_UncorrUncertaintyNP6   = 1.0004 0.9996
JET_Pileup_OffsetMu                         = 0.9997 1.0002
MUON_EFF_RECO_STAT_LOWPT                    = 1.0002 0.9997
JET_JER_EffectiveNP_2                       = 1.0003 0.9998
EL_EFF_ID_CorrUncertaintyNP11               = 1.0003 0.9997
EL_EFF_ID_CorrUncertaintyNP12               = 0.9997 1.0003
EL_EFF_ID_SIMPLIFIED_UncorrUncertaintyNP16  = 1.0003 0.9997
EL_EFF_ID_SIMPLIFIED_UncorrUncertaintyNP15  = 1.0003 0.9997
EL_EFF_ID_SIMPLIFIED_UncorrUncertaintyNP10  = 1.0003 0.9997
JET_JER_EffectiveNP_12restTerm              = 1.0003 0.9997
EL_EFF_ID_SIMPLIFIED_UncorrUncertaintyNP4   = 1.0003 0.9997
JET_JER_EffectiveNP_1                       = 0.9999 1.0002
EL_EFF_ID_CorrUncertaintyNP4                = 1.0002 0.9998
EL_EFF_ID_CorrUncertaintyNP0                = 1.0002 0.9998
EL_EFF_ID_CorrUncertaintyNP13               = 0.9998 1.0002
EL_EFF_ID_CorrUncertaintyNP14               = 0.9998 1.0002
EL_EFF_ID_SIMPLIFIED_UncorrUncertaintyNP13  = 1.0002 0.9998
JET_Pileup_PtTerm                           = 1.0000 1.0002
EL_EFF_ID_CorrUncertaintyNP10               = 1.0002 0.9998
EL_EFF_ID_SIMPLIFIED_UncorrUncertaintyNP1   = 1.0002 0.9998
EL_EFF_ID_SIMPLIFIED_UncorrUncertaintyNP5   = 1.0002 0.9998
JET_EffectiveNP_Modelling1                  = 1.0000 1.0001
JET_JER_EffectiveNP_7                       = 1.0001 1.0000
JET_JER_EffectiveNP_5                       = 0.9999 1.0001
EL_EFF_ID_CorrUncertaintyNP8                = 0.9999 1.0001
EL_EFF_ID_CorrUncertaintyNP6                = 0.9999 1.0001
EL_EFF_ID_CorrUncertaintyNP5                = 0.9999 1.0001
EL_EFF_ID_CorrUncertaintyNP3                = 0.9999 1.0001
JET_Pileup_RhoTopology                      = 1.0001 1.0000
EL_EFF_ID_SIMPLIFIED_UncorrUncertaintyNP14  = 1.0001 0.9999
JET_JER_EffectiveNP_3                       = 0.9999 1.0001
JET_Flavor_Response_qq                      = 0.9999 1.0001
EL_EFF_ID_CorrUncertaintyNP15               = 0.9999 1.0001
JET_EtaIntercalibration_Modelling           = 0.9999 1.0001
JET_Pileup_OffsetNPV                        = 1.0000 1.0001
JET_SingleParticle_HighPt                   = 1.0000 1.0000
JET_PunchThrough_MC16                       = 1.0000 1.0000
JET_EffectiveNP_Modelling3                  = 1.0000 1.0000
JET_EffectiveNP_Modelling2                  = 1.0000 1.0000
JET_EffectiveNP_Detector2                   = 1.0000 1.0000
JET_EffectiveNP_Detector1                   = 1.0000 1.0000
JET_EffectiveNP_Statistical6                = 1.0000 1.0000
JET_EffectiveNP_Statistical5                = 1.0000 1.0000
JET_EffectiveNP_Statistical4                = 1.0000 1.0000
JET_EffectiveNP_Statistical3                = 1.0000 1.0000
JET_EffectiveNP_Statistical2                = 1.0000 1.0000
JET_EffectiveNP_Statistical1                = 1.0000 1.0000
JET_BJES_Response                           = 1.0000 1.0000
JET_EffectiveNP_Mixed1                      = 1.0000 1.0000
JET_EffectiveNP_Mixed3                      = 1.0000 1.0000
JET_EffectiveNP_Mixed2                      = 1.0000 1.0000
JET_JER_DataVsMC_MC16                       = 1.0000 1.0000
JET_EtaIntercalibration_TotalStat           = 1.0000 1.0000
JET_JER_EffectiveNP_6                       = 1.0000 1.0000
JET_JER_EffectiveNP_9                       = 1.0000 1.0000
EG_SCALE_AF2                                = 1.0000 1.0000
EL_EFF_ID_CorrUncertaintyNP9                = 1.0000 1.0000
EL_EFF_ID_CorrUncertaintyNP2                = 1.0000 1.0000
EL_EFF_ID_CorrUncertaintyNP1                = 1.0000 1.0000
JET_EtaIntercalibration_NonClosure_posEta   = 1.0000 1.0000
JET_JER_EffectiveNP_11                      = 1.0000 1.0000
JET_JER_EffectiveNP_10                      = 1.0000 1.0000
JET_EtaIntercalibration_NonClosure_highE    = 1.0000 1.0000
JET_EtaIntercalibration_NonClosure_negEta   = 1.0000 1.0000
EL_EFF_ID_SIMPLIFIED_UncorrUncertaintyNP9   = 1.0000 1.0000
JET_JER_EffectiveNP_8                       = 1.0000 1.0000
EL_EFF_ID_SIMPLIFIED_UncorrUncertaintyNP0   = 1.0000 1.0000
JET_EtaIntercalibration_NonClosure_2018data = 1.0000 1.0000
[MCFM_MELA_ggZZ_SR_4l_Incl_bin_7_13TeV]
####bin_value/all_bins: 4.35%
HOQCD_syst_qqZZ                             = 1.0926 0.9174
H4l_Shower_UEPS_Sherpa_qqHM_CSSKIN_norm     = 1.0548 0.9452
H4l_Shower_UEPS_Sherpa_qqHM_CSSKIN_shape    = 1.0502 0.9498
HOEW_QCD_syst_qqZZ                          = 1.0253 0.9747
H4l_Shower_UEPS_Sherpa_qqHM_QSF_norm        = 1.0233 0.9767
qqZZ_PDF_replica                            = 1.0120 0.9880
H4l_Shower_UEPS_Sherpa_qqHM_QSF_shape       = 1.0100 0.9900
MUON_EFF_RECO_SYS                           = 1.0065 0.9936
JET_JER_EffectiveNP_4                       = 0.9999 0.9937
EL_EFF_Reco_TOTAL_1NPCOR_PLUS_UNCOR         = 1.0056 0.9944
H4l_Shower_UEPS_Sherpa_qqHM_CKKW_norm       = 1.0053 0.9947
H4l_Shower_UEPS_Sherpa_qqHM_CKKW_shape      = 1.0048 0.9952
MUON_EFF_ISO_SYS                            = 1.0039 0.9961
EL_EFF_ID_SIMPLIFIED_UncorrUncertaintyNP8   = 1.0033 0.9967
EL_EFF_ID_SIMPLIFIED_UncorrUncertaintyNP17  = 1.0021 0.9979
PRW_DATASF                                  = 0.9981 1.0011
MUON_EFF_RECO_STAT                          = 1.0019 0.9981
MUON_EFF_ISO_STAT                           = 1.0015 0.9985
MUON_EFF_TTVA_SYS                           = 1.0014 0.9987
MUON_EFF_TTVA_STAT                          = 1.0011 0.9989
MUON_ID                                     = 0.9998 1.0009
JET_Flavor_Composition_qq                   = 0.9998 1.0009
EL_EFF_Iso_TOTAL_1NPCOR_PLUS_UNCOR          = 1.0009 0.9992
HOEW_syst_qqZZ                              = 0.9993 1.0007
MUON_MS                                     = 1.0000 1.0007
EG_RESOLUTION_ALL                           = 0.9994 0.9998
JET_fJvtEfficiency                          = 0.9994 1.0006
EG_SCALE_ALL                                = 0.9997 0.9995
EL_EFF_ID_CorrUncertaintyNP7                = 0.9996 1.0004
EL_EFF_ID_CorrUncertaintyNP13               = 0.9996 1.0004
MUON_SAGITTA_RESBIAS                        = 0.9996 0.9997
EL_EFF_ID_SIMPLIFIED_UncorrUncertaintyNP7   = 1.0004 0.9996
JET_Pileup_OffsetMu                         = 0.9997 1.0003
JET_JER_EffectiveNP_1                       = 0.9999 1.0003
EL_EFF_ID_CorrUncertaintyNP6                = 0.9998 1.0003
EL_EFF_ID_CorrUncertaintyNP11               = 1.0003 0.9997
EL_EFF_ID_CorrUncertaintyNP12               = 0.9997 1.0003
EL_EFF_ID_CorrUncertaintyNP14               = 0.9997 1.0003
EL_EFF_ID_SIMPLIFIED_UncorrUncertaintyNP16  = 1.0003 0.9997
EL_EFF_ID_SIMPLIFIED_UncorrUncertaintyNP15  = 1.0002 0.9997
EL_EFF_ID_SIMPLIFIED_UncorrUncertaintyNP11  = 1.0003 0.9997
EL_EFF_ID_SIMPLIFIED_UncorrUncertaintyNP6   = 1.0003 0.9997
JET_JER_EffectiveNP_2                       = 1.0002 0.9999
JET_JER_EffectiveNP_6                       = 0.9999 1.0002
EL_EFF_ID_CorrUncertaintyNP4                = 1.0002 0.9998
EL_EFF_ID_CorrUncertaintyNP5                = 0.9998 1.0002
EL_EFF_ID_CorrUncertaintyNP3                = 0.9998 1.0002
EL_EFF_ID_CorrUncertaintyNP0                = 1.0002 0.9998
MUON_EFF_RECO_SYS_LOWPT                     = 1.0002 0.9998
EL_EFF_ID_SIMPLIFIED_UncorrUncertaintyNP12  = 1.0002 0.9998
MUON_SCALE                                  = 1.0001 1.0002
EL_EFF_ID_CorrUncertaintyNP10               = 1.0002 0.9998
JET_EtaIntercalibration_Modelling           = 0.9999 1.0002
EL_EFF_ID_SIMPLIFIED_UncorrUncertaintyNP3   = 1.0002 0.9998
EL_EFF_ID_SIMPLIFIED_UncorrUncertaintyNP2   = 1.0002 0.9998
MUON_EFF_RECO_STAT_LOWPT                    = 1.0001 0.9999
JET_JER_DataVsMC_MC16                       = 0.9999 1.0000
JET_JER_EffectiveNP_7                       = 1.0001 0.9999
JET_JER_EffectiveNP_9                       = 1.0001 1.0000
EL_EFF_ID_CorrUncertaintyNP8                = 0.9999 1.0001
EL_EFF_ID_CorrUncertaintyNP2                = 0.9999 1.0001
JET_Pileup_RhoTopology                      = 1.0001 1.0001
EL_EFF_ID_SIMPLIFIED_UncorrUncertaintyNP14  = 1.0001 0.9999
EL_EFF_ID_SIMPLIFIED_UncorrUncertaintyNP13  = 1.0001 0.9999
EL_EFF_ID_SIMPLIFIED_UncorrUncertaintyNP10  = 1.0001 0.9999
JET_JER_EffectiveNP_12restTerm              = 1.0001 0.9999
JET_JER_EffectiveNP_3                       = 1.0000 1.0001
JET_Flavor_Response_qq                      = 1.0000 1.0001
EL_EFF_ID_CorrUncertaintyNP15               = 0.9999 1.0001
EL_EFF_ID_SIMPLIFIED_UncorrUncertaintyNP5   = 1.0001 0.9999
EL_EFF_ID_SIMPLIFIED_UncorrUncertaintyNP4   = 1.0001 0.9999
JET_Pileup_OffsetNPV                        = 0.9999 1.0001
JET_SingleParticle_HighPt                   = 1.0000 1.0000
JET_PunchThrough_MC16                       = 1.0000 1.0000
JET_EffectiveNP_Modelling3                  = 1.0000 1.0000
JET_EffectiveNP_Modelling2                  = 1.0000 1.0000
JET_EffectiveNP_Modelling1                  = 1.0000 1.0000
JET_EffectiveNP_Modelling4                  = 1.0000 1.0000
JET_EffectiveNP_Detector2                   = 1.0000 1.0000
JET_EffectiveNP_Detector1                   = 1.0000 1.0000
JET_EffectiveNP_Statistical6                = 1.0000 1.0000
JET_EffectiveNP_Statistical5                = 1.0000 1.0000
JET_EffectiveNP_Statistical4                = 1.0000 1.0000
JET_EffectiveNP_Statistical3                = 1.0000 1.0000
JET_EffectiveNP_Statistical2                = 1.0000 1.0000
JET_EffectiveNP_Statistical1                = 1.0000 1.0000
JET_BJES_Response                           = 1.0000 1.0000
JET_EffectiveNP_Mixed1                      = 1.0000 1.0000
JET_EffectiveNP_Mixed3                      = 1.0000 1.0000
JET_EffectiveNP_Mixed2                      = 1.0000 1.0000
JET_EtaIntercalibration_TotalStat           = 1.0000 1.0000
JET_JER_EffectiveNP_5                       = 1.0000 1.0000
EG_SCALE_AF2                                = 1.0000 1.0000
EL_EFF_ID_CorrUncertaintyNP9                = 1.0000 1.0000
EL_EFF_ID_CorrUncertaintyNP1                = 1.0000 1.0000
JET_EtaIntercalibration_NonClosure_posEta   = 1.0000 1.0000
JET_JER_EffectiveNP_11                      = 1.0000 1.0000
JET_JER_EffectiveNP_10                      = 1.0000 1.0000
JET_Pileup_PtTerm                           = 1.0000 1.0000
JET_EtaIntercalibration_NonClosure_highE    = 1.0000 1.0000
JET_EtaIntercalibration_NonClosure_negEta   = 1.0000 1.0000
MUON_SAGITTA_RHO                            = 1.0000 1.0000
EL_EFF_ID_SIMPLIFIED_UncorrUncertaintyNP9   = 1.0000 1.0000
JET_JER_EffectiveNP_8                       = 1.0000 1.0000
EL_EFF_ID_SIMPLIFIED_UncorrUncertaintyNP1   = 1.0000 1.0000
EL_EFF_ID_SIMPLIFIED_UncorrUncertaintyNP0   = 1.0000 1.0000
JET_EtaIntercalibration_NonClosure_2018data = 1.0000 1.0000
[MCFM_MELA_ggZZ_SR_4l_Incl_bin_8_13TeV]
####bin_value/all_bins: 1.19%
HOQCD_syst_qqZZ                             = 1.0925 0.9110
H4l_Shower_UEPS_Sherpa_qqHM_CSSKIN_shape    = 1.0874 0.9126
H4l_Shower_UEPS_Sherpa_qqHM_CSSKIN_norm     = 1.0548 0.9452
HOEW_QCD_syst_qqZZ                          = 1.0271 0.9729
H4l_Shower_UEPS_Sherpa_qqHM_QSF_norm        = 1.0233 0.9767
H4l_Shower_UEPS_Sherpa_qqHM_QSF_shape       = 1.0155 0.9845
qqZZ_PDF_replica                            = 1.0109 0.9891
H4l_Shower_UEPS_Sherpa_qqHM_CKKW_shape      = 1.0088 0.9912
JET_JER_EffectiveNP_4                       = 1.0001 0.9917
MUON_EFF_RECO_SYS                           = 1.0081 0.9921
EG_SCALE_ALL                                = 0.9942 1.0063
MUON_SAGITTA_RHO                            = 1.0057 1.0057
H4l_Shower_UEPS_Sherpa_qqHM_CKKW_norm       = 1.0053 0.9947
MUON_EFF_ISO_SYS                            = 1.0052 0.9948
EL_EFF_ID_SIMPLIFIED_UncorrUncertaintyNP8   = 1.0046 0.9954
EL_EFF_Reco_TOTAL_1NPCOR_PLUS_UNCOR         = 1.0045 0.9955
EL_EFF_ID_SIMPLIFIED_UncorrUncertaintyNP17  = 1.0028 0.9972
MUON_EFF_ISO_STAT                           = 1.0025 0.9975
MUON_EFF_RECO_STAT                          = 1.0019 0.9981
MUON_EFF_TTVA_SYS                           = 1.0018 0.9984
MUON_EFF_TTVA_STAT                          = 1.0012 0.9988
MUON_MS                                     = 0.9990 1.0010
MUON_SAGITTA_RESBIAS                        = 0.9991 0.9990
PRW_DATASF                                  = 1.0010 0.9999
EL_EFF_Iso_TOTAL_1NPCOR_PLUS_UNCOR          = 1.0009 0.9991
EL_EFF_ID_CorrUncertaintyNP13               = 0.9991 1.0009
MUON_SCALE                                  = 1.0007 0.9991
HOEW_syst_qqZZ                              = 0.9993 1.0007
EL_EFF_ID_CorrUncertaintyNP14               = 0.9993 1.0007
JET_JER_EffectiveNP_1                       = 0.9994 1.0007
JET_Pileup_OffsetMu                         = 0.9995 1.0002
EL_EFF_ID_CorrUncertaintyNP7                = 0.9995 1.0005
MUON_ID                                     = 0.9998 1.0004
JET_Flavor_Composition_qq                   = 0.9998 1.0004
EL_EFF_ID_CorrUncertaintyNP6                = 0.9996 1.0004
EG_RESOLUTION_ALL                           = 0.9999 1.0003
EL_EFF_ID_CorrUncertaintyNP12               = 0.9997 1.0003
JET_fJvtEfficiency                          = 0.9998 1.0003
JET_EtaIntercalibration_Modelling           = 0.9997 1.0001
EL_EFF_ID_SIMPLIFIED_UncorrUncertaintyNP7   = 1.0003 0.9997
JET_Pileup_OffsetNPV                        = 0.9997 0.9999
JET_EffectiveNP_Modelling1                  = 0.9998 0.9999
JET_JER_EffectiveNP_7                       = 1.0000 0.9998
EL_EFF_ID_CorrUncertaintyNP4                = 1.0002 0.9998
EL_EFF_ID_CorrUncertaintyNP5                = 0.9998 1.0002
EL_EFF_ID_CorrUncertaintyNP3                = 0.9998 1.0002
EL_EFF_ID_CorrUncertaintyNP0                = 1.0002 0.9998
JET_Pileup_RhoTopology                      = 0.9998 1.0000
EL_EFF_ID_SIMPLIFIED_UncorrUncertaintyNP16  = 1.0002 0.9998
JET_Pileup_PtTerm                           = 0.9998 0.9999
EL_EFF_ID_CorrUncertaintyNP10               = 1.0002 0.9998
JET_JER_EffectiveNP_8                       = 0.9998 1.0001
JET_EffectiveNP_Statistical2                = 1.0000 0.9999
JET_JER_DataVsMC_MC16                       = 1.0001 0.9999
JET_EtaIntercalibration_TotalStat           = 0.9999 0.9999
JET_JER_EffectiveNP_2                       = 1.0001 0.9999
JET_JER_EffectiveNP_6                       = 1.0001 0.9999
JET_JER_EffectiveNP_5                       = 1.0000 0.9999
EL_EFF_ID_CorrUncertaintyNP8                = 0.9999 1.0001
EL_EFF_ID_CorrUncertaintyNP9                = 0.9999 1.0001
EL_EFF_ID_CorrUncertaintyNP2                = 0.9999 1.0001
EL_EFF_ID_CorrUncertaintyNP1                = 1.0001 0.9999
EL_EFF_ID_CorrUncertaintyNP11               = 1.0001 0.9999
EL_EFF_ID_SIMPLIFIED_UncorrUncertaintyNP15  = 1.0001 0.9999
JET_JER_EffectiveNP_3                       = 1.0001 1.0000
JET_Flavor_Response_qq                      = 1.0001 1.0000
JET_JER_EffectiveNP_10                      = 0.9999 1.0000
EL_EFF_ID_CorrUncertaintyNP15               = 0.9999 1.0001
EL_EFF_ID_SIMPLIFIED_UncorrUncertaintyNP6   = 1.0001 0.9999
JET_EtaIntercalibration_NonClosure_2018data = 1.0000 0.9999
JET_SingleParticle_HighPt                   = 1.0000 1.0000
JET_PunchThrough_MC16                       = 1.0000 1.0000
JET_EffectiveNP_Modelling3                  = 1.0000 1.0000
JET_EffectiveNP_Modelling2                  = 1.0000 1.0000
JET_EffectiveNP_Modelling4                  = 1.0000 1.0000
JET_EffectiveNP_Detector2                   = 1.0000 1.0000
JET_EffectiveNP_Detector1                   = 1.0000 1.0000
MUON_EFF_RECO_STAT_LOWPT                    = 1.0000 1.0000
JET_EffectiveNP_Statistical6                = 1.0000 1.0000
JET_EffectiveNP_Statistical5                = 1.0000 1.0000
JET_EffectiveNP_Statistical4                = 1.0000 1.0000
JET_EffectiveNP_Statistical3                = 1.0000 1.0000
JET_EffectiveNP_Statistical1                = 1.0000 1.0000
JET_BJES_Response                           = 1.0000 1.0000
JET_EffectiveNP_Mixed1                      = 1.0000 1.0000
JET_EffectiveNP_Mixed3                      = 1.0000 1.0000
JET_EffectiveNP_Mixed2                      = 1.0000 1.0000
JET_JER_EffectiveNP_9                       = 1.0000 1.0000
EG_SCALE_AF2                                = 1.0000 1.0000
MUON_EFF_RECO_SYS_LOWPT                     = 1.0000 1.0000
JET_EtaIntercalibration_NonClosure_posEta   = 1.0000 1.0000
EL_EFF_ID_SIMPLIFIED_UncorrUncertaintyNP14  = 1.0000 1.0000
EL_EFF_ID_SIMPLIFIED_UncorrUncertaintyNP13  = 1.0000 1.0000
EL_EFF_ID_SIMPLIFIED_UncorrUncertaintyNP12  = 1.0000 1.0000
EL_EFF_ID_SIMPLIFIED_UncorrUncertaintyNP11  = 1.0000 1.0000
EL_EFF_ID_SIMPLIFIED_UncorrUncertaintyNP10  = 1.0000 1.0000
JET_JER_EffectiveNP_12restTerm              = 1.0000 1.0000
JET_JER_EffectiveNP_11                      = 1.0000 1.0000
JET_EtaIntercalibration_NonClosure_highE    = 1.0000 1.0000
JET_EtaIntercalibration_NonClosure_negEta   = 1.0000 1.0000
EL_EFF_ID_SIMPLIFIED_UncorrUncertaintyNP9   = 1.0000 1.0000
EL_EFF_ID_SIMPLIFIED_UncorrUncertaintyNP3   = 1.0000 1.0000
EL_EFF_ID_SIMPLIFIED_UncorrUncertaintyNP2   = 1.0000 1.0000
EL_EFF_ID_SIMPLIFIED_UncorrUncertaintyNP1   = 1.0000 1.0000
EL_EFF_ID_SIMPLIFIED_UncorrUncertaintyNP0   = 1.0000 1.0000
EL_EFF_ID_SIMPLIFIED_UncorrUncertaintyNP5   = 1.0000 1.0000
EL_EFF_ID_SIMPLIFIED_UncorrUncertaintyNP4   = 1.0000 1.0000
[MCFM_MELA_ggZZ_SR_4l_Incl_bin_9_13TeV]
####bin_value/all_bins: 0.09%
H4l_Shower_UEPS_Sherpa_qqHM_CSSKIN_shape    = 1.1083 0.8917
HOQCD_syst_qqZZ                             = 1.1070 0.9097
H4l_Shower_UEPS_Sherpa_qqHM_CSSKIN_norm     = 1.0548 0.9452
HOEW_QCD_syst_qqZZ                          = 1.0307 0.9693
H4l_Shower_UEPS_Sherpa_qqHM_QSF_shape       = 1.0242 0.9758
H4l_Shower_UEPS_Sherpa_qqHM_QSF_norm        = 1.0233 0.9767
EG_SCALE_ALL                                = 0.9835 1.0190
H4l_Shower_UEPS_Sherpa_qqHM_CKKW_shape      = 1.0144 0.9856
MUON_ID                                     = 0.9880 1.0000
JET_Flavor_Composition_qq                   = 0.9880 1.0000
JET_JER_EffectiveNP_4                       = 1.0006 0.9894
MUON_EFF_RECO_SYS                           = 1.0103 0.9899
MUON_EFF_ISO_SYS                            = 1.0083 0.9918
MUON_SAGITTA_RHO                            = 1.0066 1.0066
qqZZ_PDF_replica                            = 1.0063 0.9937
EL_EFF_ID_SIMPLIFIED_UncorrUncertaintyNP8   = 1.0060 0.9941
H4l_Shower_UEPS_Sherpa_qqHM_CKKW_norm       = 1.0053 0.9947
MUON_EFF_ISO_STAT                           = 1.0043 0.9957
EL_EFF_Reco_TOTAL_1NPCOR_PLUS_UNCOR         = 1.0037 0.9963
MUON_SAGITTA_RESBIAS                        = 0.9976 0.9968
EL_EFF_ID_SIMPLIFIED_UncorrUncertaintyNP17  = 1.0030 0.9971
MUON_MS                                     = 1.0006 1.0024
MUON_SCALE                                  = 1.0024 0.9994
EL_EFF_ID_CorrUncertaintyNP13               = 0.9978 1.0022
JET_JER_EffectiveNP_1                       = 0.9989 1.0021
EL_EFF_ID_CorrUncertaintyNP14               = 0.9979 1.0021
MUON_EFF_RECO_STAT                          = 1.0020 0.9980
MUON_EFF_TTVA_SYS                           = 1.0020 0.9982
MUON_EFF_TTVA_STAT                          = 1.0014 0.9986
PRW_DATASF                                  = 0.9986 1.0009
EL_EFF_Iso_TOTAL_1NPCOR_PLUS_UNCOR          = 1.0012 0.9988
EG_RESOLUTION_ALL                           = 1.0011 1.0011
JET_JER_EffectiveNP_6                       = 1.0008 0.9989
JET_JER_EffectiveNP_2                       = 1.0003 0.9993
JET_EtaIntercalibration_Modelling           = 0.9993 1.0001
HOEW_syst_qqZZ                              = 0.9994 1.0006
JET_Pileup_OffsetMu                         = 0.9994 0.9997
JET_JER_EffectiveNP_9                       = 0.9995 1.0006
JET_JER_EffectiveNP_8                       = 0.9998 1.0005
JET_EffectiveNP_Modelling1                  = 1.0000 0.9996
JET_JER_DataVsMC_MC16                       = 1.0000 0.9996
JET_JER_EffectiveNP_5                       = 0.9996 1.0002
JET_JER_EffectiveNP_3                       = 1.0004 0.9997
JET_Flavor_Response_qq                      = 1.0004 0.9997
EL_EFF_ID_CorrUncertaintyNP6                = 0.9997 1.0003
EL_EFF_ID_CorrUncertaintyNP7                = 0.9997 1.0003
EL_EFF_ID_CorrUncertaintyNP12               = 0.9997 1.0003
JET_Pileup_RhoTopology                      = 0.9998 0.9997
JET_JER_EffectiveNP_10                      = 1.0000 0.9997
EL_EFF_ID_CorrUncertaintyNP15               = 0.9997 1.0003
JET_JER_EffectiveNP_7                       = 0.9998 0.9999
EL_EFF_ID_CorrUncertaintyNP8                = 0.9998 1.0002
EL_EFF_ID_CorrUncertaintyNP4                = 1.0002 0.9998
EL_EFF_ID_CorrUncertaintyNP5                = 0.9998 1.0002
EL_EFF_ID_CorrUncertaintyNP3                = 0.9998 1.0002
EL_EFF_ID_CorrUncertaintyNP11               = 0.9998 1.0002
JET_JER_EffectiveNP_11                      = 0.9998 0.9999
JET_Pileup_OffsetNPV                        = 0.9998 1.0000
JET_EffectiveNP_Statistical2                = 1.0000 1.0001
JET_BJES_Response                           = 0.9999 1.0000
JET_EffectiveNP_Mixed2                      = 1.0000 1.0001
JET_EtaIntercalibration_TotalStat           = 1.0001 1.0000
EL_EFF_ID_CorrUncertaintyNP9                = 0.9999 1.0001
EL_EFF_ID_CorrUncertaintyNP2                = 0.9999 1.0001
EL_EFF_ID_CorrUncertaintyNP0                = 1.0001 0.9999
EL_EFF_ID_CorrUncertaintyNP1                = 1.0001 0.9999
JET_Pileup_PtTerm                           = 1.0001 1.0000
EL_EFF_ID_CorrUncertaintyNP10               = 1.0001 0.9999
JET_EtaIntercalibration_NonClosure_2018data = 0.9999 0.9999
JET_SingleParticle_HighPt                   = 1.0000 1.0000
JET_PunchThrough_MC16                       = 1.0000 1.0000
JET_EffectiveNP_Modelling3                  = 1.0000 1.0000
JET_EffectiveNP_Modelling2                  = 1.0000 1.0000
JET_EffectiveNP_Modelling4                  = 1.0000 1.0000
JET_EffectiveNP_Detector2                   = 1.0000 1.0000
JET_EffectiveNP_Detector1                   = 1.0000 1.0000
MUON_EFF_RECO_STAT_LOWPT                    = 1.0000 1.0000
JET_EffectiveNP_Statistical6                = 1.0000 1.0000
JET_EffectiveNP_Statistical5                = 1.0000 1.0000
JET_EffectiveNP_Statistical4                = 1.0000 1.0000
JET_EffectiveNP_Statistical3                = 1.0000 1.0000
JET_EffectiveNP_Statistical1                = 1.0000 1.0000
JET_EffectiveNP_Mixed1                      = 1.0000 1.0000
JET_EffectiveNP_Mixed3                      = 1.0000 1.0000
EG_SCALE_AF2                                = 1.0000 1.0000
MUON_EFF_RECO_SYS_LOWPT                     = 1.0000 1.0000
JET_EtaIntercalibration_NonClosure_posEta   = 1.0000 1.0000
JET_fJvtEfficiency                          = 1.0000 1.0000
EL_EFF_ID_SIMPLIFIED_UncorrUncertaintyNP16  = 1.0000 1.0000
EL_EFF_ID_SIMPLIFIED_UncorrUncertaintyNP15  = 1.0000 1.0000
EL_EFF_ID_SIMPLIFIED_UncorrUncertaintyNP14  = 1.0000 1.0000
EL_EFF_ID_SIMPLIFIED_UncorrUncertaintyNP13  = 1.0000 1.0000
EL_EFF_ID_SIMPLIFIED_UncorrUncertaintyNP12  = 1.0000 1.0000
EL_EFF_ID_SIMPLIFIED_UncorrUncertaintyNP11  = 1.0000 1.0000
EL_EFF_ID_SIMPLIFIED_UncorrUncertaintyNP10  = 1.0000 1.0000
JET_JER_EffectiveNP_12restTerm              = 1.0000 1.0000
JET_EtaIntercalibration_NonClosure_highE    = 1.0000 1.0000
JET_EtaIntercalibration_NonClosure_negEta   = 1.0000 1.0000
EL_EFF_ID_SIMPLIFIED_UncorrUncertaintyNP9   = 1.0000 1.0000
EL_EFF_ID_SIMPLIFIED_UncorrUncertaintyNP3   = 1.0000 1.0000
EL_EFF_ID_SIMPLIFIED_UncorrUncertaintyNP2   = 1.0000 1.0000
EL_EFF_ID_SIMPLIFIED_UncorrUncertaintyNP1   = 1.0000 1.0000
EL_EFF_ID_SIMPLIFIED_UncorrUncertaintyNP0   = 1.0000 1.0000
EL_EFF_ID_SIMPLIFIED_UncorrUncertaintyNP7   = 1.0000 1.0000
EL_EFF_ID_SIMPLIFIED_UncorrUncertaintyNP6   = 1.0000 1.0000
EL_EFF_ID_SIMPLIFIED_UncorrUncertaintyNP5   = 1.0000 1.0000
EL_EFF_ID_SIMPLIFIED_UncorrUncertaintyNP4   = 1.0000 1.0000
