Info in <TCanvas::MakeDefCanvas>:  created default TCanvas with name c1
InSample mc16_13TeV.346899.Sherpa_222_NNPDF30NNLO_llll_m4l100_300_filt100_170.root
['qqBkg_2']
['weight']
1
!!python/object/apply:collections.OrderedDict
- - - SR_4l_NN_SM_100bins_NN_MELA_0p1ggF_0p9qqZZ
    - - ((220<=m4l_fsr)&&(m4l_fsr<=2000))
      - log10(NN_MELA_incl_ggH/(0.1*NN_MELA_incl_ggZZ+0.9*NN_MELA_incl_qqZZ))
      - - -2.0
        - -1.963
        - -1.926
        - -1.889
        - -1.8519999999999999
        - -1.815
        - -1.778
        - -1.741
        - -1.704
        - -1.6669999999999998
        - -1.63
        - -1.593
        - -1.556
        - -1.519
        - -1.482
        - -1.4449999999999998
        - -1.408
        - -1.371
        - -1.3339999999999999
        - -1.297
        - -1.2599999999999998
        - -1.2229999999999999
        - -1.186
        - -1.149
        - -1.1119999999999999
        - -1.0749999999999997
        - -1.0379999999999998
        - -1.001
        - -0.964
        - -0.9269999999999998
        - -0.8899999999999999
        - -0.8529999999999998
        - -0.8159999999999998
        - -0.7789999999999999
        - -0.7419999999999998
        - -0.7049999999999998
        - -0.6679999999999997
        - -0.6309999999999998
        - -0.5939999999999999
        - -0.5569999999999997
        - -0.5199999999999998
        - -0.4829999999999999
        - -0.44599999999999973
        - -0.4089999999999998
        - -0.3719999999999999
        - -0.33499999999999974
        - -0.2979999999999998
        - -0.2609999999999997
        - -0.22399999999999975
        - -0.18699999999999983
        - -0.1499999999999997
        - -0.11299999999999977
        - -0.07599999999999962
        - -0.0389999999999997
        - -0.0019999999999997797
        - 0.03500000000000014
        - 0.07200000000000006
        - 0.10900000000000043
        - 0.14600000000000035
        - 0.18300000000000027
        - 0.2200000000000002
        - 0.2570000000000001
        - 0.2940000000000005
        - 0.3310000000000004
        - 0.3680000000000003
        - 0.40500000000000025
        - 0.44200000000000017
        - 0.47900000000000054
        - 0.5160000000000005
        - 0.5530000000000004
        - 0.5900000000000003
        - 0.6270000000000002
        - 0.6640000000000006
        - 0.7010000000000005
        - 0.7380000000000004
        - 0.7750000000000004
        - 0.8120000000000003
        - 0.8490000000000002
        - 0.8860000000000006
        - 0.9230000000000005
        - 0.9600000000000004
        - 0.9970000000000003
        - 1.0340000000000003
        - 1.0710000000000006
        - 1.1080000000000005
        - 1.1450000000000005
        - 1.1820000000000004
        - 1.2190000000000003
        - 1.2560000000000002
        - 1.2930000000000006
        - 1.3300000000000005
        - 1.3670000000000004
        - 1.4040000000000004
        - 1.4410000000000003
        - 1.4780000000000006
        - 1.5150000000000006
        - 1.5520000000000005
        - 1.5890000000000004
        - 1.6260000000000003
        - 1.6630000000000007
        - 1.7

doing Campaign mc16e...
Filling nominal histograms qqBkg_2 ...
Writing...Name: Nom_hist Title: Nom_hist NbinsX: 100
13.196421598899178
