mT_ZZ_SR_2l2nu_Incl_bin_1_13TeV & mT_ZZ_SR_2l2nu_Incl_bin_2_13TeV & mT_ZZ_SR_2l2nu_Incl_bin_3_13TeV & mT_ZZ_SR_2l2nu_Incl_bin_4_13TeV & mT_ZZ_SR_2l2nu_Incl_bin_5_13TeV & mT_ZZ_SR_2l2nu_Incl_bin_6_13TeV & mT_ZZ_SR_2l2nu_Incl_bin_7_13TeV & mT_ZZ_SR_2l2nu_Incl_bin_8_13TeV & mT_ZZ_SR_2l2nu_Incl_bin_9_13TeV & mT_ZZ_SR_2l2nu_Incl_bin_10_13TeV & mT_ZZ_SR_2l2nu_Incl_bin_11_13TeV & mT_ZZ_SR_2l2nu_Incl_bin_12_13TeV & mT_ZZ_SR_2l2nu_Incl_bin_13_13TeV & mT_ZZ_SR_2l2nu_Incl_bin_14_13TeV & mT_ZZ_SR_2l2nu_Incl_bin_15_13TeV 
n_qqZZ_4l & 1.560697 & 12.483679 & 8.539968 & 5.903372 & 3.612232 & 2.040007 & 1.269700 & 1.418947 & 0.528141 & 0.185965 & 0.169136 & 0.138976 & 0.053774 & 0.040604 & 0.014600
n_qqZZ_2l2v  & 70.903931 & 496.205750 & 312.065063 & 181.968307 & 107.845703 & 66.775261 & 44.692886 & 52.393669 & 22.752378 & 13.561818 & 7.580649 & 6.764429 & 2.757472 & 1.864032 & 0.053305
n_ggZZ  & 12.390705 & 76.900993 & 51.201439 & 30.622299 & 18.560440 & 11.614310 & 7.361487 & 7.700698 & 3.350595 & 1.643010 & 0.770125 & 0.671763 & 0.196269 & 0.104457 & 0.004037
n_VBF  & 0.517042 & 2.857783 & 3.397984 & 2.921318 & 2.341476 & 1.798725 & 1.331490 & 1.810788 & 1.073595 & 0.673144 & 0.414667 & 0.421205 & 0.194863 & 0.133081 & 0.011344
n_WZ_3lep  & 37.873322 & 278.558441 & 180.598175 & 105.602570 & 60.362755 & 36.405388 & 24.387909 & 24.598625 & 11.850126 & 5.504478 & 1.906116 & 2.346890 & 0.786523 & 0.746386 & 0.018216
n_Zjets_bkg  & 6.907340 & 34.254192 & 15.187637 & 15.356022 & 7.200247 & 3.306532 & 1.477414 & 1.008776 & 0.459151 & 0.151568 & 0.025377 & 0.032996 & 0.000000 & 0.022141 & 0.000000
n_tot_emu_bkg  & 28.480814 & 75.778465 & 22.693203 & 7.088220 & 2.026907 & 0.860751 & 0.589416 & 0.800207 & 0.334112 & 0.232862 & 0.131844 & 0.132729 & 0.026415 & 0.074144 & 0.000000
n_others_bkg  & 0.795157 & 5.423118 & 5.359008 & 3.967854 & 3.151063 & 2.108429 & 1.366902 & 1.735733 & 0.827893 & 0.501951 & 0.250538 & 0.235030 & 0.092543 & 0.061030 & 0.005120
n_OtpSM  & -0.040476 & -0.476623 & -0.650100 & -0.509253 & -0.352829 & -0.247816 & -0.168323 & -0.179270 & -0.068892 & -0.028627 & -0.014948 & -0.007042 & 0.000003 & -0.000956 & 0.000233
n_OpgSM  & 8.258456 & 93.347679 & 118.221817 & 94.385132 & 72.266190 & 53.029724 & 40.857491 & 53.465988 & 30.872156 & 18.627522 & 12.127482 & 15.190923 & 6.837292 & 2.899912 & 0.554081
n_OpgSqrd  & 132.832504 & 1273.131836 & 1416.755859 & 1308.962769 & 1200.036133 & 1045.943848 & 929.395020 & 1494.869751 & 1150.287842 & 888.028809 & 680.981628 & 951.060425 & 582.123962 & 677.984253 & 69.358177
n_OtpSqrd  & 0.003963 & 0.042759 & 0.050584 & 0.043468 & 0.033841 & 0.023797 & 0.018088 & 0.023296 & 0.012875 & 0.007100 & 0.004388 & 0.004061 & 0.001314 & 0.000882 & 0.000066
n_OpgOtp  & -1.086440 & -10.976537 & -12.278304 & -9.963177 & -7.504820 & -5.261333 & -3.730561 & -4.300711 & -2.063926 & -0.984055 & -0.449695 & -0.277341 & -0.006534 & 0.086569 & 0.010582