0.0 300.0 1.11258436846 0.887415631537 
300.0 350.0 1.08541344273 0.914586557266 
350.0 400.0 1.05178623243 0.948213767573 
400.0 450.0 1.03877040507 0.961229594928 
450.0 500.0 1.03357149056 0.966428509436 
500.0 550.0 1.04905128222 0.950948717783 
550.0 600.0 1.02298792118 0.977012078824 
600.0 700.0 1.04384613275 0.95615386725 
700.0 800.0 1.03433169652 0.965668303479 
800.0 900.0 1.09783464339 0.902165356611 
900.0 1000.0 1.0298420536 0.970157946402 
1000.0 1200.0 1.02821193672 0.97178806328 
1200.0 1400.0 1.03000948481 0.969990515191 
1400.0 2000.0 1.02421001984 0.975789980156 
2000.0 3000.0 1.13446890241 0.865531097591 
