0.0 300.0 1.18846755703 0.811532442973 
300.0 350.0 1.27152444337 0.728475556629 
350.0 400.0 1.14660393003 0.853396069972 
400.0 450.0 1.21441528405 0.785584715951 
450.0 500.0 1.22677751936 0.773222480636 
500.0 550.0 1.11830693595 0.881693064054 
550.0 600.0 1.14069836512 0.859301634884 
600.0 700.0 1.09704779802 0.902952201984 
700.0 800.0 1.30785329989 0.692146700112 
800.0 900.0 1.28995906104 0.710040938957 
900.0 1000.0 1.10501286348 0.894987136523 
1000.0 1200.0 1.04489212504 0.955107874963 
1200.0 1400.0 1.04380716089 0.956192839112 
1400.0 2000.0 1.14300331067 0.856996689331 
2000.0 3000.0 1.2244793163 0.775520683704 
