n_jets_CR_3lep_0jet_Incl_bin_1_13TeV & upVar & dnVar & n_jets_CR_3lep_1jet_Incl_bin_1_13TeV & upVar & dnVar & n_jets_CR_3lep_2jet_Incl_bin_1_13TeV & upVar & dnVar & mT_ZZ_CR_emu_Incl_bin_1_13TeV & upVar & dnVar & mT_ZZ_CR_ZJets_Incl_bin_1_13TeV & upVar & dnVar & mT_ZZ_SR_ggF_Incl_bin_1_13TeV & upVar & dnVar & mT_ZZ_SR_ggF_Incl_bin_2_13TeV & upVar & dnVar & mT_ZZ_SR_ggF_Incl_bin_3_13TeV & upVar & dnVar & mT_ZZ_SR_ggF_Incl_bin_4_13TeV & upVar & dnVar & mT_ZZ_SR_ggF_Incl_bin_5_13TeV & upVar & dnVar & mT_ZZ_SR_ggF_Incl_bin_6_13TeV & upVar & dnVar & mT_ZZ_SR_ggF_Incl_bin_7_13TeV & upVar & dnVar & mT_ZZ_SR_ggF_Incl_bin_8_13TeV & upVar & dnVar & mT_ZZ_SR_ggF_Incl_bin_9_13TeV & upVar & dnVar & mT_ZZ_SR_ggF_Incl_bin_10_13TeV & upVar & dnVar & mT_ZZ_SR_ggF_Incl_bin_11_13TeV & upVar & dnVar & mT_ZZ_SR_ggF_Incl_bin_12_13TeV & upVar & dnVar & mT_ZZ_SR_ggF_Incl_bin_13_13TeV & upVar & dnVar & mT_ZZ_SR_ggF_Incl_bin_14_13TeV & upVar & dnVar & mT_ZZ_SR_ggF_Incl_bin_15_13TeV & upVar & dnVar & mT_ZZ_SR_Mixed_Incl_bin_1_13TeV & upVar & dnVar & mT_ZZ_SR_Mixed_Incl_bin_2_13TeV & upVar & dnVar & mT_ZZ_SR_Mixed_Incl_bin_3_13TeV & upVar & dnVar & mT_ZZ_SR_Mixed_Incl_bin_4_13TeV & upVar & dnVar & mT_ZZ_SR_VBF_Incl_bin_1_13TeV & upVar & dnVar & mT_ZZ_SR_VBF_Incl_bin_2_13TeV & upVar & dnVar & mT_ZZ_SR_VBF_Incl_bin_3_13TeV & upVar & dnVar & mT_ZZ_SR_VBF_Incl_bin_4_13TeV & upVar & dnVar 
n_ggSBINLOI  &  0.9611 &  0.9696 &   &  1.0109 &  1.0393 &   &  1.0041 &  1.0370 &   &  1.0003 &  1.0001 &   &  0.9863 &  1.0089 &   &  1.0007 &  0.9996 &   &  1.0023 &  0.9979 &   &  1.0020 &  0.9986 &   &  1.0018 &  0.9983 &   &  1.0001 &  1.0031 &   &  0.9973 &  0.9989 &   &  1.0048 &  1.0021 &   &  0.9981 &  0.9999 &   &  1.0028 &  0.9991 &   &  0.9928 &  0.9970 &   &  1.0080 &  1.0030 &   &  0.9894 &  0.9978 &   &  1.0011 &  0.9994 &   &  0.9987 &  1.0003 &   &  1.0001 &  1.0000 &   &  1.0015 &  1.0008 &   &  1.0026 &  0.9978 &   &  0.9992 &  0.9902 &   &  1.0201 &  0.9923 &   &  1.0016 &  1.0117 &   &  0.9975 &  1.0030 &   &  1.0101 &  1.0049 &   &  0.9836 &  1.0109 &  
n_ggBNLO  &  1.0 &  1.0 &   &  1.0 &  1.0 &   &  1.0 &  1.0 &   &  1.0 &  1.0 &   &  0.9872 &  1.0044 &   &  1.0037 &  0.9986 &   &  1.0033 &  0.9986 &   &  1.0013 &  1.0000 &   &  1.0003 &  0.9991 &   &  1.0031 &  1.0009 &   &  1.0006 &  0.9978 &   &  0.9998 &  1.0037 &   &  1.0018 &  0.9976 &   &  0.9982 &  1.0033 &   &  1.0021 &  0.9972 &   &  1.0005 &  1.0018 &   &  1.0055 &  0.9961 &   &  1.0009 &  1.0008 &   &  1.0058 &  1.0042 &   &  1.0005 &  1.0420 &   &  1.0013 &  1.0010 &   &  0.9999 &  1.0061 &   &  0.9998 &  0.9985 &   &  0.9837 &  0.9805 &   &  0.9925 &  1.0018 &   &  0.9850 &  1.0021 &   &  0.9964 &  1.0010 &   &  1.0188 &  0.9916 &  
n_ggSNLO  &  1.0 &  1.0 &   &  1.0 &  1.0 &   &  1.0 &  1.0 &   &  1.0 &  1.0 &   &  0.9886 &  1.0027 &   &  0.9994 &  1.0016 &   &  1.0037 &  0.9983 &   &  1.0021 &  0.9997 &   &  1.0036 &  0.9989 &   &  1.0002 &  0.9998 &   &  1.0035 &  0.9999 &   &  0.9995 &  1.0001 &   &  1.0019 &  0.9989 &   &  0.9990 &  1.0010 &   &  1.0003 &  1.0024 &   &  0.9982 &  0.9994 &   &  1.0006 &  1.0008 &   &  1.0023 &  0.9955 &   &  0.9986 &  1.0021 &   &  1.0032 &  1.0082 &   &  1.0016 &  0.9984 &   &  0.9976 &  0.9994 &   &  1.0021 &  0.9940 &   &  0.9974 &  1.0041 &   &  0.9826 &  1.0109 &   &  0.9871 &  1.0080 &   &  0.9931 &  1.0052 &   &  0.9903 &  0.9906 &  
n_VBFSBI  &  1.0 &  1.0 &   &  1.0 &  1.0 &   &  1.0 &  1.0 &   &  1.0 &  1.0 &   &  0.9952 &  1.0049 &   &  0.9888 &  1.0185 &   &  1.0056 &  1.0021 &   &  0.9934 &  0.9980 &   &  1.0010 &  1.0036 &   &  0.9998 &  0.9913 &   &  0.9998 &  1.0089 &   &  1.0024 &  0.9949 &   &  1.0057 &  1.0021 &   &  0.9924 &  1.0001 &   &  1.0152 &  1.0031 &   &  0.9947 &  0.9905 &   &  1.0084 &  1.0010 &   &  1.0025 &  0.9982 &   &  1.0035 &  1.0069 &   &  0.9948 &  0.9705 &   &  1.0000 &  0.9967 &   &  1.0094 &  1.0088 &   &  1.0025 &  0.9976 &   &  0.9902 &  1.0003 &   &  1.0004 &  0.9979 &   &  0.9989 &  0.9942 &   &  1.0026 &  0.9983 &   &  0.9943 &  1.0045 &  
n_VBFB  &  1.0 &  1.0 &   &  1.0 &  1.0 &   &  1.0 &  1.0 &   &  1.0 &  1.0 &   &  0.9965 &  0.9994 &   &  1.0159 &  0.9982 &   &  0.9953 &  1.0032 &   &  1.0003 &  1.0006 &   &  1.0022 &  0.9986 &   &  1.0038 &  0.9948 &   &  0.9941 &  1.0086 &   &  1.0140 &  0.9926 &   &  0.9970 &  1.0025 &   &  1.0025 &  0.9977 &   &  0.9950 &  1.0000 &   &  1.0002 &  1.0050 &   &  0.9966 &  0.9977 &   &  1.0039 &  0.9977 &   &  0.9981 &  1.0042 &   &  0.9926 &  0.9988 &   &  0.9989 &  0.9965 &   &  1.0026 &  0.9912 &   &  1.0028 &  0.9938 &   &  1.0044 &  1.0013 &   &  1.0011 &  1.0016 &   &  1.0055 &  1.0019 &   &  0.9994 &  1.0007 &   &  0.9984 &  0.9990 &  
n_VBFSBI5  &  1.0 &  1.0 &   &  1.0 &  1.0 &   &  1.0 &  1.0 &   &  1.0 &  1.0 &   &  0.9956 &  1.0001 &   &  1.0352 &  0.9800 &   &  1.0049 &  0.9974 &   &  0.9986 &  0.9968 &   &  1.0057 &  1.0023 &   &  0.9965 &  1.0006 &   &  0.9978 &  1.0008 &   &  1.0050 &  1.0049 &   &  0.9984 &  0.9998 &   &  0.9994 &  1.0036 &   &  0.9994 &  0.9982 &   &  0.9994 &  1.0037 &   &  0.9901 &  1.0073 &   &  1.0013 &  1.0037 &   &  0.9966 &  0.9977 &   &  1.0251 &  0.9542 &   &  1.0079 &  0.9965 &   &  1.0083 &  0.9962 &   &  1.0046 &  0.9964 &   &  1.0066 &  0.9978 &   &  1.0027 &  1.0055 &   &  1.0010 &  0.9965 &   &  1.0005 &  0.9989 &   &  0.9973 &  0.9977 &  
n_VBFSBI10  &  1.0 &  1.0 &   &  1.0 &  1.0 &   &  1.0 &  1.0 &   &  1.0 &  1.0 &   &  0.9992 &  1.0010 &   &  1.0238 &  0.9958 &   &  0.9980 &  1.0060 &   &  1.0034 &  0.9986 &   &  0.9976 &  0.9999 &   &  0.9978 &  1.0027 &   &  1.0017 &  0.9965 &   &  1.0012 &  1.0004 &   &  1.0022 &  0.9960 &   &  1.0022 &  0.9988 &   &  0.9974 &  1.0016 &   &  1.0041 &  1.0016 &   &  0.9928 &  1.0056 &   &  0.9968 &  1.0034 &   &  0.9977 &  1.0067 &   &  1.0146 &  1.0046 &   &  1.0110 &  0.9948 &   &  1.0028 &  0.9958 &   &  0.9968 &  1.0007 &   &  1.0017 &  0.9985 &   &  1.0031 &  1.0015 &   &  1.0028 &  1.0015 &   &  1.0012 &  1.0006 &   &  1.0022 &  0.9974 &  
n_WZ_3lep_Part0  &  1.0050 &  0.9979 &   &  1.0 &  1.0 &   &  1.0 &  1.0 &   &  1.0266 &  0.9437 &   &  0.9273 &  0.9347 &   &  0.9803 &  1.0146 &   &  1.0017 &  0.9894 &   &  1.0021 &  0.9990 &   &  0.9967 &  1.0009 &   &  0.9924 &  0.9815 &   &  1.0077 &  0.9759 &   &  0.9843 &  1.0080 &   &  0.9965 &  0.9601 &   &  0.9649 &  1.0397 &   &  0.9910 &  0.9749 &   &  1.0 &  1.0 &   &  1.0524 &  1.1142 &   &  1.0000 &  1.0000 &   &  1.0649 &  1.0000 &   &  1.0 &  1.0 &   &  1.0 &  1.0 &   &  1.0 &  1.0 &   &  1.0 &  1.0 &   &  1.0 &  1.0 &   &  1.0 &  1.0 &   &  1.0 &  1.0 &   &  1.0 &  1.0 &   &  1.0 &  1.0 &  
n_WZ_3lep_Part1  &  1.0 &  1.0 &   &  0.9974 &  1.0025 &   &  1.0 &  1.0 &   &  1.0417 &  1.1619 &   &  0.9676 &  1.0086 &   &  0.9826 &  1.0239 &   &  1.0104 &  1.0245 &   &  0.9956 &  1.0109 &   &  1.0241 &  0.9881 &   &  1.0115 &  1.0007 &   &  0.9885 &  0.9936 &   &  1.0144 &  1.0117 &   &  1.0235 &  0.9874 &   &  0.9949 &  1.0274 &   &  1.0138 &  1.0062 &   &  0.8823 &  0.8463 &   &  1.0924 &  0.9946 &   &  0.9866 &  0.9964 &   &  0.9169 &  1.0235 &   &  1.0 &  1.0 &   &  0.9978 &  0.9934 &   &  0.9952 &  1.0139 &   &  1.0581 &  0.9627 &   &  1.0154 &  1.1001 &   &  1.0 &  1.0 &   &  1.0 &  1.0 &   &  1.0 &  1.0 &   &  1.0 &  1.0 &  
n_WZ_3lep_Part2  &  1.0 &  1.0 &   &  1.0 &  1.0 &   &  0.9910 &  1.0025 &   &  1.0193 &  0.9707 &   &  0.9903 &  1.0009 &   &  0.9689 &  0.9844 &   &  1.0084 &  0.9946 &   &  0.9707 &  1.0104 &   &  0.9865 &  0.9966 &   &  0.9980 &  0.9858 &   &  0.9809 &  1.0064 &   &  0.9958 &  0.9974 &   &  0.9996 &  0.9829 &   &  1.0083 &  1.0009 &   &  0.9946 &  0.9948 &   &  1.0548 &  1.0006 &   &  1.0042 &  0.9813 &   &  0.9210 &  0.9706 &   &  1.1193 &  0.9917 &   &  1.2001 &  1.0033 &   &  1.0 &  1.0 &   &  1.0 &  1.0 &   &  1.0 &  1.0 &   &  1.0 &  1.0 &   &  1.0147 &  1.0551 &   &  0.9907 &  0.9887 &   &  0.9589 &  1.0280 &   &  1.0639 &  1.0831 &  
n_Zjets_bkg  &  1.0371 &  1.0208 &   &  0.9046 &  0.8777 &   &  0.9419 &  0.9712 &   &  1.0001 &  1.0002 &   &  0.9935 &  1.0219 &   &  1.1075 &  0.6567 &   &  0.9883 &  0.9740 &   &  0.9925 &  1.0803 &   &  0.9670 &  0.9805 &   &  1.0862 &  0.8317 &   &  1.0536 &  1.0797 &   &  0.9398 &  0.8796 &   &  0.9173 &  0.9644 &   &  1.3972 &  0.8086 &   &  1.6891 &  0.3926 &   &  1.1173 &  0.0965 &   &  1.0000 &  1.0000 &   &  1.0000 &  1.0000 &   &  1.0000 &  1.0000 &   &  1.0 &  1.0 &   &  1.4802 &  0.2428 &   &  0.9164 &  1.1637 &   &  1.0 &  1.0 &   &  1.0 &  1.0 &   &  1.0 &  2.0489 &   &  1.4173 &  0.6458 &   &  1.0 &  5.9471 &   &  1.0 &  1.0 &  
n_tot_emu_bkg  &  1.0065 &  0.9990 &   &  0.9945 &  1.0037 &   &  1.0014 &  0.9897 &   &  0.9955 &  0.9989 &   &  0.9759 &  1.0124 &   &  0.9923 &  0.9932 &   &  1.0093 &  0.9933 &   &  0.9834 &  1.0221 &   &  1.0289 &  0.9663 &   &  0.9862 &  1.0589 &   &  1.0004 &  0.9998 &   &  1.0008 &  1.0008 &   &  0.9998 &  1.0001 &   &  0.9679 &  0.9996 &   &  1.0000 &  1.0000 &   &  0.9961 &  1.0000 &   &  1.0000 &  1.0017 &   &  0.9992 &  1.0002 &   &  0.4204 &  1.0000 &   &  1.0 &  1.0 &   &  1.0027 &  1.0010 &   &  0.8513 &  1.3208 &   &  1.0000 &  1.0000 &   &  1.2186 &  0.9978 &   &  0.9679 &  1.0954 &   &  1.0003 &  0.7604 &   &  1.0 &  1.0 &   &  1.0000 &  1.0352 &  
n_Other_bkg  &  1.0055 &  1.0022 &   &  0.9953 &  0.9993 &   &  0.9961 &  1.0004 &   &  0.9992 &  1.0018 &   &  0.9921 &  0.9913 &   &  1.0294 &  0.9922 &   &  1.0410 &  0.9629 &   &  0.9957 &  0.9679 &   &  0.9855 &  1.0026 &   &  0.9908 &  0.9915 &   &  1.0040 &  1.0089 &   &  1.0043 &  1.0233 &   &  1.0098 &  0.9941 &   &  1.0226 &  1.0014 &   &  1.0129 &  0.9728 &   &  0.9911 &  0.9985 &   &  0.9903 &  1.0082 &   &  0.9989 &  0.9980 &   &  1.0004 &  1.0002 &   &  1.0019 &  1.1540 &   &  0.9532 &  0.9634 &   &  1.0512 &  1.0100 &   &  0.9789 &  0.9758 &   &  0.9918 &  0.9928 &   &  0.9001 &  1.0751 &   &  1.0010 &  1.0198 &   &  0.9996 &  1.1675 &   &  0.9563 &  0.9755 &  
n_qqZZ_2_Part0  &  0.8746 &  0.9978 &   &  1.0 &  1.0 &   &  1.0 &  1.0 &   &  1.0061 &  1.0000 &   &  0.9964 &  0.9433 &   &  0.9998 &  0.9871 &   &  1.0023 &  1.0015 &   &  1.0008 &  0.9992 &   &  1.0075 &  0.9996 &   &  0.9795 &  1.0026 &   &  1.0402 &  0.9942 &   &  0.9672 &  1.0050 &   &  1.0145 &  1.0014 &   &  1.0188 &  0.9716 &   &  1.0061 &  0.9551 &   &  0.9867 &  1.0451 &   &  0.9721 &  1.0613 &   &  0.9237 &  0.9538 &   &  1.0789 &  1.0569 &   &  1.0000 &  1.0000 &   &  1.0 &  1.0 &   &  1.0 &  1.0 &   &  1.0 &  1.0 &   &  1.0 &  1.0 &   &  1.0 &  1.0 &   &  1.0 &  1.0 &   &  1.0 &  1.0 &   &  1.0 &  1.0 &  
n_qqZZ_2_Part1  &  1.0 &  1.0 &   &  0.9494 &  1.0475 &   &  1.0 &  1.0 &   &  0.8653 &  1.0000 &   &  0.9577 &  1.0468 &   &  1.0244 &  1.0198 &   &  1.0114 &  0.9861 &   &  0.9982 &  0.9975 &   &  1.0189 &  0.9996 &   &  1.0151 &  0.9654 &   &  0.9985 &  1.0528 &   &  0.9774 &  0.9781 &   &  1.0207 &  0.9625 &   &  0.9574 &  1.1156 &   &  1.0196 &  0.9674 &   &  0.9229 &  1.1054 &   &  1.0670 &  0.8936 &   &  0.7850 &  1.1063 &   &  1.0930 &  0.9150 &   &  1.0000 &  1.0000 &   &  0.9977 &  0.9801 &   &  1.0027 &  0.9951 &   &  0.9930 &  1.0540 &   &  1.0461 &  0.9745 &   &  1.0 &  1.0 &   &  1.0 &  1.0 &   &  1.0 &  1.0 &   &  1.0 &  1.0 &  
n_qqZZ_2_Part2  &  1.0 &  1.0 &   &  1.0 &  1.0 &   &  1.1172 &  0.8872 &   &  1.0000 &  1.0000 &   &  0.9817 &  0.9947 &   &  0.9817 &  0.9409 &   &  0.9955 &  1.0013 &   &  1.0050 &  0.9998 &   &  0.9574 &  1.0267 &   &  0.9494 &  0.9978 &   &  0.9985 &  0.9782 &   &  1.0303 &  0.9970 &   &  0.9920 &  0.9937 &   &  1.0139 &  1.0365 &   &  1.0366 &  0.9419 &   &  1.0035 &  0.9548 &   &  0.9882 &  1.0479 &   &  1.0617 &  0.8807 &   &  0.8722 &  1.0299 &   &  0.9979 &  1.0021 &   &  1.0 &  1.0 &   &  1.0 &  1.0 &   &  1.0 &  1.0 &   &  1.0 &  1.0 &   &  0.9168 &  1.0823 &   &  0.9721 &  0.9934 &   &  0.7139 &  1.1687 &   &  1.0807 &  1.1220 &  
n_qqZZ_1_Part0  &  1.0012 &  0.9995 &   &  1.0 &  1.0 &   &  1.0 &  1.0 &   &  1.0059 &  0.8624 &   &  0.9750 &  0.9909 &   &  0.9207 &  1.0058 &   &  1.0191 &  1.0066 &   &  1.0265 &  1.0068 &   &  0.9945 &  1.0444 &   &  0.9681 &  0.9893 &   &  0.9835 &  0.9845 &   &  1.0804 &  0.9540 &   &  0.9778 &  0.9885 &   &  0.9491 &  1.1101 &   &  0.6988 &  0.9468 &   &  1.1262 &  0.9869 &   &  1.1580 &  0.9833 &   &  1.0000 &  0.9215 &   &  1.0000 &  0.7408 &   &  1.0000 &  1.0000 &   &  1.0 &  1.0 &   &  1.0 &  1.0 &   &  1.0 &  1.0 &   &  1.0 &  1.0 &   &  1.0 &  1.0 &   &  1.0 &  1.0 &   &  1.0 &  1.0 &   &  1.0 &  1.0 &  
n_qqZZ_1_Part1  &  1.0 &  1.0 &   &  0.9866 &  1.0014 &   &  1.0 &  1.0 &   &  0.9385 &  1.0524 &   &  0.9217 &  1.0941 &   &  1.0357 &  0.9556 &   &  0.8915 &  1.1200 &   &  0.9929 &  1.0000 &   &  1.0659 &  0.9815 &   &  1.0141 &  0.9440 &   &  0.9228 &  1.0245 &   &  1.0449 &  1.0477 &   &  1.0175 &  0.9793 &   &  1.0359 &  0.7697 &   &  0.9776 &  0.9241 &   &  1.0946 &  1.2420 &   &  0.9924 &  0.9640 &   &  1.0650 &  1.3150 &   &  0.9713 &  0.9957 &   &  1.0000 &  1.0000 &   &  0.9580 &  1.0224 &   &  0.9956 &  1.0176 &   &  1.0168 &  0.9928 &   &  1.0641 &  1.0104 &   &  1.0 &  1.0 &   &  1.0 &  1.0 &   &  1.0 &  1.0 &   &  1.0 &  1.0 &  
n_qqZZ_1_Part2  &  1.0 &  1.0 &   &  1.0 &  1.0 &   &  0.9758 &  1.0169 &   &  1.0009 &  0.9977 &   &  0.9926 &  1.0033 &   &  0.7593 &  1.0878 &   &  0.9296 &  1.0005 &   &  0.9868 &  0.9771 &   &  0.9280 &  0.9839 &   &  0.9855 &  0.9803 &   &  1.0477 &  1.0145 &   &  0.9970 &  1.0413 &   &  0.9970 &  1.0180 &   &  1.0412 &  0.9658 &   &  0.9642 &  1.1196 &   &  1.0205 &  0.9992 &   &  0.8492 &  0.8833 &   &  0.8166 &  1.1613 &   &  1.0353 &  0.8973 &   &  1.0002 &  1.0000 &   &  1.0 &  1.0 &   &  1.0 &  1.0 &   &  1.0 &  1.0 &   &  1.0 &  1.0 &   &  0.9867 &  0.9273 &   &  0.7742 &  1.0504 &   &  1.0676 &  1.1586 &   &  1.0003 &  0.8094 &  