n_jets_CR_3lep_0jet_Incl_bin_1_13TeV & upVar & dnVar & n_jets_CR_3lep_1jet_Incl_bin_1_13TeV & upVar & dnVar & n_jets_CR_3lep_2jet_Incl_bin_1_13TeV & upVar & dnVar & mT_ZZ_CR_emu_Incl_bin_1_13TeV & upVar & dnVar & mT_ZZ_CR_ZJets_Incl_bin_1_13TeV & upVar & dnVar & mT_ZZ_SR_ggF_Incl_bin_1_13TeV & upVar & dnVar & mT_ZZ_SR_ggF_Incl_bin_2_13TeV & upVar & dnVar & mT_ZZ_SR_ggF_Incl_bin_3_13TeV & upVar & dnVar & mT_ZZ_SR_ggF_Incl_bin_4_13TeV & upVar & dnVar & mT_ZZ_SR_ggF_Incl_bin_5_13TeV & upVar & dnVar & mT_ZZ_SR_ggF_Incl_bin_6_13TeV & upVar & dnVar & mT_ZZ_SR_ggF_Incl_bin_7_13TeV & upVar & dnVar & mT_ZZ_SR_ggF_Incl_bin_8_13TeV & upVar & dnVar & mT_ZZ_SR_ggF_Incl_bin_9_13TeV & upVar & dnVar & mT_ZZ_SR_ggF_Incl_bin_10_13TeV & upVar & dnVar & mT_ZZ_SR_ggF_Incl_bin_11_13TeV & upVar & dnVar & mT_ZZ_SR_ggF_Incl_bin_12_13TeV & upVar & dnVar & mT_ZZ_SR_ggF_Incl_bin_13_13TeV & upVar & dnVar & mT_ZZ_SR_ggF_Incl_bin_14_13TeV & upVar & dnVar & mT_ZZ_SR_ggF_Incl_bin_15_13TeV & upVar & dnVar & mT_ZZ_SR_Mixed_Incl_bin_1_13TeV & upVar & dnVar & mT_ZZ_SR_Mixed_Incl_bin_2_13TeV & upVar & dnVar & mT_ZZ_SR_Mixed_Incl_bin_3_13TeV & upVar & dnVar & mT_ZZ_SR_Mixed_Incl_bin_4_13TeV & upVar & dnVar & mT_ZZ_SR_VBF_Incl_bin_1_13TeV & upVar & dnVar & mT_ZZ_SR_VBF_Incl_bin_2_13TeV & upVar & dnVar & mT_ZZ_SR_VBF_Incl_bin_3_13TeV & upVar & dnVar & mT_ZZ_SR_VBF_Incl_bin_4_13TeV & upVar & dnVar 
n_ggSBINLOI  &  1.0000 &  1.0000 &   &  1.0000 &  1.0000 &   &  1.0000 &  1.0000 &   &  1.0000 &  1.0000 &   &  0.9868 &  1.0090 &   &  1.0038 &  0.9974 &   &  1.0023 &  0.9976 &   &  1.0026 &  0.9992 &   &  1.0020 &  0.9979 &   &  1.0004 &  1.0027 &   &  0.9991 &  0.9985 &   &  1.0023 &  1.0040 &   &  0.9987 &  0.9997 &   &  1.0026 &  0.9981 &   &  0.9954 &  0.9995 &   &  1.0016 &  1.0058 &   &  0.9951 &  0.9955 &   &  0.9853 &  1.0110 &   &  1.0026 &  0.9942 &   &  0.8358 &  0.9983 &   &  1.0012 &  1.0011 &   &  1.0034 &  0.9977 &   &  1.0030 &  0.9892 &   &  1.0233 &  0.9974 &   &  1.0015 &  1.0123 &   &  0.9959 &  1.0050 &   &  1.0108 &  1.0053 &   &  0.9836 &  0.9999 &  
n_ggBNLO  &  1.0000 &  1.0000 &   &  1.0000 &  1.0000 &   &  1.0000 &  1.0000 &   &  1.0000 &  1.0000 &   &  0.9880 &  1.0055 &   &  1.0058 &  0.9962 &   &  1.0029 &  0.9990 &   &  1.0016 &  1.0001 &   &  1.0018 &  0.9984 &   &  1.0021 &  1.0008 &   &  1.0014 &  0.9975 &   &  1.0002 &  1.0039 &   &  1.0033 &  0.9977 &   &  0.9974 &  1.0038 &   &  1.0007 &  0.9976 &   &  1.0041 &  0.9994 &   &  1.0035 &  0.9985 &   &  1.0004 &  0.9978 &   &  1.0056 &  1.0018 &   &  0.9626 &  1.0836 &   &  1.0017 &  1.0023 &   &  0.9977 &  1.0056 &   &  1.0013 &  0.9999 &   &  0.9876 &  0.9792 &   &  0.9969 &  1.0003 &   &  0.9851 &  1.0039 &   &  0.9974 &  1.0035 &   &  1.0151 &  0.9916 &  
n_ggSNLO  &  1.0000 &  1.0000 &   &  1.0000 &  1.0000 &   &  1.0000 &  1.0000 &   &  1.0000 &  1.0000 &   &  0.9895 &  1.0029 &   &  1.0049 &  1.0016 &   &  1.0035 &  0.9979 &   &  1.0021 &  0.9999 &   &  1.0035 &  0.9991 &   &  1.0002 &  0.9996 &   &  1.0042 &  0.9990 &   &  0.9994 &  0.9996 &   &  1.0015 &  1.0000 &   &  0.9992 &  1.0003 &   &  1.0013 &  1.0012 &   &  0.9996 &  0.9996 &   &  1.0031 &  1.0008 &   &  1.0004 &  0.9970 &   &  1.0018 &  0.9993 &   &  0.9719 &  1.0092 &   &  1.0023 &  0.9995 &   &  0.9986 &  0.9976 &   &  1.0027 &  0.9943 &   &  0.9984 &  1.0042 &   &  0.9776 &  1.0088 &   &  0.9877 &  1.0056 &   &  0.9963 &  1.0045 &   &  0.9941 &  0.9908 &  
n_VBFSBI  &  1.0000 &  1.0000 &   &  1.0000 &  1.0000 &   &  1.0000 &  1.0000 &   &  1.0000 &  1.0000 &   &  0.9959 &  1.0047 &   &  0.9856 &  1.0262 &   &  1.0073 &  1.0003 &   &  0.9937 &  0.9963 &   &  1.0035 &  1.0021 &   &  0.9995 &  0.9919 &   &  1.0026 &  1.0089 &   &  1.0006 &  0.9942 &   &  1.0003 &  1.0020 &   &  0.9946 &  1.0023 &   &  1.0130 &  0.9992 &   &  0.9972 &  0.9983 &   &  1.0091 &  1.0036 &   &  1.0027 &  0.9979 &   &  1.0026 &  0.9998 &   &  0.9950 &  0.9724 &   &  0.9993 &  0.9985 &   &  1.0040 &  1.0115 &   &  1.0022 &  0.9990 &   &  1.0003 &  0.9976 &   &  1.0004 &  0.9979 &   &  1.0002 &  0.9914 &   &  1.0016 &  1.0004 &   &  0.9936 &  1.0045 &  
n_VBFB  &  1.0000 &  1.0000 &   &  1.0000 &  1.0000 &   &  1.0000 &  1.0000 &   &  1.0000 &  1.0000 &   &  0.9965 &  0.9999 &   &  1.0097 &  0.9996 &   &  0.9985 &  1.0029 &   &  0.9986 &  0.9983 &   &  1.0033 &  0.9974 &   &  1.0022 &  0.9978 &   &  0.9956 &  1.0059 &   &  1.0102 &  0.9946 &   &  1.0003 &  1.0004 &   &  1.0013 &  0.9985 &   &  0.9947 &  1.0014 &   &  1.0033 &  1.0031 &   &  0.9975 &  0.9971 &   &  1.0024 &  1.0010 &   &  1.0002 &  1.0021 &   &  0.9939 &  0.9955 &   &  0.9979 &  0.9957 &   &  1.0021 &  0.9938 &   &  1.0028 &  0.9934 &   &  1.0050 &  1.0012 &   &  1.0024 &  1.0018 &   &  1.0048 &  0.9989 &   &  0.9990 &  1.0023 &   &  0.9991 &  0.9990 &  
n_VBFSBI5  &  1.0000 &  1.0000 &   &  1.0000 &  1.0000 &   &  1.0000 &  1.0000 &   &  1.0000 &  1.0000 &   &  0.9956 &  1.0000 &   &  1.0345 &  0.9771 &   &  1.0056 &  0.9998 &   &  0.9976 &  0.9989 &   &  1.0045 &  1.0014 &   &  0.9968 &  0.9984 &   &  0.9983 &  1.0028 &   &  1.0030 &  1.0056 &   &  0.9989 &  0.9989 &   &  0.9998 &  1.0026 &   &  1.0040 &  0.9960 &   &  0.9929 &  1.0070 &   &  0.9925 &  1.0064 &   &  0.9997 &  1.0023 &   &  0.9991 &  0.9965 &   &  1.0228 &  0.9540 &   &  1.0074 &  0.9969 &   &  1.0080 &  0.9964 &   &  1.0045 &  0.9970 &   &  1.0066 &  0.9983 &   &  0.9981 &  1.0054 &   &  1.0043 &  0.9933 &   &  0.9990 &  0.9999 &   &  0.9976 &  0.9977 &  
n_VBFSBI10  &  1.0000 &  1.0000 &   &  1.0000 &  1.0000 &   &  1.0000 &  1.0000 &   &  1.0000 &  1.0000 &   &  0.9991 &  1.0003 &   &  1.0206 &  1.0034 &   &  0.9996 &  1.0044 &   &  1.0029 &  0.9990 &   &  0.9974 &  1.0010 &   &  1.0011 &  1.0018 &   &  1.0015 &  0.9952 &   &  1.0006 &  0.9997 &   &  1.0031 &  0.9958 &   &  1.0011 &  1.0007 &   &  1.0012 &  1.0003 &   &  0.9995 &  1.0067 &   &  0.9945 &  1.0040 &   &  0.9970 &  1.0027 &   &  0.9981 &  1.0061 &   &  1.0132 &  1.0080 &   &  1.0097 &  0.9940 &   &  1.0029 &  0.9965 &   &  0.9974 &  1.0001 &   &  1.0019 &  0.9985 &   &  1.0040 &  1.0006 &   &  1.0019 &  1.0017 &   &  1.0008 &  1.0009 &   &  1.0029 &  0.9973 &  
n_WZ_3lep_Part0  &  1.0000 &  1.0000 &   &  1.0 &  1.0 &   &  1.0 &  1.0 &   &  1.0000 &  1.0000 &   &  0.9341 &  0.9406 &   &  0.9505 &  1.0350 &   &  1.0007 &  0.9923 &   &  1.0035 &  0.9960 &   &  0.9972 &  1.0019 &   &  0.9865 &  0.9813 &   &  1.0067 &  0.9771 &   &  0.9860 &  1.0110 &   &  1.0041 &  0.9533 &   &  0.9717 &  1.0322 &   &  1.0101 &  1.0133 &   &  1.0 &  1.0 &   &  1.0081 &  1.1284 &   &  1.0000 &  1.0000 &   &  1.0750 &  1.0000 &   &  1.0 &  1.0 &   &  1.0 &  1.0 &   &  1.0 &  1.0 &   &  1.0 &  1.0 &   &  1.0 &  1.0 &   &  1.0 &  1.0 &   &  1.0 &  1.0 &   &  1.0 &  1.0 &   &  1.0 &  1.0 &  
n_WZ_3lep_Part1  &  1.0 &  1.0 &   &  1.0000 &  1.0000 &   &  1.0 &  1.0 &   &  1.0000 &  1.0000 &   &  0.9638 &  1.0363 &   &  0.9954 &  1.0149 &   &  1.0161 &  1.0201 &   &  1.0026 &  1.0163 &   &  1.0213 &  0.9883 &   &  1.0219 &  0.9929 &   &  0.9875 &  1.0059 &   &  1.0368 &  0.9889 &   &  0.9782 &  1.0108 &   &  1.0125 &  1.0018 &   &  0.9914 &  1.0422 &   &  0.8902 &  0.8568 &   &  1.0568 &  0.9954 &   &  1.0072 &  1.0023 &   &  0.8884 &  0.9999 &   &  1.0 &  1.0 &   &  1.0021 &  0.9969 &   &  1.0030 &  1.0129 &   &  1.0462 &  0.9669 &   &  1.0154 &  1.0452 &   &  1.0 &  1.0 &   &  1.0 &  1.0 &   &  1.0 &  1.0 &   &  1.0 &  1.0 &  
n_WZ_3lep_Part2  &  1.0 &  1.0 &   &  1.0 &  1.0 &   &  1.0000 &  1.0000 &   &  1.0000 &  1.0000 &   &  0.9848 &  1.0003 &   &  0.9586 &  1.0130 &   &  1.0069 &  0.9917 &   &  0.9686 &  1.0144 &   &  0.9838 &  1.0078 &   &  0.9987 &  0.9929 &   &  0.9847 &  0.9948 &   &  0.9915 &  0.9934 &   &  1.0067 &  0.9917 &   &  0.9989 &  0.9959 &   &  0.9782 &  1.0111 &   &  1.0748 &  0.9703 &   &  0.9876 &  0.9962 &   &  0.9797 &  0.9600 &   &  1.0008 &  0.9936 &   &  1.0023 &  1.0036 &   &  1.0 &  1.0 &   &  1.0 &  1.0 &   &  1.0 &  1.0 &   &  1.0 &  1.0 &   &  1.0120 &  1.0505 &   &  1.0271 &  0.9816 &   &  0.9345 &  1.0224 &   &  1.0677 &  1.0896 &  
n_Zjets_bkg  &  1.0000 &  1.0000 &   &  1.0000 &  1.0000 &   &  1.0000 &  1.0000 &   &  1.0000 &  1.0000 &   &  1.0130 &  1.0069 &   &  1.0267 &  1.0552 &   &  0.8882 &  1.1155 &   &  1.0221 &  1.0970 &   &  0.9694 &  0.9901 &   &  1.0867 &  0.8396 &   &  0.9959 &  1.0855 &   &  1.0327 &  0.9345 &   &  0.8708 &  0.9773 &   &  1.3722 &  0.8366 &   &  1.8394 &  0.2860 &   &  1.1042 &  0.0732 &   &  1.0000 &  1.0000 &   &  1.0 &  1.0 &   &  1.0000 &  1.0000 &   &  1.0 &  1.0 &   &  1.3754 &  0.3179 &   &  0.9896 &  1.0870 &   &  1.0 &  1.0 &   &  1.0 &  1.0 &   &  1.0 &  5.4250 &   &  1.4594 &  0.6643 &   &  1.0 &  8.8792 &   &  1.0 &  1.0 &  
n_tot_emu_bkg  &  1.0000 &  1.0000 &   &  1.0000 &  1.0000 &   &  1.0000 &  1.0000 &   &  1.0000 &  1.0000 &   &  0.9713 &  1.0280 &   &  0.9679 &  1.0232 &   &  1.0250 &  0.9831 &   &  0.9782 &  1.0219 &   &  1.0406 &  0.9634 &   &  0.9756 &  1.0249 &   &  1.0005 &  0.9996 &   &  0.9999 &  1.0009 &   &  0.6330 &  1.0000 &   &  0.9703 &  0.9996 &   &  1.0000 &  1.0000 &   &  0.9964 &  1.0000 &   &  1.0000 &  1.0020 &   &  0.9976 &  1.0003 &   &  0.7520 &  1.0000 &   &  1.0 &  1.0 &   &  0.9883 &  1.0482 &   &  0.9660 &  1.3930 &   &  2.8443 &  1.0000 &   &  1.2186 &  0.9977 &   &  1.0581 &  1.0407 &   &  1.0003 &  1.0034 &   &  1.0 &  1.0 &   &  1.0000 &  1.0361 &  
n_Other_bkg  &  1.0000 &  1.0000 &   &  1.0000 &  1.0000 &   &  1.0000 &  1.0000 &   &  1.0000 &  1.0000 &   &  1.0087 &  0.9883 &   &  1.0171 &  1.0221 &   &  1.0087 &  0.9722 &   &  1.0027 &  0.9562 &   &  0.9694 &  0.9960 &   &  1.0063 &  0.9987 &   &  1.0076 &  0.9952 &   &  0.9916 &  1.0111 &   &  1.0084 &  0.9934 &   &  1.0013 &  0.9932 &   &  1.0100 &  0.9891 &   &  0.9834 &  1.0360 &   &  0.9854 &  0.9959 &   &  0.9873 &  0.9912 &   &  1.0176 &  0.9754 &   &  1.0021 &  1.1948 &   &  0.9576 &  0.9527 &   &  1.0302 &  1.0115 &   &  0.9873 &  0.9620 &   &  0.9650 &  0.9965 &   &  0.9818 &  1.0057 &   &  0.9922 &  0.9861 &   &  0.9816 &  1.0216 &   &  1.0062 &  0.9975 &  
n_qqZZ_2_Part0  &  1.0000 &  1.0000 &   &  1.0 &  1.0 &   &  1.0 &  1.0 &   &  1.0000 &  1.0000 &   &  1.0108 &  0.9248 &   &  1.0029 &  0.9525 &   &  1.0044 &  1.0008 &   &  1.0021 &  1.0059 &   &  1.0068 &  0.9865 &   &  0.9837 &  1.0119 &   &  1.0265 &  0.9955 &   &  0.9904 &  0.9922 &   &  1.0148 &  1.0025 &   &  1.0128 &  0.9699 &   &  1.0020 &  0.9619 &   &  0.9860 &  1.0473 &   &  0.9721 &  1.0599 &   &  0.9524 &  0.9576 &   &  1.0254 &  1.0517 &   &  1.0000 &  1.0000 &   &  1.0 &  1.0 &   &  1.0 &  1.0 &   &  1.0 &  1.0 &   &  1.0 &  1.0 &   &  1.0 &  1.0 &   &  1.0 &  1.0 &   &  1.0 &  1.0 &   &  1.0 &  1.0 &  
n_qqZZ_2_Part1  &  1.0 &  1.0 &   &  1.0000 &  1.0000 &   &  1.0 &  1.0 &   &  1.0 &  1.0 &   &  0.9595 &  1.0434 &   &  1.0290 &  1.0168 &   &  1.0106 &  0.9846 &   &  1.0020 &  0.9962 &   &  1.0219 &  0.9947 &   &  1.0072 &  0.9748 &   &  1.0050 &  1.0350 &   &  0.9747 &  0.9831 &   &  1.0285 &  0.9576 &   &  0.9702 &  1.1154 &   &  1.0070 &  0.9871 &   &  0.9079 &  1.1236 &   &  1.0128 &  0.8936 &   &  0.9001 &  1.0913 &   &  1.0654 &  0.9371 &   &  1.0000 &  1.0000 &   &  0.9992 &  0.9790 &   &  1.0020 &  0.9946 &   &  0.9958 &  1.0452 &   &  1.0529 &  0.9750 &   &  1.0 &  1.0 &   &  1.0 &  1.0 &   &  1.0 &  1.0 &   &  1.0 &  1.0 &  
n_qqZZ_2_Part2  &  1.0 &  1.0 &   &  1.0 &  1.0 &   &  1.0000 &  1.0000 &   &  1.0000 &  1.0000 &   &  0.9814 &  0.9964 &   &  0.9806 &  0.9353 &   &  1.0059 &  0.9996 &   &  0.9981 &  1.0014 &   &  0.9506 &  1.0222 &   &  0.9654 &  0.9974 &   &  0.9890 &  0.9769 &   &  1.0316 &  1.0088 &   &  0.9884 &  0.9928 &   &  1.0130 &  1.0219 &   &  1.0488 &  0.9441 &   &  0.9836 &  0.9555 &   &  0.9938 &  1.0390 &   &  0.9967 &  0.9553 &   &  0.8993 &  1.0423 &   &  0.9979 &  1.0021 &   &  1.0 &  1.0 &   &  1.0 &  1.0 &   &  1.0 &  1.0 &   &  1.0 &  1.0 &   &  0.9004 &  1.1128 &   &  0.9890 &  0.9735 &   &  0.7407 &  1.1812 &   &  1.0612 &  1.1151 &  
n_qqZZ_1_Part0  &  1.0000 &  1.0000 &   &  1.0 &  1.0 &   &  1.0 &  1.0 &   &  1.0000 &  1.0000 &   &  0.9754 &  1.0291 &   &  0.8416 &  1.0273 &   &  1.0213 &  1.0007 &   &  1.0271 &  1.0068 &   &  0.9986 &  1.0414 &   &  0.9576 &  0.9913 &   &  1.0121 &  0.9740 &   &  1.0578 &  0.9563 &   &  0.9759 &  0.9881 &   &  0.9449 &  1.1199 &   &  0.8480 &  0.8658 &   &  1.0767 &  1.0514 &   &  1.1574 &  0.9834 &   &  1.0000 &  0.9214 &   &  1.0000 &  0.7397 &   &  1.0000 &  1.0000 &   &  1.0 &  1.0 &   &  1.0 &  1.0 &   &  1.0 &  1.0 &   &  1.0 &  1.0 &   &  1.0 &  1.0 &   &  1.0 &  1.0 &   &  1.0 &  1.0 &   &  1.0 &  1.0 &  
n_qqZZ_1_Part1  &  1.0 &  1.0 &   &  1.0000 &  1.0000 &   &  1.0 &  1.0 &   &  1.0000 &  1.0000 &   &  0.9277 &  1.0394 &   &  1.0546 &  0.9222 &   &  0.8894 &  1.1214 &   &  0.9829 &  1.0120 &   &  1.0401 &  0.9603 &   &  0.9969 &  1.0368 &   &  1.0436 &  0.9739 &   &  1.0118 &  1.0476 &   &  1.0574 &  0.9402 &   &  0.8756 &  0.8536 &   &  0.9330 &  0.9863 &   &  1.1353 &  1.0353 &   &  0.9986 &  0.9811 &   &  1.0641 &  1.2308 &   &  1.0002 &  0.9879 &   &  1.0000 &  1.0000 &   &  0.9565 &  1.0362 &   &  1.0324 &  0.9969 &   &  0.9816 &  0.9926 &   &  1.0747 &  1.0076 &   &  1.0 &  1.0 &   &  1.0 &  1.0 &   &  1.0 &  1.0 &   &  1.0 &  1.0 &  
n_qqZZ_1_Part2  &  1.0 &  1.0 &   &  1.0 &  1.0 &   &  1.0000 &  1.0000 &   &  1.0000 &  1.0000 &   &  0.9951 &  1.0027 &   &  0.8252 &  1.1201 &   &  0.9790 &  0.9831 &   &  1.0152 &  0.9732 &   &  0.9373 &  0.9579 &   &  0.9910 &  0.9881 &   &  0.9850 &  0.9801 &   &  0.9950 &  1.0130 &   &  1.0342 &  1.0344 &   &  1.0532 &  0.9508 &   &  0.7145 &  1.2271 &   &  1.0260 &  0.9750 &   &  0.8668 &  0.9760 &   &  1.0001 &  0.9848 &   &  0.9992 &  1.0000 &   &  1.0001 &  1.0000 &   &  1.0 &  1.0 &   &  1.0 &  1.0 &   &  1.0 &  1.0 &   &  1.0 &  1.0 &   &  1.0047 &  0.8921 &   &  0.8962 &  1.0076 &   &  1.1122 &  1.1938 &   &  1.0000 &  0.8037 &  