0.0 30.0 1.09018273691 0.909817263092 
30.0 60.0 1.09729878312 0.902701216881 
60.0 90.0 1.11943051849 0.880569481514 
90.0 120.0 1.25145663706 0.748543362945 
120.0 150.0 1.0 1.0 
150.0 180.0 1.0 1.0 
180.0 210.0 1.0 1.0 
210.0 240.0 1.0 1.0 
240.0 270.0 1.0 1.0 
270.0 300.0 1.0 1.0 
300.0 330.0 1.0 1.0 
330.0 360.0 1.0 1.0 
360.0 390.0 1.0 1.0 
390.0 420.0 1.0 1.0 
420.0 600.0 1.0 1.0 
