Info in <TCanvas::MakeDefCanvas>:  created default TCanvas with name c1
InSample mc16_13TeV.346899.Sherpa_222_NNPDF30NNLO_llll_m4l100_300_filt100_170.root
['qqBkg_2']
['weight']
1
!!python/object/apply:collections.OrderedDict
- - - SR_4l_MCFM_100bins_MCFM_MELA_ggZZ
    - - ((220<=m4l_fsr)&&(m4l_fsr<=2000))
      - MCFM_MELA_ggZZ
      - - -5.0
        - -4.94
        - -4.88
        - -4.82
        - -4.76
        - -4.7
        - -4.64
        - -4.58
        - -4.52
        - -4.46
        - -4.4
        - -4.34
        - -4.28
        - -4.22
        - -4.16
        - -4.1
        - -4.04
        - -3.98
        - -3.92
        - -3.8600000000000003
        - -3.8
        - -3.74
        - -3.68
        - -3.62
        - -3.56
        - -3.5
        - -3.44
        - -3.38
        - -3.3200000000000003
        - -3.26
        - -3.2
        - -3.14
        - -3.08
        - -3.02
        - -2.96
        - -2.9
        - -2.84
        - -2.7800000000000002
        - -2.72
        - -2.66
        - -2.6
        - -2.54
        - -2.48
        - -2.42
        - -2.3600000000000003
        - -2.3000000000000003
        - -2.24
        - -2.18
        - -2.12
        - -2.06
        - -2.0
        - -1.94
        - -1.88
        - -1.8200000000000003
        - -1.7600000000000002
        - -1.7000000000000002
        - -1.6400000000000001
        - -1.58
        - -1.52
        - -1.46
        - -1.4000000000000004
        - -1.3400000000000003
        - -1.2800000000000002
        - -1.2200000000000002
        - -1.1600000000000001
        - -1.1
        - -1.04
        - -0.9800000000000004
        - -0.9199999999999999
        - -0.8600000000000003
        - -0.7999999999999998
        - -0.7400000000000002
        - -0.6799999999999997
        - -0.6200000000000001
        - -0.5600000000000005
        - -0.5
        - -0.4400000000000004
        - -0.3799999999999999
        - -0.3200000000000003
        - -0.2599999999999998
        - -0.20000000000000018
        - -0.14000000000000057
        - -0.08000000000000007
        - -0.020000000000000462
        - 0.040000000000000036
        - 0.09999999999999964
        - 0.16000000000000014
        - 0.21999999999999975
        - 0.27999999999999936
        - 0.33999999999999986
        - 0.39999999999999947
        - 0.45999999999999996
        - 0.5199999999999996
        - 0.5800000000000001
        - 0.6399999999999997
        - 0.7000000000000002
        - 0.7599999999999998
        - 0.8199999999999994
        - 0.8799999999999999
        - 0.9399999999999995
        - 1.0

doing Campaign mc16e...
Filling nominal histograms qqBkg_2 ...
Writing...Name: Nom_hist Title: Nom_hist NbinsX: 100
13.19641701546061
