n_jets_CR_3lep_0jet_Incl_bin_1_13TeV & n_jets_CR_3lep_1jet_Incl_bin_1_13TeV & n_jets_CR_3lep_2jet_Incl_bin_1_13TeV & mT_ZZ_CR_emu_Incl_bin_1_13TeV & mT_ZZ_CR_ZJets_Incl_bin_1_13TeV & mT_ZZ_SR_ggF_Incl_bin_1_13TeV & mT_ZZ_SR_ggF_Incl_bin_2_13TeV & mT_ZZ_SR_ggF_Incl_bin_3_13TeV & mT_ZZ_SR_ggF_Incl_bin_4_13TeV & mT_ZZ_SR_ggF_Incl_bin_5_13TeV & mT_ZZ_SR_ggF_Incl_bin_6_13TeV & mT_ZZ_SR_ggF_Incl_bin_7_13TeV & mT_ZZ_SR_ggF_Incl_bin_8_13TeV & mT_ZZ_SR_ggF_Incl_bin_9_13TeV & mT_ZZ_SR_ggF_Incl_bin_10_13TeV & mT_ZZ_SR_ggF_Incl_bin_11_13TeV & mT_ZZ_SR_ggF_Incl_bin_12_13TeV & mT_ZZ_SR_ggF_Incl_bin_13_13TeV & mT_ZZ_SR_ggF_Incl_bin_14_13TeV & mT_ZZ_SR_ggF_Incl_bin_15_13TeV & mT_ZZ_SR_Mixed_Incl_bin_1_13TeV & mT_ZZ_SR_Mixed_Incl_bin_2_13TeV & mT_ZZ_SR_Mixed_Incl_bin_3_13TeV & mT_ZZ_SR_Mixed_Incl_bin_4_13TeV & mT_ZZ_SR_VBF_Incl_bin_1_13TeV & mT_ZZ_SR_VBF_Incl_bin_2_13TeV & mT_ZZ_SR_VBF_Incl_bin_3_13TeV & mT_ZZ_SR_VBF_Incl_bin_4_13TeV 
n_ggSBINLOI  & 0.000256 & 0.000263 & 0.000192 & 0.000262 & 0.217970 & 0.087775 & 0.559450 & 0.364169 & 0.215273 & 0.128647 & 0.080166 & 0.050788 & 0.052509 & 0.022926 & 0.011293 & 0.005159 & 0.004510 & 0.001358 & 0.000712 & 0.000027 & 0.096791 & 0.033892 & 0.015737 & 0.002169 & 0.015648 & 0.009164 & 0.006179 & 0.001137
n_ggBNLO  & 0.000209 & 0.000299 & 0.000186 & 0.000222 & 0.249541 & 0.097419 & 0.619519 & 0.412895 & 0.250896 & 0.157507 & 0.104241 & 0.069521 & 0.080643 & 0.042266 & 0.023491 & 0.014458 & 0.013383 & 0.005177 & 0.003689 & 0.000140 & 0.109175 & 0.040581 & 0.023119 & 0.005479 & 0.017381 & 0.011687 & 0.008808 & 0.002874
n_ggSNLO  & 0.000062 & 0.000062 & 0.000084 & 0.000174 & 0.093471 & 0.011360 & 0.125328 & 0.158793 & 0.137177 & 0.105610 & 0.078524 & 0.056991 & 0.071216 & 0.038061 & 0.021287 & 0.012679 & 0.011422 & 0.004462 & 0.002796 & 0.000104 & 0.032404 & 0.025954 & 0.019591 & 0.004750 & 0.006070 & 0.007602 & 0.007833 & 0.002581
n_VBFSBI  & 0.000056 & 0.000378 & 0.000451 & 0.000017 & 0.062853 & 0.002755 & 0.015189 & 0.017237 & 0.014626 & 0.011720 & 0.008893 & 0.006522 & 0.008820 & 0.005192 & 0.003374 & 0.001942 & 0.002024 & 0.000970 & 0.000648 & 0.000065 & 0.005524 & 0.003134 & 0.002329 & 0.000713 & 0.010664 & 0.009085 & 0.008556 & 0.003171
n_VBFB  & 0.000072 & 0.000484 & 0.000529 & 0.000026 & 0.095862 & 0.002598 & 0.015490 & 0.019225 & 0.017521 & 0.014606 & 0.011489 & 0.009801 & 0.013785 & 0.009402 & 0.006510 & 0.004580 & 0.005915 & 0.003559 & 0.003509 & 0.000315 & 0.010826 & 0.009637 & 0.014593 & 0.017140 & 0.014572 & 0.014990 & 0.021162 & 0.019970
n_VBFSBI5  & 0.000083 & 0.000527 & 0.000545 & 0.000031 & 0.114492 & 0.003687 & 0.020582 & 0.024426 & 0.022507 & 0.018518 & 0.014933 & 0.012015 & 0.017823 & 0.012288 & 0.008640 & 0.006541 & 0.008308 & 0.004886 & 0.005467 & 0.000526 & 0.013595 & 0.011984 & 0.019632 & 0.025848 & 0.016381 & 0.018139 & 0.027091 & 0.028493
n_VBFSBI10  & 0.000196 & 0.000667 & 0.000660 & 0.000093 & 0.215824 & 0.004859 & 0.031151 & 0.037459 & 0.035228 & 0.031265 & 0.026631 & 0.022227 & 0.035872 & 0.026160 & 0.020069 & 0.015597 & 0.021057 & 0.012857 & 0.015816 & 0.001361 & 0.029926 & 0.031962 & 0.057331 & 0.079410 & 0.027469 & 0.036086 & 0.066212 & 0.082990
n_WZ_3lep_Part0  & 41.214088 & 0.000000 & 0.000000 & 0.008175 & 0.063458 & 0.111605 & 1.240480 & 0.599033 & 0.285753 & 0.138353 & 0.077493 & 0.048989 & 0.047032 & 0.024926 & 0.007257 & 0.000000 & 0.002376 & 0.000910 & 0.001424 & 0.000000 & 0.000000 & 0.000000 & 0.000000 & 0.000000 & 0.000000 & 0.000000 & 0.000000 & 0.000000
n_WZ_3lep_Part1  & 0.000000 & 20.442063 & 0.000000 & 0.003976 & 0.338966 & 0.103659 & 0.425388 & 0.379731 & 0.225256 & 0.129892 & 0.071603 & 0.051243 & 0.049208 & 0.023009 & 0.012873 & 0.005377 & 0.003727 & 0.001805 & 0.000987 & 0.000000 & 0.270034 & 0.076732 & 0.031740 & 0.005228 & 0.000000 & 0.000000 & 0.000000 & 0.000000
n_WZ_3lep_Part2  & 0.000000 & 0.000000 & 13.574984 & 0.003051 & 0.837494 & 0.032469 & 0.188033 & 0.213746 & 0.184739 & 0.125054 & 0.085540 & 0.061428 & 0.064664 & 0.030051 & 0.015733 & 0.008485 & 0.009114 & 0.002156 & 0.002680 & 0.000131 & 0.000000 & 0.000000 & 0.000000 & 0.000000 & 0.038952 & 0.022902 & 0.011211 & 0.002656
n_Zjets_bkg  & 0.427128 & 0.516615 & 0.304314 & 0.001891 & 8.747329 & 0.031331 & 0.221872 & 0.102121 & 0.103159 & 0.050314 & 0.023300 & 0.010603 & 0.007273 & 0.003303 & 0.001090 & 0.000183 & 0.000237 & 0.000000 & 0.000159 & 0.000000 & 0.049380 & 0.003985 & 0.000000 & 0.000000 & 0.002536 & 0.003456 & 0.000190 & 0.000000
n_tot_emu_bkg  & 0.571210 & 0.595169 & 0.497995 & 1.040164 & 0.457238 & 0.185293 & 0.498450 & 0.151313 & 0.047588 & 0.014384 & 0.006024 & 0.004240 & 0.004213 & 0.002404 & 0.001265 & 0.000646 & 0.000955 & 0.000190 & 0.000419 & 0.000000 & 0.070830 & 0.001193 & 0.001712 & 0.000525 & 0.009189 & 0.000663 & 0.000000 & 0.000302
n_Other_bkg  & 0.312304 & 0.402408 & 1.024314 & 0.015228 & 0.351938 & 0.004934 & 0.034919 & 0.034037 & 0.025150 & 0.019876 & 0.013311 & 0.008726 & 0.011132 & 0.005402 & 0.003216 & 0.001550 & 0.001474 & 0.000567 & 0.000408 & 0.000031 & 0.006687 & 0.002973 & 0.001295 & 0.000337 & 0.004259 & 0.003137 & 0.002217 & 0.000558
n_qqZZ_2_Part0  & 0.003272 & 0.000000 & 0.000000 & 0.003001 & 0.113332 & 0.246674 & 2.633098 & 1.404681 & 0.731111 & 0.399217 & 0.244957 & 0.158410 & 0.185004 & 0.080590 & 0.036761 & 0.029230 & 0.022510 & 0.012762 & 0.005336 & 0.000238 & 0.000000 & 0.000000 & 0.000000 & 0.000000 & 0.000000 & 0.000000 & 0.000000 & 0.000000
n_qqZZ_2_Part1  & 0.000000 & 0.002485 & 0.000000 & 0.000000 & 0.348510 & 0.194938 & 0.602786 & 0.490143 & 0.326979 & 0.198164 & 0.122989 & 0.075666 & 0.087884 & 0.039560 & 0.028924 & 0.007498 & 0.009292 & 0.004607 & 0.004380 & 0.000071 & 0.330133 & 0.123098 & 0.066489 & 0.019157 & 0.000000 & 0.000000 & 0.000000 & 0.000000
n_qqZZ_2_Part2  & 0.000000 & 0.000000 & 0.002129 & 0.000157 & 0.483421 & 0.032466 & 0.179430 & 0.214140 & 0.160221 & 0.125188 & 0.077482 & 0.054725 & 0.075867 & 0.031140 & 0.023931 & 0.012286 & 0.009021 & 0.001302 & 0.002048 & 0.000075 & 0.000000 & 0.000000 & 0.000000 & 0.000000 & 0.030019 & 0.020029 & 0.011279 & 0.002953
n_qqZZ_1_Part0  & 1.715339 & 0.000000 & 0.000000 & 0.000433 & 0.004037 & 0.004303 & 0.061110 & 0.029495 & 0.018786 & 0.009141 & 0.004529 & 0.002969 & 0.003162 & 0.001072 & 0.000326 & 0.000449 & 0.000311 & 0.000093 & 0.000091 & 0.000000 & 0.000000 & 0.000000 & 0.000000 & 0.000000 & 0.000000 & 0.000000 & 0.000000 & 0.000000
n_qqZZ_1_Part1  & 0.000000 & 0.693833 & 0.000000 & 0.000346 & 0.028445 & 0.004746 & 0.016815 & 0.018096 & 0.014042 & 0.009394 & 0.004810 & 0.002811 & 0.003445 & 0.000738 & 0.000416 & 0.000221 & 0.000312 & 0.000084 & 0.000110 & 0.000052 & 0.011046 & 0.003430 & 0.001481 & 0.000299 & 0.000000 & 0.000000 & 0.000000 & 0.000000
n_qqZZ_1_Part2  & 0.000000 & 0.000000 & 0.371350 & 0.000149 & 0.074682 & 0.001290 & 0.006810 & 0.008753 & 0.006908 & 0.005801 & 0.004291 & 0.002545 & 0.002955 & 0.001684 & 0.000448 & 0.000411 & 0.000272 & 0.000207 & 0.000064 & 0.000027 & 0.000000 & 0.000000 & 0.000000 & 0.000000 & 0.001197 & 0.000692 & 0.000423 & 0.000128