n_jets_CR_3lep_0jet_Incl_bin_1_13TeV & err & n_jets_CR_3lep_1jet_Incl_bin_1_13TeV & err & n_jets_CR_3lep_2jet_Incl_bin_1_13TeV & err & mT_ZZ_CR_emu_Incl_bin_1_13TeV & err & mT_ZZ_CR_ZJets_Incl_bin_1_13TeV & err & mT_ZZ_SR_ggF_Incl_bin_1_13TeV & err & mT_ZZ_SR_ggF_Incl_bin_2_13TeV & err & mT_ZZ_SR_ggF_Incl_bin_3_13TeV & err & mT_ZZ_SR_ggF_Incl_bin_4_13TeV & err & mT_ZZ_SR_ggF_Incl_bin_5_13TeV & err & mT_ZZ_SR_ggF_Incl_bin_6_13TeV & err & mT_ZZ_SR_ggF_Incl_bin_7_13TeV & err & mT_ZZ_SR_ggF_Incl_bin_8_13TeV & err & mT_ZZ_SR_ggF_Incl_bin_9_13TeV & err & mT_ZZ_SR_ggF_Incl_bin_10_13TeV & err & mT_ZZ_SR_ggF_Incl_bin_11_13TeV & err & mT_ZZ_SR_ggF_Incl_bin_12_13TeV & err & mT_ZZ_SR_ggF_Incl_bin_13_13TeV & err & mT_ZZ_SR_ggF_Incl_bin_14_13TeV & err & mT_ZZ_SR_ggF_Incl_bin_15_13TeV & err & mT_ZZ_SR_Mixed_Incl_bin_1_13TeV & err & mT_ZZ_SR_Mixed_Incl_bin_2_13TeV & err & mT_ZZ_SR_Mixed_Incl_bin_3_13TeV & err & mT_ZZ_SR_Mixed_Incl_bin_4_13TeV & err & mT_ZZ_SR_VBF_Incl_bin_1_13TeV & err & mT_ZZ_SR_VBF_Incl_bin_2_13TeV & err & mT_ZZ_SR_VBF_Incl_bin_3_13TeV & err & mT_ZZ_SR_VBF_Incl_bin_4_13TeV & err 
n_ggSBINLOI  & 0.035529 & 0.004889 & 0.036491 & 0.004925 & 0.026678 & 0.004029 & 0.036484 & 0.004882 & 30.297787 & 0.139023 & 12.200686 & 0.090363 & 77.763603 & 0.226221 & 50.619514 & 0.180668 & 29.922882 & 0.138907 & 17.882002 & 0.107767 & 11.143112 & 0.085706 & 7.059509 & 0.068968 & 7.298753 & 0.069736 & 3.186743 & 0.045896 & 1.569748 & 0.031999 & 0.717060 & 0.021417 & 0.626848 & 0.020108 & 0.188782 & 0.010918 & 0.098974 & 0.007917 & 0.003688 & 0.001430 & 13.453920 & 0.094370 & 4.710975 & 0.055751 & 2.187507 & 0.038601 & 0.301543 & 0.014201 & 2.175132 & 0.037830 & 1.273855 & 0.028943 & 0.858877 & 0.024083 & 0.158093 & 0.010170
n_ggBNLO  & 0.029068 & 0.005411 & 0.041627 & 0.006307 & 0.025814 & 0.004927 & 0.030911 & 0.005279 & 34.686222 & 0.180333 & 13.541174 & 0.118282 & 86.113106 & 0.293629 & 57.392391 & 0.234746 & 34.874489 & 0.179575 & 21.893425 & 0.140330 & 14.489565 & 0.112668 & 9.663356 & 0.090819 & 11.209435 & 0.095784 & 5.875034 & 0.072008 & 3.265302 & 0.051157 & 2.009596 & 0.041342 & 1.860239 & 0.039606 & 0.719615 & 0.024858 & 0.512745 & 0.021029 & 0.019436 & 0.004091 & 15.175258 & 0.122789 & 5.640767 & 0.071838 & 3.213480 & 0.051810 & 0.761628 & 0.025529 & 2.415899 & 0.048503 & 1.624468 & 0.038279 & 1.224345 & 0.033668 & 0.399432 & 0.018198
n_ggSNLO  & 0.008554 & 0.001403 & 0.008573 & 0.001377 & 0.011668 & 0.001633 & 0.024232 & 0.002454 & 12.992430 & 0.055699 & 1.579082 & 0.019419 & 17.420572 & 0.065736 & 22.072212 & 0.074456 & 19.067598 & 0.068559 & 14.679802 & 0.059803 & 10.914864 & 0.051382 & 7.921747 & 0.043582 & 9.899084 & 0.048282 & 5.290439 & 0.034970 & 2.958936 & 0.026093 & 1.762434 & 0.020126 & 1.587613 & 0.019015 & 0.620251 & 0.011756 & 0.388586 & 0.009307 & 0.014473 & 0.001785 & 4.504200 & 0.033668 & 3.607614 & 0.029855 & 2.723124 & 0.025618 & 0.660263 & 0.012427 & 0.843663 & 0.014534 & 1.056642 & 0.016116 & 1.088812 & 0.016089 & 0.358725 & 0.009057
n_VBFSBI  & 0.007818 & 0.001389 & 0.052534 & 0.003568 & 0.062692 & 0.003921 & 0.002383 & 0.000801 & 8.736527 & 0.046639 & 0.382992 & 0.009859 & 2.111243 & 0.023133 & 2.395954 & 0.024603 & 2.033053 & 0.022612 & 1.629058 & 0.020245 & 1.236096 & 0.017575 & 0.906613 & 0.015080 & 1.225948 & 0.017572 & 0.721744 & 0.013457 & 0.468996 & 0.010832 & 0.269869 & 0.008175 & 0.281390 & 0.008405 & 0.134834 & 0.005792 & 0.090132 & 0.004750 & 0.009081 & 0.001498 & 0.767821 & 0.014033 & 0.435618 & 0.010500 & 0.323796 & 0.009074 & 0.099098 & 0.005036 & 1.482299 & 0.019360 & 1.262808 & 0.017919 & 1.189254 & 0.017324 & 0.440811 & 0.010525
n_VBFB  & 0.009991 & 0.001496 & 0.067320 & 0.003955 & 0.073559 & 0.004163 & 0.003594 & 0.000945 & 13.324863 & 0.056417 & 0.361108 & 0.009394 & 2.153077 & 0.022847 & 2.672245 & 0.025412 & 2.435422 & 0.024245 & 2.030173 & 0.022082 & 1.596967 & 0.019632 & 1.362363 & 0.018092 & 1.916178 & 0.021439 & 1.306880 & 0.017708 & 0.904907 & 0.014711 & 0.636638 & 0.012329 & 0.822137 & 0.013988 & 0.494726 & 0.010863 & 0.487787 & 0.010771 & 0.043773 & 0.003213 & 1.504770 & 0.019237 & 1.339584 & 0.018100 & 2.028423 & 0.022177 & 2.382520 & 0.023988 & 2.025467 & 0.022241 & 2.083561 & 0.022563 & 2.941465 & 0.026813 & 2.775899 & 0.026068
n_VBFSBI5  & 0.011502 & 0.001937 & 0.073316 & 0.004777 & 0.075780 & 0.004837 & 0.004278 & 0.001192 & 15.914421 & 0.070893 & 0.512442 & 0.012792 & 2.860892 & 0.030354 & 3.395261 & 0.032918 & 3.128426 & 0.031593 & 2.574035 & 0.028659 & 2.075738 & 0.025638 & 1.670109 & 0.023031 & 2.477402 & 0.027991 & 1.708027 & 0.023230 & 1.200938 & 0.019424 & 0.909236 & 0.016897 & 1.154798 & 0.019021 & 0.679119 & 0.014590 & 0.759945 & 0.015433 & 0.073099 & 0.004781 & 1.889666 & 0.024766 & 1.665794 & 0.023188 & 2.728855 & 0.029580 & 3.592817 & 0.033876 & 2.276961 & 0.027109 & 2.521261 & 0.028547 & 3.765625 & 0.034923 & 3.960505 & 0.035784
n_VBFSBI10  & 0.027253 & 0.003339 & 0.092756 & 0.006297 & 0.091759 & 0.006175 & 0.012994 & 0.002313 & 29.999474 & 0.113634 & 0.675358 & 0.017173 & 4.329950 & 0.043503 & 5.206823 & 0.047521 & 4.896735 & 0.046059 & 4.345778 & 0.043388 & 3.701711 & 0.040028 & 3.089610 & 0.036517 & 4.986254 & 0.046392 & 3.636238 & 0.039698 & 2.789568 & 0.034622 & 2.167984 & 0.030440 & 2.926934 & 0.035467 & 1.787126 & 0.027684 & 2.198452 & 0.030639 & 0.189194 & 0.009084 & 4.159674 & 0.042952 & 4.442706 & 0.044237 & 7.969050 & 0.059024 & 11.037930 & 0.069333 & 3.818220 & 0.041064 & 5.015934 & 0.047093 & 9.203483 & 0.063713 & 11.535656 & 0.071453
n_WZ_3lep_Part0  & 5728.758301 & 18.589478 & 0.000000 & 0.000000 & 0.000000 & 0.000000 & 1.136384 & 0.244618 & 8.820724 & 0.734506 & 15.513049 & 0.890803 & 172.426727 & 3.083120 & 83.265640 & 2.437936 & 39.719688 & 1.981964 & 19.231125 & 1.051567 & 10.771500 & 0.822479 & 6.809511 & 0.919396 & 6.537436 & 0.692467 & 3.464706 & 0.411568 & 1.008726 & 0.276645 & 0.000000 & 0.000000 & 0.330254 & 0.168901 & 0.126516 & 0.096593 & 0.197974 & 0.077353 & 0.000000 & 0.000000 & 0.000000 & 0.000000 & 0.000000 & 0.000000 & 0.000000 & 0.000000 & 0.000000 & 0.000000 & 0.000000 & 0.000000 & 0.000000 & 0.000000 & 0.000000 & 0.000000 & 0.000000 & 0.000000
n_WZ_3lep_Part1  & 0.000000 & 0.000000 & 2841.446777 & 11.952912 & 0.000000 & 0.000000 & 0.552600 & 0.140207 & 47.116325 & 1.593842 & 14.408630 & 0.871234 & 59.128952 & 1.655313 & 52.782578 & 1.675601 & 31.310526 & 1.193860 & 18.055035 & 0.902282 & 9.952803 & 0.662378 & 7.122753 & 0.560992 & 6.839901 & 0.559271 & 3.198251 & 0.408606 & 1.789358 & 0.243574 & 0.747343 & 0.186794 & 0.518085 & 0.193679 & 0.250844 & 0.102266 & 0.137177 & 0.086623 & 0.000000 & 0.000000 & 37.534790 & 1.495304 & 10.665752 & 0.899173 & 4.411802 & 0.456869 & 0.726634 & 0.172704 & 0.000000 & 0.000000 & 0.000000 & 0.000000 & 0.000000 & 0.000000 & 0.000000 & 0.000000
n_WZ_3lep_Part2  & 0.000000 & 0.000000 & 0.000000 & 0.000000 & 1886.922729 & 4.550790 & 0.424029 & 0.077940 & 116.411659 & 1.664138 & 4.513204 & 0.299827 & 26.136610 & 0.728392 & 29.710747 & 0.926288 & 25.678682 & 0.673865 & 17.382463 & 0.552469 & 11.890120 & 0.441353 & 8.538533 & 0.371386 & 8.988287 & 0.403870 & 4.177039 & 0.253997 & 2.186839 & 0.199980 & 1.179402 & 0.138119 & 1.266905 & 0.142545 & 0.299638 & 0.095470 & 0.372495 & 0.076139 & 0.018216 & 0.007009 & 0.000000 & 0.000000 & 0.000000 & 0.000000 & 0.000000 & 0.000000 & 0.000000 & 0.000000 & 5.414311 & 0.356416 & 3.183436 & 0.267308 & 1.558301 & 0.221855 & 0.369127 & 0.090114
n_Zjets_bkg  & 59.370781 & 24.153833 & 71.809441 & 19.126395 & 42.299603 & 4.228448 & 0.262880 & 0.262880 & 1215.878662 & 22.859322 & 4.354991 & 3.797553 & 30.840197 & 5.027083 & 14.194829 & 1.795758 & 14.339080 & 2.119802 & 6.993625 & 1.126626 & 3.238669 & 0.662701 & 1.473855 & 0.366480 & 1.010969 & 0.368571 & 0.459151 & 0.164030 & 0.151568 & 0.110412 & 0.025377 & 0.021902 & 0.032996 & 0.024141 & 0.000000 & 0.000000 & 0.022141 & 0.022141 & 0.000000 & 0.000000 & 6.863763 & 2.218356 & 0.553934 & 0.237390 & 0.000000 & 0.000000 & 0.000000 & 0.000000 & 0.352488 & 0.201429 & 0.480396 & 0.206774 & 0.026390 & 0.147298 & 0.000000 & 0.000000
n_tot_emu_bkg  & 79.398201 & 2.724320 & 82.728447 & 2.378572 & 69.221237 & 2.027167 & 144.582764 & 3.506580 & 63.556084 & 2.190743 & 25.755693 & 1.509964 & 69.284569 & 2.397779 & 21.032501 & 1.327251 & 6.614686 & 0.767676 & 1.999355 & 0.245264 & 0.837382 & 0.155743 & 0.589416 & 0.134856 & 0.585619 & 0.131170 & 0.334112 & 0.099409 & 0.175886 & 0.072165 & 0.089824 & 0.047686 & 0.132729 & 0.059386 & 0.026415 & 0.026415 & 0.058209 & 0.041458 & 0.000000 & 0.000000 & 9.845439 & 0.862640 & 0.165874 & 0.075750 & 0.237956 & 0.215856 & 0.072911 & 0.043372 & 1.277294 & 0.256847 & 0.092203 & 0.053378 & 0.000000 & 0.000000 & 0.042020 & 0.042020
n_Other_bkg  & 43.410282 & 0.297875 & 55.934673 & 0.411860 & 142.379669 & 0.641996 & 2.116749 & 0.112498 & 48.919357 & 1.254621 & 0.685793 & 0.068676 & 4.853793 & 0.190155 & 4.731184 & 0.140335 & 3.495842 & 0.144948 & 2.762711 & 0.122249 & 1.850170 & 0.087118 & 1.212928 & 0.057754 & 1.547373 & 0.080784 & 0.750934 & 0.037167 & 0.447087 & 0.027983 & 0.215514 & 0.019765 & 0.204872 & 0.018404 & 0.078781 & 0.009123 & 0.056651 & 0.006957 & 0.004276 & 0.002213 & 0.929445 & 0.075803 & 0.413288 & 0.051515 & 0.179980 & 0.013023 & 0.046849 & 0.005907 & 0.592069 & 0.031963 & 0.435985 & 0.030291 & 0.308227 & 0.023347 & 0.077613 & 0.009710
n_qqZZ_2_Part0  & 0.454768 & 0.210619 & 0.000000 & 0.000000 & 0.000000 & 0.000000 & 0.417184 & 0.170721 & 15.753191 & 1.700052 & 34.287670 & 2.082919 & 366.000671 & 7.018749 & 195.250641 & 5.403842 & 101.624374 & 3.790498 & 55.491096 & 2.761247 & 34.048958 & 2.328824 & 22.018997 & 1.654238 & 25.715580 & 1.924960 & 11.202061 & 1.218938 & 5.109825 & 0.827451 & 4.063015 & 0.595522 & 3.128834 & 0.973530 & 1.773916 & 0.424563 & 0.741670 & 0.300904 & 0.033055 & 0.033055 & 0.000000 & 0.000000 & 0.000000 & 0.000000 & 0.000000 & 0.000000 & 0.000000 & 0.000000 & 0.000000 & 0.000000 & 0.000000 & 0.000000 & 0.000000 & 0.000000 & 0.000000 & 0.000000
n_qqZZ_2_Part1  & 0.000000 & 0.000000 & 0.345432 & 0.085227 & 0.000000 & 0.000000 & 0.000000 & 0.000000 & 48.442829 & 2.355582 & 27.096388 & 1.796168 & 83.787231 & 3.177082 & 68.129852 & 3.045142 & 45.450104 & 2.195737 & 27.544796 & 1.706339 & 17.095407 & 1.381400 & 10.517597 & 1.061698 & 12.215928 & 1.183907 & 5.498889 & 0.752468 & 4.020415 & 0.601355 & 1.042227 & 0.405111 & 1.291585 & 0.377050 & 0.640392 & 0.282782 & 0.608821 & 0.227567 & 0.009869 & 0.009869 & 45.888504 & 2.466957 & 17.110584 & 1.392969 & 9.241936 & 1.156546 & 2.662804 & 0.474769 & 0.000000 & 0.000000 & 0.000000 & 0.000000 & 0.000000 & 0.000000 & 0.000000 & 0.000000
n_qqZZ_2_Part2  & 0.000000 & 0.000000 & 0.000000 & 0.000000 & 0.295999 & 0.050989 & 0.021883 & 0.020411 & 67.195541 & 1.740479 & 4.512731 & 0.428829 & 24.940779 & 0.973329 & 29.765469 & 1.022891 & 22.270716 & 0.816690 & 17.401175 & 0.792072 & 10.770002 & 0.554378 & 7.606802 & 0.476842 & 10.545557 & 0.584332 & 4.328414 & 0.324345 & 3.326439 & 0.301017 & 1.707813 & 0.220297 & 1.253953 & 0.194451 & 0.180940 & 0.114088 & 0.284689 & 0.046562 & 0.010381 & 0.007204 & 0.000000 & 0.000000 & 0.000000 & 0.000000 & 0.000000 & 0.000000 & 0.000000 & 0.000000 & 4.172610 & 0.575310 & 2.784095 & 0.405588 & 1.567815 & 0.310521 & 0.410474 & 0.144532
n_qqZZ_1_Part0  & 238.432175 & 1.608177 & 0.000000 & 0.000000 & 0.000000 & 0.000000 & 0.060198 & 0.017599 & 0.561171 & 0.069218 & 0.598180 & 0.108969 & 8.494249 & 0.298960 & 4.099740 & 0.245532 & 2.611187 & 0.465172 & 1.270531 & 0.288332 & 0.629585 & 0.085371 & 0.412678 & 0.063671 & 0.439503 & 0.069869 & 0.149036 & 0.046064 & 0.045357 & 0.027218 & 0.062436 & 0.023113 & 0.043258 & 0.019533 & 0.012923 & 0.008700 & 0.012650 & 0.010641 & 0.000064 & 0.000064 & 0.000000 & 0.000000 & 0.000000 & 0.000000 & 0.000000 & 0.000000 & 0.000000 & 0.000000 & 0.000000 & 0.000000 & 0.000000 & 0.000000 & 0.000000 & 0.000000 & 0.000000 & 0.000000
n_qqZZ_1_Part1  & 0.000000 & 0.000000 & 96.442818 & 1.203840 & 0.000000 & 0.000000 & 0.048112 & 0.029076 & 3.953814 & 0.261182 & 0.659652 & 0.083786 & 2.337250 & 0.343862 & 2.515303 & 0.241784 & 1.951840 & 0.160847 & 1.305775 & 0.117633 & 0.668540 & 0.085753 & 0.390705 & 0.065299 & 0.478823 & 0.071211 & 0.102629 & 0.040367 & 0.057815 & 0.030668 & 0.030688 & 0.016518 & 0.043322 & 0.015189 & 0.011697 & 0.010912 & 0.015342 & 0.013638 & 0.007198 & 0.005953 & 1.535347 & 0.125041 & 0.476786 & 0.071791 & 0.205868 & 0.043557 & 0.041520 & 0.015153 & 0.000000 & 0.000000 & 0.000000 & 0.000000 & 0.000000 & 0.000000 & 0.000000 & 0.000000
n_qqZZ_1_Part2  & 0.000000 & 0.000000 & 0.000000 & 0.000000 & 51.617592 & 0.453330 & 0.020757 & 0.012410 & 10.380827 & 0.257904 & 0.179371 & 0.030253 & 0.946593 & 0.069616 & 1.216599 & 0.089728 & 0.960252 & 0.084441 & 0.806407 & 0.080084 & 0.596442 & 0.057796 & 0.353753 & 0.049542 & 0.410814 & 0.052198 & 0.234034 & 0.031405 & 0.062327 & 0.019266 & 0.057195 & 0.017201 & 0.037869 & 0.010881 & 0.028737 & 0.011346 & 0.008929 & 0.002899 & 0.003800 & 0.002899 & 0.000000 & 0.000000 & 0.000000 & 0.000000 & 0.000000 & 0.000000 & 0.000000 & 0.000000 & 0.166417 & 0.037431 & 0.096228 & 0.020874 & 0.058827 & 0.021384 & 0.017735 & 0.008762