ccollections
OrderedDict
p0
((lp1
(lp2
S'CR_3lep_n_jets'
p3
a(lp4
S'((lep3rd_mt > 60. && met_signif > 3. && n_bjets == 0)&&(This->GetTreeNumber()==1))'
p5
aS'n_jets'
p6
acnumpy.core.multiarray
_reconstruct
p7
(cnumpy
ndarray
p8
(I0
tp9
S'b'
p10
tp11
Rp12
(I1
(I2
tp13
cnumpy
dtype
p14
(S'f8'
p15
I0
I1
tp16
Rp17
(I3
S'<'
p18
NNNI-1
I-1
I0
tp19
bI00
S'\x00\x00\x00\x00\x00\x00\xf0\xbf\x00\x00\x00\x00\x00\x004@'
p20
tp21
baaa(lp22
S'CR_emu_mT_ZZ'
p23
a(lp24
S'((met_tst >120. && dLepR<1.8 && dMetZPhi > 2.5  && (dPhiJ100met > 0.4 || dPhiJ100met < 0) && met_signif > 10. && n_bjets == 0)&&(This->GetTreeNumber()==2))'
p25
aS'mT_ZZ'
p26
ag7
(g8
(I0
tp27
g10
tp28
Rp29
(I1
(I2
tp30
g17
I00
S'\x00\x00\x00\x00\x00\x00\x00\x00\x00\x00\x00\x00\x00@\x9f@'
p31
tp32
baaa(lp33
S'CR_ZJets_mT_ZZ'
p34
a(lp35
S'((met_tst >120. && dLepR<1.8 && dMetZPhi > 2.5 && met_signif < 9. && n_bjets == 0)&&(This->GetTreeNumber()==0))'
p36
ag26
ag7
(g8
(I0
tp37
g10
tp38
Rp39
(I1
(I2
tp40
g17
I00
S'\x00\x00\x00\x00\x00\x00\x00\x00\x00\x00\x00\x00\x00@\x9f@'
p41
tp42
baaatp43
Rp44
.